Score	Length
400	44
1000	80
82	34
1756	80
270	44
148	36
148	24
212	40
290	48
84	16
852	64
840	52
192	40
488	48
82	30
1594	54
524	38
458	34
1320	62
192	32
1368	84
180	12
568	34
392	46
194	30
1064	70
172	16
356	56
138	30
44	16
650	32
314	50
296	36
222	38
482	56
172	16
192	36
348	44
1908	108
46	26
434	62
764	62
274	32
272	24
44	24
354	38
706	50
350	38
302	34
196	20
58	16
148	28
1040	56
278	34
128	40
598	62
204	32
222	26
86	30
688	48
778	62
66	26
278	36
144	44
382	50
476	40
170	34
770	50
284	32
110	38
1800	76
130	22
138	30
98	26
64	24
1996	78
590	62
86	30
624	50
3018	96
132	24
122	22
114	26
854	80
730	60
380	52
102	34
212	34
44	16
248	32
366	38
212	36
296	56
578	58
586	62
210	34
470	46
212	32
310	46
134	34
30	26
692	68
94	34
802	46
1586	90
182	38
152	36
474	42
310	42
524	28
362	42
100	32
110	30
204	40
474	34
724	40
342	54
164	24
36	28
628	64
110	34
260	44
726	74
504	36
2430	110
98	30
790	48
696	44
140	32
90	30
380	44
144	32
676	52
184	36
508	52
584	48
556	40
58	18
410	54
140	32
936	78
228	40
494	54
594	38
156	32
282	38
332	44
55	15
214	30
344	40
186	38
214	30
86	34
642	38
1030	70
126	36
140	22
218	34
1578	94
426	42
36	24
42	26
1272	72
246	46
486	62
248	36
168	36
142	30
26	18
1262	82
406	30
642	30
210	36
76	28
894	52
306	34
476	68
80	28
638	52
370	38
122	32
362	46
374	42
180	28
594	54
246	38
292	32
130	30
266	46
262	42
270	38
480	64
252	40
112	20
192	26
148	28
40	16
1300	72
92	28
62	34
126	34
122	26
270	30
178	38
1568	94
650	58
584	56
1298	72
1912	92
96	24
760	62
1736	72
306	46
658	42
330	34
104	40
42	26
196	28
282	34
484	36
1068	70
1426	86
88	40
150	26
306	54
684	60
130	30
306	26
360	30
358	38
910	42
200	36
452	42
212	36
230	36
894	60
740	70
130	34
384	40
320	42
482	50
1174	70
448	46
268	36
424	34
406	46
22	10
310	50
266	34
206	42
718	48
80	36
150	42
658	58
132	16
148	36
216	44
232	44
420	32
128	32
196	24
152	24
300	44
960	56
538	46
448	24
846	58
1522	70
486	52
1306	56
352	36
244	28
570	54
130	30
86	38
188	38
208	32
1670	78
404	64
130	22
736	64
42	18
208	30
104	32
290	34
788	72
1772	82
192	40
314	46
42	14
564	40
128	42
398	42
60	28
4348	150
260	40
140	36
120	28
540	52
650	56
488	36
592	54
94	38
372	48
674	42
1098	74
826	66
434	46
52	34
850	58
344	44
466	54
1138	58
692	40
78	30
768	56
188	30
66	22
620	52
22	22
92	28
250	34
254	30
430	46
372	48
288	48
874	58
338	42
212	36
388	46
310	46
1012	64
330	50
454	60
316	44
19	7
162	42
2806	96
158	30
490	54
334	46
388	48
486	66
266	42
1379	92
1080	60
56	28
80	24
50	26
532	52
1092	68
246	26
882	50
222	38
792	48
26	26
776	56
356	40
96	40
112	28
712	52
496	60
264	40
594	46
358	30
1440	74
160	30
636	44
224	32
416	48
302	42
150	30
246	38
422	46
826	66
308	56
914	62
828	52
730	50
680	46
468	52
164	48
190	18
244	44
412	48
142	34
102	34
220	40
930	54
882	66
202	38
238	34
176	32
2146	92
1262	82
70	26
48	16
100	32
696	56
182	18
998	66
490	46
66	26
290	48
356	34
1488	66
146	34
728	64
292	40
402	38
796	62
19	7
288	44
410	40
312	48
398	34
52	32
132	34
212	28
68	28
104	28
374	42
52	20
916	76
518	46
56	14
126	30
426	42
460	44
598	52
152	28
958	70
336	44
386	58
66	30
84	24
900	52
210	26
480	36
1946	94
160	40
5556	142
94	34
268	36
116	28
102	34
62	30
438	66
678	46
300	20
162	32
816	58
70	26
580	44
658	64
250	34
82	26
352	28
508	48
464	48
540	56
28	16
720	50
442	38
454	50
1050	68
774	58
176	28
1022	52
354	46
382	34
320	28
1386	66
164	32
174	34
460	36
504	56
210	34
548	52
56	22
94	26
522	46
56	32
1066	50
648	48
774	50
228	44
488	56
246	32
116	36
274	42
216	32
188	40
440	58
90	32
394	36
3370	142
198	42
398	58
298	68
380	24
280	32
200	16
48	32
926	46
24	24
712	64
1716	96
424	40
282	38
694	50
100	28
2178	104
672	64
282	54
698	38
390	34
512	44
1058	66
194	42
608	44
250	42
618	54
212	34
242	42
86	30
114	22
682	62
524	44
150	30
264	32
96	32
218	38
82	26
402	42
332	44
692	52
300	36
1968	98
660	60
52	28
50	26
162	26
752	44
258	28
94	26
230	42
454	50
1172	70
504	36
48	24
198	30
188	32
1264	84
60	36
720	60
1436	88
236	44
582	54
74	22
36	28
196	16
906	42
1282	68
502	32
218	26
216	28
338	46
140	36
310	34
1000	76
720	72
106	34
472	38
358	46
540	56
230	26
284	28
202	46
88	36
818	58
590	62
740	56
130	34
272	28
424	48
670	50
206	34
546	54
744	56
82	28
406	38
216	28
74	26
772	56
686	50
2600	100
222	30
744	40
312	44
28	28
270	40
118	30
716	52
560	48
788	64
130	26
898	40
254	30
434	38
284	48
116	40
78	38
214	38
604	40
1802	106
502	34
108	28
716	52
914	54
204	32
648	48
182	44
440	36
64	32
1104	64
648	70
346	26
154	42
176	32
44	28
290	30
950	50
64	20
66	22
274	38
698	42
364	44
70	26
60	24
32	24
150	38
744	48
200	48
494	46
248	32
194	34
110	26
612	52
36	20
1188	82
148	32
678	56
454	50
40	16
1924	76
312	36
298	42
276	40
338	34
154	30
184	30
194	38
358	42
132	40
742	50
492	40
19	7
180	48
686	58
654	38
592	40
284	32
82	26
426	50
42	30
270	38
74	28
82	26
530	30
236	28
2272	106
136	40
434	38
2636	114
86	30
596	72
408	32
798	62
72	20
416	52
122	30
66	26
598	50
448	40
200	34
410	42
228	44
194	18
168	40
1196	64
82	26
596	52
398	34
514	38
1244	76
302	34
78	22
102	26
60	16
1096	58
534	44
648	62
248	36
350	42
402	38
420	40
152	28
190	38
208	28
108	24
252	56
60	28
268	36
200	32
204	40
294	30
318	40
372	44
936	60
524	64
278	38
170	38
438	38
128	24
482	36
630	50
62	24
584	64
260	32
780	56
42	26
512	48
232	36
268	36
176	32
28	28
1230	70
350	46
36	24
154	34
82	30
414	30
40	32
558	52
318	46
740	64
872	56
422	50
268	32
238	26
942	70
136	28
440	48
224	36
382	46
236	32
40	24
102	30
892	72
150	22
1244	72
112	28
1068	68
640	40
740	40
314	28
78	22
216	36
378	48
1234	74
26	26
176	28
710	62
788	56
366	26
352	56
274	30
32	24
126	34
404	40
262	30
322	38
56	24
530	50
446	58
1424	88
524	36
394	42
114	26
418	58
1068	60
1248	68
320	36
490	62
588	60
104	36
62	26
128	36
522	34
1276	76
98	22
82	26
910	64
430	50
1464	80
168	36
342	34
918	74
202	18
110	30
498	50
240	40
292	30
662	70
614	66
594	50
74	30
690	46
76	28
184	20
226	34
918	66
226	38
70	22
208	32
972	60
416	44
126	22
992	40
258	30
78	30
166	42
214	22
564	52
78	30
1932	80
412	48
834	50
870	56
340	48
226	34
1336	72
88	26
166	30
670	58
28	28
266	38
138	42
446	38
248	32
614	58
166	30
236	40
136	28
264	52
206	34
1116	76
392	52
192	48
220	24
52	28
168	32
320	36
732	60
1174	66
144	24
264	40
364	44
568	42
1092	52
354	36
278	50
572	44
466	38
66	22
1372	72
504	36
2190	94
122	34
36	28
94	38
118	34
634	50
350	40
404	40
132	40
328	32
1272	70
546	34
442	42
192	48
1894	78
288	32
784	50
104	32
90	22
176	36
334	42
400	44
238	54
776	52
986	82
818	46
438	42
364	32
246	36
676	46
446	50
270	34
462	38
610	64
602	46
326	38
266	38
782	50
782	70
544	48
216	20
128	28
202	18
1492	78
188	32
64	28
1268	54
1014	54
80	24
56	16
156	36
718	64
386	30
192	44
612	44
688	44
222	38
736	42
460	44
286	32
1760	80
452	32
250	38
268	40
654	56
130	30
584	52
818	50
202	34
494	38
692	74
212	32
76	44
422	50
426	42
86	30
484	44
428	32
382	34
284	28
186	38
524	52
900	46
390	50
86	22
466	46
234	34
176	16
98	26
272	54
418	46
830	60
576	56
66	34
478	42
568	32
314	30
82	30
26	22
698	58
544	72
196	20
1172	66
86	34
330	38
368	48
130	30
714	66
1206	78
344	44
418	38
472	36
692	68
1524	84
116	28
1328	76
940	62
702	50
252	38
2424	126
150	38
938	80
374	50
198	38
154	30
464	68
344	40
528	48
540	42
192	48
82	30
268	44
406	40
19	7
296	28
24	24
900	54
416	66
608	40
706	48
734	66
334	34
410	38
206	34
1196	92
188	28
266	34
148	24
294	42
286	46
216	42
278	32
158	26
60	16
744	48
618	46
22	22
284	26
146	34
364	32
66	22
494	38
596	48
358	38
54	14
160	28
560	52
466	42
42	14
360	48
296	40
482	34
756	48
186	38
396	48
1470	66
418	50
274	38
682	46
420	34
304	38
954	64
204	34
1550	58
226	38
1150	62
722	62
968	60
34	26
262	42
386	54
1162	66
552	56
660	64
612	60
184	36
238	34
122	28
228	44
96	32
594	74
436	40
300	40
40	32
404	60
882	54
110	34
792	52
128	28
72	32
306	42
422	46
732	60
240	44
246	30
154	38
68	32
436	44
86	22
536	52
350	36
162	34
1396	80
90	30
58	34
814	70
898	54
834	52
254	38
452	40
19	7
132	24
874	58
170	50
342	38
96	36
804	44
476	36
278	38
500	36
148	36
102	38
122	40
704	52
19	7
56	16
19	7
2678	114
450	42
1178	58
1256	76
1366	66
248	44
70	34
174	30
366	46
386	38
122	34
588	64
1040	64
3496	130
776	40
196	28
218	34
548	60
1164	72
602	48
118	26
86	38
354	34
212	60
738	62
1126	62
330	34
568	66
390	48
640	56
156	32
266	22
136	24
184	52
1732	106
304	40
162	38
508	48
216	28
1048	60
98	34
854	58
554	60
870	54
506	34
204	46
218	38
392	70
1128	82
260	40
268	44
260	40
2212	96
700	86
236	32
2846	98
348	48
86	18
1200	56
376	32
338	42
328	48
136	40
592	44
1092	66
700	66
520	52
288	32
1754	100
340	40
410	22
990	62
196	36
240	36
370	46
472	52
296	48
1550	70
376	48
636	36
174	30
176	32
348	50
438	38
240	40
242	46
344	44
470	62
426	42
452	36
90	34
124	36
278	34
254	50
450	34
180	32
806	62
834	46
178	18
100	30
284	40
220	28
1200	68
1216	58
44	28
68	36
50	26
830	54
248	32
960	64
1456	96
996	74
580	48
94	30
192	20
896	66
410	54
400	44
134	30
110	34
412	50
348	48
402	38
292	36
114	26
186	38
1226	70
368	42
172	34
362	42
476	46
698	50
214	42
236	36
88	32
466	38
616	34
2014	98
1348	84
614	52
972	96
800	52
486	42
756	50
488	40
2022	94
218	34
188	24
482	52
1200	60
872	56
360	40
154	30
60	24
152	32
192	32
82	26
82	34
1233	66
268	56
72	16
118	22
56	20
440	50
90	34
174	34
328	36
200	30
826	54
762	62
276	36
374	30
386	50
44	28
102	26
1232	68
200	40
432	48
248	24
824	68
24	24
254	30
108	30
454	62
256	36
1868	82
418	34
24	24
1008	44
1520	68
736	52
524	44
872	72
298	42
202	44
452	28
1094	62
678	54
552	48
176	44
198	38
376	60
19	7
1562	80
144	32
204	32
160	28
100	24
1122	62
326	30
674	54
526	58
448	40
308	36
518	58
604	60
46	30
222	42
798	74
534	50
94	22
280	28
326	34
56	28
222	22
156	28
54	26
34	28
730	50
1220	74
908	52
448	42
136	24
32	16
302	46
72	28
892	54
444	36
394	38
572	52
294	38
986	52
152	28
2096	82
142	38
272	52
394	58
1386	60
62	26
240	44
390	30
204	36
716	68
364	36
50	14
1154	66
448	32
530	42
1360	56
274	50
766	62
250	38
278	46
186	38
884	52
350	46
438	48
68	16
110	20
1052	56
198	42
1404	64
322	34
1036	68
180	28
232	36
160	32
312	52
118	34
178	22
254	42
156	32
204	24
208	40
590	50
1094	62
232	52
304	40
1418	82
500	40
1696	88
260	24
336	32
158	42
364	48
546	60
1416	76
240	36
128	38
392	56
188	32
60	24
124	28
158	26
96	32
468	48
82	26
268	36
518	48
256	24
128	22
500	44
302	38
294	42
1355	66
576	52
914	46
290	38
328	36
150	30
444	44
102	30
168	28
790	42
180	20
686	62
180	44
98	22
132	44
464	32
242	30
386	42
570	54
118	30
444	32
74	22
636	48
318	42
364	44
440	48
186	34
994	50
298	34
3916	126
146	34
1214	62
226	18
82	34
176	40
390	50
364	36
404	36
250	42
1088	90
338	46
228	48
456	52
798	58
42	22
718	38
506	54
408	42
142	34
640	60
1122	80
696	48
146	26
1090	66
130	30
218	42
460	44
790	64
586	38
348	44
198	32
110	26
398	54
1262	84
84	32
588	36
380	32
50	26
184	36
730	70
1110	58
96	28
590	40
780	56
374	38
462	38
572	52
1584	90
606	40
108	28
462	42
212	36
268	40
840	48
542	42
462	58
806	56
196	38
356	44
496	38
924	76
388	64
78	26
278	44
74	26
568	58
280	48
254	34
274	34
28	28
336	44
608	52
624	52
94	20
322	54
1396	70
218	42
346	38
376	44
898	44
80	28
188	28
624	52
102	30
140	32
384	28
380	40
452	40
860	60
470	42
440	40
28	24
74	30
406	46
234	50
478	56
84	28
588	56
553	48
166	28
140	24
322	34
74	30
986	64
72	24
236	32
156	32
576	48
1836	108
44	32
132	28
314	38
216	24
908	56
1038	78
196	32
1126	82
266	46
122	22
274	38
178	42
150	30
622	54
120	28
570	50
188	36
378	30
1152	68
1264	92
386	26
72	24
94	30
250	46
1544	60
286	38
314	46
406	70
764	56
1144	88
236	48
382	38
236	52
178	22
926	54
48	28
242	26
512	64
206	30
186	30
398	34
606	54
1550	88
682	48
78	26
79	15
464	46
244	40
614	54
374	34
636	48
1190	90
300	44
250	26
28	28
268	28
342	42
132	40
136	32
50	26
706	34
192	24
128	24
216	40
402	40
336	34
300	24
472	50
140	28
1248	88
1280	58
262	26
1242	74
1012	64
42	30
78	30
582	38
532	56
202	36
520	58
162	30
116	28
172	32
560	52
456	48
318	42
314	42
226	38
70	30
76	36
362	52
226	42
172	38
454	66
696	40
772	42
222	38
550	62
88	32
286	38
104	24
126	22
1164	64
100	36
208	20
208	46
134	28
370	46
878	52
106	30
786	66
228	20
1404	82
134	34
292	36
104	28
860	56
242	30
304	40
396	40
100	28
104	28
148	38
450	42
190	30
330	30
166	30
328	48
714	50
140	40
224	28
220	44
534	34
1016	58
78	38
86	26
104	32
708	60
534	46
594	36
228	28
286	46
78	30
132	32
166	30
62	14
758	44
490	54
278	26
824	52
270	30
652	44
1048	52
180	32
456	40
266	38
444	44
530	48
360	44
186	34
112	36
120	36
1566	62
144	40
258	46
164	40
572	44
442	66
62	30
100	28
202	42
66	30
168	36
842	54
600	40
382	38
600	44
384	52
80	20
82	38
102	26
238	30
48	24
288	48
278	54
496	48
632	48
642	62
442	58
856	64
46	22
490	58
770	58
140	40
538	48
550	54
788	72
440	52
532	56
2652	102
256	48
428	52
820	44
198	30
372	34
152	32
88	32
762	70
814	62
226	46
122	30
266	46
610	38
194	30
428	36
3186	112
662	30
1522	90
996	76
60	28
504	40
706	64
306	42
106	34
130	30
452	40
260	36
388	52
1056	70
330	30
70	26
194	26
82	22
56	16
204	36
648	52
102	30
92	24
176	44
152	28
2022	102
532	60
1872	90
196	58
100	28
38	26
632	58
86	30
692	60
100	32
350	38
334	54
804	68
584	40
692	48
596	60
994	74
572	48
252	48
106	38
260	36
364	32
208	44
470	42
604	68
880	62
70	22
106	26
118	34
896	48
246	38
112	28
356	68
256	44
638	46
384	40
362	34
212	36
466	40
340	36
416	56
94	30
484	52
1112	66
78	30
1026	58
328	32
402	42
428	42
440	44
90	26
19	7
292	40
506	62
154	30
256	48
364	40
210	20
292	32
628	52
254	42
970	68
214	28
894	44
114	26
112	28
570	34
152	26
704	56
152	44
286	38
1166	60
254	58
230	38
420	40
216	20
272	30
636	40
190	30
1356	82
244	32
838	58
658	46
180	44
96	32
738	42
122	26
132	32
2326	86
618	42
366	30
136	28
842	68
1488	72
620	60
386	34
874	46
636	48
450	32
548	52
290	40
962	70
36	20
478	54
48	12
306	30
64	24
304	36
430	50
228	32
982	66
376	36
78	26
654	46
530	48
866	74
246	42
668	48
888	72
450	56
142	38
230	42
140	36
292	32
338	44
410	46
596	52
464	48
268	32
130	38
292	44
1108	68
182	42
784	60
736	48
410	46
19	7
1024	72
694	46
404	38
728	60
922	34
752	56
96	24
34	14
158	38
958	58
244	36
586	54
308	40
76	24
612	44
50	34
92	28
296	40
1536	76
22	14
462	42
230	50
720	72
492	56
26	26
284	36
378	50
222	46
902	74
444	40
232	48
210	34
286	38
58	18
958	74
216	32
1250	70
86	30
294	30
270	34
248	24
250	34
370	38
232	42
90	26
508	44
500	40
250	30
480	36
1308	80
1754	86
1710	86
188	38
524	48
72	24
146	42
244	44
242	38
280	36
1132	68
570	38
274	38
68	28
108	28
114	34
232	36
646	66
226	38
362	50
622	62
164	32
1102	62
958	46
260	36
700	52
1768	88
368	36
374	28
298	38
344	32
106	26
2400	100
206	34
224	40
806	54
210	30
508	44
3392	86
36	20
556	44
682	54
272	44
556	36
1100	60
612	48
74	26
404	44
146	30
842	58
816	52
784	44
272	28
204	32
406	38
592	46
798	50
104	28
92	28
1204	76
504	36
19	7
646	60
300	40
30	22
630	50
1082	70
504	64
252	42
566	46
870	52
1626	84
858	82
1328	94
230	26
876	64
174	46
840	64
418	56
208	36
784	44
742	42
1112	48
746	42
354	46
126	30
860	54
230	46
256	36
330	42
416	44
408	32
64	20
400	36
176	48
88	28
260	32
954	60
458	42
118	34
132	32
40	24
500	56
926	68
58	24
648	64
648	44
314	58
194	38
1028	60
1332	64
268	52
764	72
300	50
1592	92
132	32
516	52
234	34
38	22
234	36
498	54
110	30
226	38
1912	92
128	28
108	28
378	46
138	34
1420	100
500	32
476	44
78	30
284	44
892	60
244	36
216	44
142	30
380	48
1766	94
200	36
32	24
960	64
268	32
1362	80
38	38
416	44
678	62
2144	96
1176	70
536	34
278	42
316	52
718	58
350	54
1256	72
186	22
274	26
2146	84
1594	80
94	22
196	48
434	46
1076	80
58	34
32	32
94	26
498	50
830	54
244	44
36	28
1354	74
488	62
338	38
52	28
866	54
730	46
158	34
392	38
1268	48
222	46
94	32
616	56
150	30
1288	68
826	62
202	32
532	56
356	44
106	30
182	18
114	30
136	32
274	30
66	26
1098	54
848	64
370	46
132	28
84	28
248	32
894	54
942	88
78	30
1058	70
1132	70
748	60
216	48
168	32
388	48
316	36
1018	70
530	34
550	58
222	34
376	40
1038	74
66	34
114	26
316	40
414	46
306	42
96	40
282	30
410	52
100	28
22	22
214	26
458	54
388	40
348	44
316	32
144	26
516	48
188	36
186	42
284	36
512	60
136	32
440	44
328	44
254	34
890	74
228	28
130	30
804	64
552	56
154	30
542	58
334	46
288	40
346	30
62	30
400	48
532	52
504	56
96	44
1303	62
412	36
338	30
124	32
242	26
306	46
298	30
94	26
316	32
1022	72
352	40
684	48
1224	76
370	34
254	42
160	32
512	52
192	28
412	52
236	34
1008	56
808	48
1170	66
558	36
294	54
944	48
732	78
992	68
40	28
962	78
1004	78
342	46
344	46
628	52
1722	82
96	32
440	36
398	46
394	30
144	24
786	40
216	26
1446	90
896	56
124	32
228	56
130	34
154	28
224	40
108	34
160	36
666	54
268	40
788	58
758	56
274	34
318	58
128	32
212	40
1564	80
370	56
240	32
170	38
244	24
514	46
186	34
276	32
208	36
226	42
452	52
210	28
392	48
228	32
38	26
972	64
288	44
200	36
304	36
234	34
118	34
444	36
206	30
400	38
166	42
462	46
106	26
32	24
194	38
112	32
234	30
238	38
282	46
344	40
318	46
224	36
968	70
212	32
456	40
650	48
552	48
696	56
350	46
108	24
290	46
152	24
190	38
396	56
1138	60
1462	62
280	52
126	34
782	58
216	36
458	42
760	64
230	42
766	62
824	70
180	48
288	44
1694	76
1384	64
118	42
244	40
574	42
1062	70
338	50
548	48
400	52
348	56
662	42
162	38
58	26
19	7
348	48
426	42
768	68
604	50
194	42
312	32
664	44
150	26
1258	80
356	36
32	32
484	48
352	44
746	42
160	28
190	38
252	32
818	74
138	30
134	36
450	50
1166	60
1400	72
574	48
296	44
292	32
254	34
534	46
246	26
52	24
114	40
332	32
654	54
176	32
106	22
166	42
232	48
192	36
776	40
246	46
120	28
760	48
472	38
286	34
568	42
252	52
138	30
1086	40
478	46
680	56
156	46
1634	82
1280	70
118	38
520	54
526	46
380	40
158	30
374	46
182	36
42	14
686	58
540	36
110	26
442	42
336	34
962	66
402	50
806	52
228	24
458	32
104	26
460	36
122	42
442	54
134	26
634	44
86	18
222	42
312	44
988	52
1340	88
422	34
316	44
52	28
446	52
346	52
104	30
96	24
188	48
216	20
1456	80
588	52
136	28
278	34
732	44
208	32
448	28
940	54
140	44
70	30
1714	84
918	50
1210	68
614	58
254	30
970	66
38	14
224	32
486	54
472	40
74	26
2012	82
342	42
1058	58
376	40
22	22
318	38
68	28
88	24
180	36
140	40
272	40
810	62
188	20
272	60
246	46
576	40
60	20
52	20
932	68
272	20
90	38
312	28
726	42
276	40
160	36
544	56
414	42
512	44
582	36
1480	76
536	48
264	40
464	46
680	48
540	48
282	42
478	50
174	34
120	28
466	50
734	54
1430	62
754	62
224	28
838	64
30	30
340	40
54	22
1150	74
1322	54
228	32
76	24
326	58
1830	78
156	32
90	30
172	16
844	68
2028	98
1178	66
732	52
146	26
50	22
840	44
56	24
62	30
156	32
320	46
104	32
396	56
19	7
130	42
718	42
572	52
60	22
270	40
702	50
68	36
430	58
284	40
146	34
54	14
614	58
834	76
976	64
356	54
1690	82
550	70
1836	84
1594	88
94	30
114	30
176	40
432	32
430	50
406	46
94	42
720	40
368	40
498	62
1024	50
38	26
1150	74
110	34
332	50
1916	98
122	30
498	46
296	40
358	46
770	44
78	30
66	34
982	64
196	32
154	34
366	44
226	42
268	40
308	52
312	36
478	70
156	28
344	52
946	82
812	54
270	28
350	42
598	74
242	34
184	28
354	42
282	36
290	34
208	40
698	42
430	38
488	56
484	44
2254	78
286	34
618	44
180	36
198	34
838	62
50	26
274	30
46	18
372	40
600	68
492	46
66	26
74	26
640	56
224	40
212	40
332	44
1116	62
194	42
288	36
112	28
294	50
1026	70
128	24
240	28
210	54
868	44
596	56
1108	84
3228	120
394	46
252	40
596	52
658	62
872	66
40	24
230	38
292	48
508	44
1012	62
88	24
218	34
184	20
1338	84
436	48
420	38
204	36
1472	68
278	30
854	54
148	32
726	66
638	46
582	46
620	60
98	22
392	44
218	34
116	28
424	44
204	34
428	44
376	36
104	32
190	38
114	30
240	24
42	22
450	50
642	56
140	32
376	44
848	56
320	44
316	44
420	44
420	40
194	50
100	28
116	28
166	30
3286	122
92	32
868	60
704	52
70	18
640	48
80	28
250	26
420	36
952	74
92	24
1000	52
84	32
444	36
306	42
738	42
276	32
228	40
140	32
1084	52
504	30
24	24
200	32
78	18
118	26
124	32
396	52
266	42
336	56
432	52
134	24
304	24
540	42
238	40
362	42
128	32
256	48
1568	96
396	28
288	32
228	52
312	48
100	28
672	56
246	30
78	22
42	34
68	28
610	48
188	40
370	38
262	26
320	28
1050	68
70	22
234	34
646	50
1308	80
202	34
714	64
504	66
688	60
220	28
1152	68
46	22
762	62
112	32
462	54
1136	68
90	30
140	32
54	22
604	54
288	40
108	28
884	56
252	40
142	34
362	42
1272	68
186	46
240	40
2420	106
250	38
336	44
144	40
184	32
116	32
180	32
860	58
796	42
614	46
698	50
346	36
724	56
118	26
916	40
172	24
458	42
518	50
1676	90
420	40
192	36
106	30
182	30
474	50
434	42
188	30
122	26
412	36
270	30
182	30
1124	58
1116	68
214	42
1092	76
226	34
248	36
94	26
158	22
466	24
56	24
380	32
1022	60
248	44
1532	76
932	56
246	38
378	34
200	44
112	32
92	20
140	32
596	44
256	40
188	24
538	42
288	44
320	38
384	48
1916	100
488	42
114	26
234	30
280	40
1112	70
378	46
176	20
854	72
938	68
122	22
78	38
168	32
600	44
92	32
876	52
278	50
70	26
236	28
386	48
1584	68
72	20
268	32
118	26
1984	102
656	52
146	46
622	50
478	54
732	48
94	26
214	34
278	30
116	40
652	72
96	20
518	50
532	48
538	38
220	32
206	46
406	34
200	30
628	40
588	48
318	34
52	24
74	34
408	52
940	64
724	60
262	34
158	38
952	56
26	26
544	44
776	46
956	52
870	58
188	24
284	40
184	40
200	36
1176	66
94	30
180	36
326	30
2450	114
206	32
66	34
320	36
184	16
55	15
436	56
68	32
382	38
1826	72
378	36
130	30
478	34
282	38
286	46
480	46
572	60
540	44
610	62
428	50
184	36
456	44
420	52
1166	74
550	42
702	62
228	32
86	20
680	34
392	44
136	36
638	56
240	32
40	32
214	26
296	52
462	50
1455	88
4112	122
524	60
86	18
406	46
328	60
212	34
598	64
186	30
278	46
408	30
432	56
710	42
218	26
104	36
1252	72
168	28
154	34
70	30
1364	60
256	40
78	22
472	52
562	50
226	36
160	40
19	7
688	52
102	38
470	42
294	44
218	30
166	38
412	44
718	78
804	48
134	34
74	26
104	32
580	30
332	38
222	46
64	32
440	52
228	28
416	52
418	50
708	56
826	70
316	32
800	64
1308	72
580	52
864	64
62	26
1338	66
62	18
1458	82
644	40
440	48
474	42
174	38
66	26
288	36
122	50
144	32
142	38
972	72
188	44
2032	100
554	46
254	42
431	38
496	56
208	28
106	26
458	58
302	30
724	64
630	50
690	50
226	30
176	36
376	52
180	36
244	28
198	36
78	34
88	32
334	46
842	76
536	56
90	26
308	40
94	26
273	38
292	52
54	26
592	40
1252	72
924	64
138	34
1130	70
466	50
492	40
268	40
104	40
832	48
228	40
324	40
86	26
1094	64
46	30
426	50
546	50
116	28
122	30
310	52
68	28
74	30
204	24
68	28
50	34
1538	62
328	38
1804	78
400	36
526	34
174	38
264	24
208	24
74	26
174	30
178	38
244	44
242	42
278	42
802	56
506	54
490	42
952	72
760	40
330	38
160	36
2428	96
930	54
308	40
790	54
228	32
322	34
890	62
237	40
1112	84
180	24
208	40
342	44
116	32
44	20
668	40
158	26
400	48
692	48
592	48
210	30
320	36
48	24
1148	72
440	60
38	22
218	34
196	44
202	26
200	40
1824	76
266	42
172	16
84	28
64	20
208	48
248	36
618	54
338	22
520	40
880	60
276	36
436	56
350	46
164	32
216	24
396	48
52	24
128	36
670	66
78	26
174	18
134	42
610	44
170	30
592	60
212	34
1036	58
420	48
1032	60
64	20
222	42
440	36
28	20
1742	82
570	54
84	28
286	34
424	56
394	38
778	58
330	50
646	54
476	56
694	54
186	30
124	36
262	38
206	30
358	42
204	28
262	38
94	26
474	34
1120	44
598	38
488	34
86	26
174	38
634	74
1302	82
88	28
194	38
76	16
970	72
436	48
244	32
1862	98
82	30
638	62
278	30
134	30
64	24
644	52
104	32
502	54
140	32
504	44
1764	96
42	26
556	58
180	44
946	58
230	46
704	60
1230	66
430	30
162	34
524	40
630	44
322	46
436	52
682	46
68	44
234	30
30	14
260	48
188	32
1350	86
232	24
606	42
916	62
64	22
1430	72
102	26
678	62
40	16
78	22
44	28
226	38
250	34
22	22
246	42
238	46
494	40
1012	74
610	58
1208	86
278	26
202	42
158	34
970	68
772	48
520	60
164	28
398	62
78	34
1644	88
364	60
878	68
282	54
374	38
768	72
872	72
274	42
614	46
96	32
226	28
88	28
136	48
492	56
1088	54
100	36
698	40
80	28
344	40
428	32
368	48
568	36
666	56
812	60
444	36
256	44
1368	80
410	42
336	40
232	32
354	38
70	14
1180	56
44	28
544	48
104	28
202	18
62	30
630	58
244	40
62	26
52	28
134	40
682	38
146	30
146	26
640	48
286	42
1234	78
54	30
186	30
358	30
350	30
310	34
168	40
292	40
156	32
260	32
1518	66
326	42
126	26
308	36
470	46
410	42
622	58
370	46
498	38
164	32
132	24
856	64
538	50
242	42
534	34
312	44
54	18
312	34
920	72
1110	58
1886	116
366	46
460	40
188	16
880	56
30	22
556	48
490	42
328	44
322	38
1104	58
660	56
116	32
1038	86
116	28
166	30
544	28
180	40
288	38
682	46
1060	70
522	34
238	38
150	38
48	16
170	38
168	28
146	30
260	40
334	38
316	36
544	54
420	28
1838	66
2610	108
60	28
186	34
450	34
226	42
820	56
52	28
344	32
56	24
50	18
1564	82
410	42
352	36
204	42
70	26
146	30
1086	84
1280	56
526	46
634	62
116	36
914	60
402	44
140	36
194	30
622	46
1090	68
466	30
354	58
722	34
256	32
84	24
730	50
114	26
1290	78
414	30
262	26
506	58
226	26
256	44
1336	80
358	46
680	48
422	50
132	28
690	48
70	30
220	32
248	32
470	46
396	48
630	70
242	46
602	58
240	48
2202	106
264	40
58	30
450	38
454	46
238	30
218	22
1280	66
156	28
402	50
100	26
232	36
140	32
666	62
194	34
186	18
730	58
70	18
98	34
310	42
372	32
671	54
252	32
168	28
132	32
72	28
114	30
86	30
174	38
264	28
228	32
576	52
848	64
100	52
602	58
156	40
432	36
194	30
414	44
782	58
202	38
402	46
196	34
172	36
1710	94
184	20
336	48
96	28
852	36
1396	62
52	36
66	18
236	44
592	48
528	60
288	32
288	32
638	50
390	56
112	28
288	32
790	78
534	64
170	38
350	34
770	70
284	36
94	30
588	40
564	42
2918	118
206	30
70	34
240	44
470	50
674	56
70	24
542	50
58	26
86	30
258	26
702	54
152	32
64	28
326	46
306	46
1182	76
128	40
168	40
448	58
80	24
152	36
74	30
1328	92
564	44
720	56
1036	62
134	30
88	28
824	68
212	24
1384	66
582	42
58	34
470	54
354	38
284	28
192	28
244	60
940	72
1560	62
180	32
272	16
320	36
116	24
898	46
144	28
76	16
126	38
156	24
976	74
448	56
348	40
632	66
644	58
100	36
350	64
158	34
160	28
120	36
530	42
172	48
578	52
1204	74
746	42
108	24
1646	92
554	34
1740	84
252	40
182	38
528	64
888	48
32	28
818	60
86	26
400	24
782	62
1712	96
524	40
112	36
1172	60
552	54
160	28
626	46
1892	72
280	36
178	34
60	16
278	42
660	48
548	64
214	38
288	40
946	62
744	50
822	50
280	44
222	38
1810	86
470	30
482	46
678	44
242	38
230	42
128	32
568	32
162	38
1322	74
824	56
150	34
102	34
426	54
120	28
120	24
322	30
406	34
118	26
392	56
150	34
1064	52
466	50
394	30
894	62
148	32
132	36
804	54
94	42
212	40
1296	60
1116	74
490	58
412	28
724	48
52	36
22	22
450	64
444	64
74	22
746	74
250	38
3582	104
134	26
458	50
580	52
384	44
504	40
2258	116
340	44
616	46
178	34
242	46
360	52
252	44
140	36
1640	72
1594	80
1450	66
1086	78
120	28
1012	56
276	36
98	26
122	26
216	32
296	36
538	62
228	36
110	34
254	38
196	14
28	28
82	34
262	38
824	62
458	38
558	56
458	54
54	14
450	50
36	28
92	28
44	26
428	50
310	28
786	70
52	36
270	50
82	30
774	42
300	32
310	36
766	54
784	52
412	52
292	28
1220	78
540	64
222	34
1062	72
982	72
400	56
168	28
1068	68
396	56
602	62
574	54
98	38
286	18
128	24
1238	58
706	38
242	42
150	34
84	28
1750	86
204	52
578	46
238	42
254	46
1110	82
54	22
1082	64
316	40
420	44
706	42
620	68
306	38
72	24
152	32
1416	80
488	56
194	38
916	64
120	36
316	40
744	72
304	24
216	36
54	30
4002	118
212	36
86	30
60	16
284	36
144	40
246	30
1118	72
516	50
160	46
968	68
386	48
78	22
258	34
328	36
834	52
1386	60
532	46
322	34
860	76
404	44
222	22
96	28
796	36
1252	72
1490	70
1624	74
180	28
74	26
1716	72
98	30
600	64
258	34
294	30
186	38
902	58
1046	52
110	26
94	30
642	50
968	52
272	40
1062	60
110	22
414	46
868	60
170	38
54	30
388	48
116	24
92	28
544	68
800	64
1176	56
336	36
608	48
306	34
284	30
56	24
158	42
326	46
612	54
184	44
308	40
434	50
470	50
164	28
96	20
738	54
998	78
80	28
598	50
1690	94
234	46
188	36
436	54
60	20
318	34
1310	62
108	24
226	42
532	52
22	10
1536	84
270	30
328	36
254	34
428	48
40	24
310	40
90	30
240	36
88	20
452	52
268	44
258	36
614	42
100	28
272	44
690	54
360	40
406	42
290	54
112	32
660	46
536	44
728	52
594	54
1018	74
562	52
410	46
70	30
1170	62
838	74
144	28
204	36
1048	56
62	38
858	50
358	42
232	40
560	44
294	46
972	44
158	38
1116	70
74	26
130	36
378	46
168	28
676	64
1578	72
316	50
846	64
296	52
298	44
486	54
636	50
76	28
266	42
206	30
1180	82
106	30
1408	64
216	36
84	36
92	20
598	62
268	34
554	54
136	36
484	48
396	36
490	54
276	28
560	44
162	34
1592	88
1220	68
684	68
1202	82
400	50
1440	82
656	60
908	56
276	28
530	40
1412	80
498	46
2836	104
206	42
320	40
110	30
74	30
730	38
58	14
384	52
546	48
366	42
226	34
712	78
958	66
98	34
506	54
1170	58
1006	50
66	22
132	28
568	44
264	40
198	38
570	46
144	50
1318	66
82	30
40	24
122	26
314	44
1286	70
346	54
148	28
508	32
246	40
466	52
776	50
270	50
474	46
1030	78
322	50
1332	60
536	52
610	70
2050	102
96	28
584	52
290	42
76	36
270	38
102	30
82	22
502	70
2174	88
734	52
1026	68
248	40
1082	74
108	32
608	52
394	46
326	48
182	34
68	24
172	16
476	64
380	54
416	60
132	32
172	28
566	38
254	22
524	40
474	44
974	62
188	32
328	32
38	30
426	38
124	24
328	40
264	40
1914	86
394	38
106	26
1408	72
104	40
262	42
260	38
178	38
950	62
326	54
490	50
252	28
108	30
248	48
570	50
1690	74
64	24
744	44
620	48
216	20
294	28
94	18
106	42
298	64
402	38
1710	82
424	44
94	26
438	38
38	30
870	62
286	38
128	40
44	16
624	44
1620	84
548	40
670	34
88	36
194	18
716	66
106	30
1468	60
338	34
686	50
370	26
272	36
1326	90
152	32
498	62
244	30
230	38
458	54
198	30
122	30
104	40
720	68
636	46
60	28
166	38
836	68
94	26
244	34
554	58
262	34
72	28
928	62
708	48
734	48
210	30
256	40
498	38
148	26
318	32
80	32
234	34
246	38
36	28
298	30
1106	70
270	24
130	34
490	46
236	44
428	46
60	36
298	46
1010	74
156	32
1120	70
728	62
272	46
406	54
96	18
894	58
750	70
1192	68
130	34
156	36
92	28
1036	66
76	32
650	42
162	26
416	36
278	62
596	36
884	56
558	50
436	48
264	28
318	30
132	32
1734	86
1364	84
432	36
124	32
322	40
130	30
190	42
470	50
222	22
30	22
1154	68
192	36
238	26
806	70
180	32
92	32
112	32
452	52
42	34
304	36
1110	58
218	26
1636	92
186	22
172	16
174	42
768	64
102	42
1026	74
538	38
270	46
428	56
728	50
612	56
1214	94
590	42
216	32
316	36
188	24
372	32
104	32
844	64
702	52
1092	72
42	14
154	38
874	70
880	44
392	52
540	50
442	40
314	42
46	14
78	26
694	78
298	30
224	24
400	36
286	38
114	28
600	36
162	42
854	70
638	50
638	70
894	66
628	40
1498	82
114	34
424	38
220	26
1148	84
1164	88
618	64
1226	54
98	42
118	34
120	36
404	44
1026	62
358	42
354	46
176	32
388	48
142	42
552	56
148	40
164	44
280	36
90	22
422	46
286	42
116	28
80	20
150	30
218	18
266	34
372	54
230	34
502	52
348	52
376	48
970	54
244	36
476	56
410	34
448	42
368	48
490	54
94	26
164	40
434	38
1988	72
102	22
324	36
600	64
480	56
686	66
1202	68
380	36
164	40
134	34
282	42
112	32
494	38
714	78
1006	72
502	38
600	36
228	48
632	60
196	36
240	40
126	46
226	30
196	48
1788	90
618	46
76	16
522	46
140	40
1746	74
280	42
412	48
642	62
294	34
486	46
92	28
192	28
138	30
322	30
306	54
2986	110
386	38
102	22
456	28
1462	88
108	20
346	42
712	52
280	36
326	46
712	74
538	46
94	18
474	38
84	32
970	50
220	32
810	46
490	38
664	46
118	30
540	32
182	26
412	32
412	40
48	12
1716	94
558	54
728	64
464	52
336	44
122	26
514	42
60	36
220	44
502	48
808	56
322	42
1034	78
2042	106
288	32
1154	82
354	50
1884	90
204	40
304	56
1144	62
372	48
178	34
438	50
254	30
180	28
1244	96
84	24
422	34
310	42
466	58
200	28
102	30
98	30
282	30
314	54
302	54
832	50
286	46
308	40
146	26
572	40
770	70
582	42
118	34
474	30
218	42
962	58
1208	52
1180	76
44	24
180	28
532	64
400	40
872	52
1222	74
132	24
966	44
686	34
124	32
132	44
1140	52
196	40
46	18
216	32
1100	68
176	40
40	32
188	40
56	16
664	60
804	76
226	22
152	28
954	78
342	26
786	62
56	24
88	28
814	42
602	50
220	32
260	36
26	14
266	34
54	22
186	22
106	26
360	48
376	36
248	40
798	62
514	50
386	48
302	30
238	26
168	32
886	80
126	34
440	44
114	30
542	60
902	74
416	40
36	28
66	36
548	48
104	20
378	38
74	22
346	46
336	28
1618	98
904	48
700	52
520	60
400	36
740	48
1468	100
366	46
102	30
208	20
156	40
266	34
152	32
532	44
1260	70
220	48
402	50
44	16
126	34
338	46
216	36
154	30
666	62
578	54
634	54
568	50
92	28
240	40
284	28
424	44
570	38
116	28
276	40
1062	58
132	28
324	36
180	20
118	30
84	32
894	74
162	34
212	36
418	38
564	46
432	56
134	28
282	58
546	46
182	46
348	40
608	62
632	60
112	28
830	68
376	36
138	42
770	66
292	34
482	38
1230	64
366	42
1028	68
94	26
472	48
442	42
19	7
502	38
288	32
454	46
472	40
1394	86
966	58
422	34
54	14
372	40
584	68
206	36
262	50
248	32
1158	78
40	24
48	28
382	42
262	42
344	32
610	38
860	72
418	58
870	50
124	24
238	42
118	46
262	38
314	42
184	32
1156	64
154	30
1918	92
78	26
210	22
356	56
232	36
1210	74
156	32
274	30
548	68
658	46
104	28
604	36
234	36
554	58
146	30
392	44
84	32
400	42
88	20
888	64
164	32
396	48
518	58
264	36
604	50
938	64
368	42
520	52
3884	134
122	22
1182	76
750	42
2020	78
312	32
368	40
282	30
398	54
488	36
300	24
236	38
596	36
1014	48
492	64
760	48
1288	76
640	48
166	34
66	26
226	46
156	28
198	50
48	28
402	38
90	30
1202	78
94	30
244	28
80	32
602	42
320	56
1796	92
36	24
46	22
78	30
510	50
428	44
840	52
146	46
454	34
144	28
498	40
784	52
394	44
758	54
262	42
194	32
140	24
1442	74
498	46
182	30
656	52
668	48
468	52
430	38
626	58
360	52
368	40
242	42
362	50
528	48
126	30
178	38
198	46
1034	62
462	38
104	24
192	32
654	50
176	28
206	42
384	46
94	18
524	62
306	34
1234	68
96	34
198	18
348	52
156	32
284	36
48	16
1642	54
260	32
106	30
908	54
56	32
406	50
34	26
822	56
114	30
1644	68
690	56
620	70
2760	96
70	14
150	42
104	28
358	58
1166	66
260	32
172	52
482	46
134	30
360	44
174	30
162	30
484	32
328	40
174	32
2466	110
1058	68
98	38
1232	96
94	30
254	26
232	40
28	20
858	70
266	38
180	36
202	30
970	66
54	28
502	48
992	52
688	44
1160	62
420	44
348	48
768	68
268	36
456	40
370	58
288	40
1598	62
870	64
668	62
128	32
144	40
264	40
476	30
452	40
200	24
142	34
84	36
458	54
156	30
404	68
376	24
1030	68
262	42
60	24
1162	62
376	48
984	56
576	44
280	48
74	18
1228	48
920	68
62	14
532	40
746	66
126	26
126	22
184	32
1864	94
272	44
610	30
1418	72
252	40
338	38
1146	66
448	56
1168	76
72	24
1258	76
568	40
148	32
1114	78
374	46
1150	82
636	56
342	22
19	7
58	34
192	30
1288	74
1240	78
562	50
366	38
142	38
62	14
344	44
760	36
388	44
500	40
1736	88
126	26
200	28
1306	62
2712	96
534	50
494	58
174	30
394	50
288	44
200	44
280	32
132	24
122	34
590	54
270	42
1166	64
112	28
208	36
86	30
264	44
102	26
638	34
204	36
182	42
328	36
110	26
66	30
402	38
758	46
486	58
30	30
108	28
218	30
254	30
992	68
500	46
320	56
96	28
236	52
424	32
374	38
2654	96
114	30
124	36
622	50
184	40
128	40
186	34
234	42
1362	78
1086	58
390	42
278	40
278	38
580	32
232	24
524	48
58	22
536	36
102	30
178	26
344	50
222	38
524	44
714	34
150	38
92	28
912	64
70	26
210	18
172	28
108	36
700	48
316	52
102	26
52	20
262	42
270	38
872	60
250	38
804	58
434	42
112	28
220	36
40	24
56	24
46	34
19	7
170	30
102	34
274	38
72	36
132	28
56	32
108	44
282	26
566	70
494	62
598	58
258	38
306	52
88	20
108	22
52	16
208	36
798	70
1058	66
1088	68
106	22
736	84
88	40
3018	114
538	46
390	46
366	50
366	50
726	46
322	38
268	36
100	32
398	50
678	48
380	36
1490	86
1216	74
998	50
212	34
192	28
42	14
212	28
1580	70
482	34
562	58
490	42
84	28
112	36
64	28
326	30
632	64
2150	96
2480	104
1308	74
490	74
384	44
236	24
56	16
520	52
344	40
424	56
164	36
220	24
374	62
578	70
58	30
4964	144
144	36
212	40
250	30
102	26
256	32
114	34
686	42
168	28
62	30
210	38
712	64
760	56
750	44
116	24
858	70
482	50
96	32
86	34
788	52
688	60
234	30
328	44
30	14
218	30
822	52
816	64
592	58
606	36
246	34
286	46
280	40
192	32
300	36
774	50
420	32
156	40
54	18
544	60
90	34
196	32
436	52
1536	96
122	26
52	28
734	58
154	34
272	32
162	30
162	38
466	42
230	42
194	30
934	78
662	54
62	30
248	32
182	30
358	38
944	58
436	48
130	34
250	30
346	50
204	16
528	48
632	40
182	26
224	36
356	40
270	42
1150	74
726	40
854	62
672	52
554	54
406	42
250	46
342	38
778	58
86	22
182	50
364	44
348	40
174	18
880	68
38	22
222	26
920	60
166	48
438	42
344	28
322	40
1900	80
744	52
490	38
242	38
586	56
586	54
342	38
64	32
694	42
208	32
270	42
322	50
368	32
658	52
234	34
188	32
330	38
84	28
312	56
42	26
278	42
234	42
204	28
270	30
242	38
24	24
38	14
1134	62
2454	82
1266	102
126	50
850	50
542	48
90	26
220	40
184	32
1042	62
156	28
98	34
48	16
186	30
334	34
840	74
204	20
176	32
246	30
246	26
796	64
390	42
146	34
236	48
164	32
580	60
412	64
396	44
220	20
1848	104
640	58
514	58
640	52
424	48
54	30
1336	56
584	68
310	42
418	42
162	30
508	44
372	48
1002	60
826	90
954	48
172	16
1580	96
200	28
346	54
190	32
2498	110
248	62
166	30
200	36
336	32
42	14
112	36
310	46
362	46
190	34
518	42
322	42
766	42
204	32
466	38
192	24
44	20
114	30
650	58
478	38
192	30
492	46
640	48
396	32
836	52
442	38
558	50
314	40
126	30
758	58
114	30
98	26
238	38
660	48
40	24
164	36
106	42
112	32
120	24
1432	76
376	44
166	42
484	68
862	66
1066	78
298	50
282	46
308	40
826	58
336	36
1144	60
296	36
54	24
412	62
110	30
258	38
1630	64
556	48
100	42
758	62
138	34
250	34
228	24
622	50
578	38
1052	64
148	32
82	34
168	36
500	40
86	26
536	60
606	42
592	60
866	62
888	90
134	26
498	50
296	44
54	30
378	50
302	34
28	20
522	42
2124	96
354	34
422	26
284	34
594	34
190	26
344	28
142	42
414	50
680	52
122	30
1116	64
528	42
30	14
174	36
366	46
184	48
84	32
440	44
1186	82
194	30
254	50
1330	74
268	40
1400	72
50	26
390	34
760	34
74	26
214	42
242	34
1072	84
208	40
124	32
84	28
672	60
1050	70
1112	60
412	52
226	34
858	50
286	34
304	36
1452	80
558	56
458	50
1326	66
68	28
248	28
582	46
370	50
498	58
58	26
222	26
1154	72
94	38
634	48
506	30
19	7
82	26
974	48
624	60
558	62
344	46
2514	122
82	30
32	16
270	30
930	66
176	40
550	62
246	30
298	34
244	44
1358	68
512	42
2204	100
40	24
32	16
364	32
1186	68
1678	94
1406	56
182	34
1096	84
1210	70
412	48
916	52
260	28
750	42
218	34
364	44
656	56
178	28
660	56
302	34
282	42
118	30
796	54
226	26
1492	92
90	30
258	36
792	52
138	26
94	26
282	38
786	50
324	44
70	22
352	44
304	40
618	34
560	48
424	56
194	38
664	56
206	42
382	50
540	52
266	38
896	82
844	46
400	60
368	36
130	26
96	24
228	32
774	68
138	38
154	30
96	28
150	30
44	26
426	62
204	36
456	40
340	58
822	70
1236	84
300	40
680	40
186	22
916	80
416	44
218	34
1108	66
246	30
750	52
204	22
296	36
384	58
458	42
502	54
92	28
220	44
374	46
120	40
226	34
70	34
144	34
144	32
550	58
920	64
360	40
378	54
78	30
532	40
174	42
2050	86
184	28
124	36
206	30
296	44
592	48
254	38
206	46
2302	104
300	40
218	44
96	20
322	34
172	32
92	24
142	46
1552	78
294	36
136	30
556	44
678	46
476	60
1038	70
1780	78
992	66
576	64
1312	72
206	30
134	30
166	34
50	18
250	26
764	60
214	26
296	44
224	24
160	20
110	26
1588	72
184	28
172	40
94	26
142	30
1706	84
332	28
860	60
124	28
522	48
496	44
580	44
246	30
418	34
144	36
344	44
634	62
104	32
248	36
682	70
190	38
580	40
338	34
224	36
296	36
74	30
568	48
412	36
42	14
472	50
104	28
604	72
70	26
108	24
70	30
384	32
256	36
196	36
980	66
500	34
1222	64
986	42
1316	80
1444	84
990	54
106	38
1706	92
206	34
216	44
240	44
1412	76
936	48
94	22
1666	78
282	36
172	32
412	40
340	30
176	28
236	44
570	58
222	42
306	42
922	70
178	34
326	42
818	66
1326	68
1128	76
584	52
368	24
370	58
40	24
906	64
532	50
146	30
334	48
116	28
310	46
98	28
338	46
448	44
342	38
186	30
200	48
2324	92
166	38
1042	66
366	38
240	44
296	44
586	62
82	26
78	26
800	40
42	18
520	58
298	48
368	40
132	32
654	50
360	50
248	36
46	30
226	30
806	62
402	26
1285	58
210	26
118	26
582	62
368	32
248	24
132	24
1318	82
180	12
280	52
46	14
90	22
338	38
706	52
986	70
908	52
206	26
130	38
806	46
88	24
352	56
19	7
486	50
472	36
366	42
226	30
480	40
224	44
1320	70
521	62
172	36
450	46
434	46
684	56
2000	88
152	36
452	48
1368	96
288	40
288	38
652	60
108	24
510	58
444	48
74	30
690	46
1091	64
406	30
108	36
150	46
368	32
320	36
94	22
732	52
302	52
2090	84
348	32
556	66
1853	90
254	50
826	58
638	42
1194	58
368	48
272	48
420	40
206	26
812	62
278	34
132	36
530	58
142	34
176	56
78	26
288	32
822	62
464	60
324	36
554	38
48	16
232	30
354	36
346	42
182	18
68	20
260	28
406	36
76	32
614	54
494	42
100	24
696	60
124	32
168	32
408	20
342	36
740	44
1082	70
110	30
186	42
606	66
246	34
1268	76
112	20
392	48
2463	96
286	38
788	56
36	28
224	32
170	38
252	32
182	22
1580	84
114	34
432	52
160	36
308	40
760	36
568	42
80	24
270	30
256	40
218	22
206	46
198	26
620	60
162	32
802	48
444	48
176	36
118	34
432	52
506	38
140	60
432	56
52	28
252	52
710	48
380	52
876	46
290	34
500	44
498	42
990	72
94	34
210	30
324	36
146	38
522	46
464	52
382	32
2797	116
176	56
1036	80
204	28
1134	68
276	40
186	42
82	22
396	50
1188	66
264	44
526	42
136	36
348	38
62	18
198	30
458	60
256	20
58	26
744	58
1076	60
294	42
802	50
512	48
420	36
38	30
344	56
182	38
120	28
308	32
462	34
68	36
548	44
34	18
1014	50
100	36
324	40
34	26
496	40
1172	56
1328	72
198	46
906	70
126	26
336	20
434	50
142	34
1118	82
322	46
94	26
632	48
156	32
908	42
336	44
84	28
410	54
120	32
308	36
288	36
72	24
92	20
154	34
196	36
584	56
1092	64
856	60
586	42
524	48
640	72
190	34
236	40
54	22
892	52
22	14
144	32
498	42
1034	58
780	56
458	34
68	22
222	30
2174	92
552	36
306	40
64	24
172	16
548	46
300	36
760	72
100	40
30	22
360	32
248	32
896	60
838	56
112	36
606	54
1128	68
860	54
280	48
428	50
84	28
242	42
298	42
548	60
344	52
174	54
224	36
146	26
1186	56
68	24
884	60
894	54
472	56
76	28
514	42
716	56
604	40
314	42
364	36
440	48
1032	60
338	46
214	30
134	46
168	32
38	14
328	60
524	52
286	42
1490	56
60	20
176	32
226	34
1162	62
284	36
1462	82
252	28
582	46
3272	102
19	7
40	16
236	36
140	32
534	34
690	48
230	38
128	32
240	36
364	36
1280	72
1922	84
42	26
248	32
148	32
150	30
310	30
1510	90
122	30
468	32
298	36
180	12
570	50
272	16
468	50
788	44
774	54
162	30
550	62
112	32
600	40
186	18
900	80
244	28
92	30
182	18
2176	86
1116	60
772	60
230	38
46	22
968	48
126	34
552	56
270	34
234	34
138	26
279	46
196	40
272	46
92	32
312	48
252	28
272	40
920	68
280	40
46	14
472	36
384	44
282	54
160	28
650	46
120	28
182	38
170	30
186	30
136	32
80	20
818	54
128	24
392	36
1054	64
270	42
534	38
88	36
586	58
28	20
574	44
800	56
622	38
82	34
232	36
284	44
2400	74
110	22
92	20
614	44
490	48
236	44
100	24
358	58
680	52
154	34
842	58
276	36
856	80
522	32
1058	68
412	48
422	58
19	7
624	56
934	62
860	48
334	42
106	30
134	34
206	42
58	14
352	40
416	36
280	34
632	56
406	34
972	48
146	22
86	34
126	50
270	52
266	34
578	62
26	26
110	42
534	58
292	36
158	34
420	40
74	22
388	38
1038	78
886	62
92	32
32	24
428	40
316	32
1070	66
348	44
48	16
832	56
98	30
60	32
138	46
724	60
474	34
538	54
1616	92
214	38
286	58
362	42
1196	72
724	56
388	52
284	46
132	36
1438	58
1352	74
92	32
668	68
486	44
152	32
444	40
724	48
142	30
376	24
1426	70
94	30
130	34
1746	86
314	26
412	44
422	42
1706	86
48	14
334	38
376	40
162	26
106	30
252	40
80	20
1530	98
420	48
226	34
84	16
452	48
174	38
198	22
116	28
1054	72
326	46
554	50
1892	82
220	44
516	44
212	28
638	50
166	42
182	18
314	48
198	42
202	42
378	46
402	54
352	36
428	60
276	44
124	22
492	56
440	44
854	70
186	22
90	30
76	16
92	28
902	58
222	30
632	48
512	44
754	56
830	70
852	64
130	26
146	26
374	38
74	26
1204	76
208	36
554	50
74	30
304	24
860	52
346	40
60	36
168	28
74	30
124	36
348	32
320	40
1652	88
556	56
4362	144
250	26
78	26
388	38
158	26
178	34
200	32
1516	60
228	28
70	14
1290	60
166	38
1074	58
296	40
1236	74
92	24
192	24
162	22
552	44
436	40
1390	82
788	60
370	54
762	58
194	34
276	48
128	28
194	30
118	26
414	50
268	48
468	44
420	44
210	30
558	58
920	64
264	32
88	32
456	36
56	28
278	34
252	36
430	38
708	64
436	60
968	54
256	24
414	42
824	72
210	30
876	76
242	34
746	60
464	56
466	50
90	30
642	46
660	54
184	28
62	18
180	44
92	44
150	34
240	28
600	48
418	54
552	44
476	60
120	36
88	32
1048	52
148	44
452	48
324	36
482	40
72	28
76	36
444	56
152	20
198	34
358	38
586	34
1322	82
50	22
132	36
266	48
154	34
370	30
800	56
286	40
156	40
312	44
476	36
858	68
710	52
368	40
1264	68
166	26
252	28
330	42
404	56
262	40
312	40
714	50
454	40
240	40
96	28
1054	84
844	68
19	7
456	34
320	52
1074	58
104	32
54	28
638	54
394	50
196	38
672	48
278	38
146	30
324	48
110	38
610	54
392	36
1772	64
150	34
208	36
1030	58
572	64
754	38
378	28
474	48
678	62
202	38
452	36
182	34
204	32
194	22
584	44
150	42
222	42
996	66
280	36
240	32
70	22
646	58
342	50
456	44
394	22
504	48
1280	74
700	52
922	70
478	58
174	32
1000	64
1972	80
736	40
386	46
616	48
198	46
910	60
562	64
552	60
454	40
82	18
722	74
106	26
154	30
924	44
60	24
340	32
402	62
64	24
298	42
226	26
268	44
240	36
74	42
26	26
94	26
360	52
436	48
1952	82
420	44
232	48
242	42
570	38
742	60
378	46
298	34
324	40
358	50
412	44
536	46
118	34
240	36
548	56
792	48
576	62
52	28
72	32
230	32
248	28
766	70
58	34
90	26
460	36
272	16
226	34
344	32
432	36
672	42
214	46
846	42
672	56
114	42
660	56
758	58
76	20
112	24
342	50
760	68
752	56
256	48
296	44
326	62
104	36
244	34
122	30
340	32
238	30
220	36
88	28
466	54
828	60
96	24
22	22
704	60
202	38
236	42
106	36
82	34
182	34
50	26
178	46
656	68
590	46
302	34
514	50
56	24
1164	72
698	66
262	42
88	24
56	32
508	44
478	42
212	36
262	34
234	38
248	44
410	38
24	24
518	44
196	28
188	32
72	28
132	40
66	34
572	40
994	46
488	42
666	58
392	52
204	48
406	40
104	28
172	32
604	34
96	36
292	48
19	7
144	36
144	32
96	32
136	28
104	36
798	66
236	32
90	26
570	54
248	28
114	26
382	54
294	38
194	30
198	14
216	24
218	18
284	32
128	32
270	34
138	22
44	20
464	40
450	46
160	32
260	20
196	20
414	42
704	52
552	48
198	26
686	44
334	34
450	26
568	56
336	48
92	20
196	24
412	36
578	54
182	38
266	38
1478	64
864	56
210	42
998	70
426	42
138	26
432	32
266	46
94	18
262	54
56	32
266	38
302	46
396	36
254	38
232	32
130	22
546	38
40	28
110	30
1314	94
308	40
384	36
404	36
184	40
420	56
268	32
298	32
320	36
274	26
624	60
592	56
140	32
448	44
74	26
608	68
530	56
420	32
628	48
206	46
190	38
804	60
122	30
440	40
172	32
538	46
1960	102
348	42
430	40
100	28
166	30
406	46
902	46
19	7
322	42
128	48
1086	54
542	50
1166	70
74	26
2302	104
60	28
802	60
278	30
198	26
146	34
336	34
612	36
74	22
142	26
220	32
820	56
224	32
1000	56
202	30
138	26
814	58
114	42
198	26
1534	78
436	40
1128	62
550	56
114	34
244	32
462	50
112	28
272	26
716	52
102	26
380	48
754	66
194	26
398	22
30	22
106	30
48	32
796	36
798	58
402	28
926	48
974	56
216	24
76	28
108	28
166	38
250	30
478	54
108	28
278	50
58	16
198	22
246	50
112	28
302	46
382	46
78	38
1048	62
528	48
248	40
178	34
204	32
88	28
438	54
388	60
1714	84
214	34
454	50
366	34
670	70
92	36
98	30
258	42
78	26
686	58
1332	96
60	20
340	52
584	46
260	40
128	32
1344	72
150	34
102	22
208	40
510	50
19	7
322	34
482	46
694	56
190	34
362	38
874	62
80	40
732	80
822	42
2550	86
768	42
302	32
448	32
128	28
204	32
1110	66
346	44
66	30
19	7
82	22
1110	62
544	36
74	34
398	26
328	44
834	46
718	50
76	24
590	46
532	54
578	50
46	14
328	32
204	24
1152	56
330	34
376	44
446	42
316	46
356	48
44	24
390	46
56	16
1272	68
398	50
298	46
1012	60
348	52
78	26
362	38
150	42
730	46
282	38
324	32
158	22
542	50
176	40
192	36
72	30
760	66
118	26
202	26
98	26
348	44
468	48
108	24
430	54
264	32
624	56
316	48
258	34
974	68
194	38
1738	82
734	70
40	24
136	28
24	12
358	48
432	40
444	56
344	48
118	30
330	42
724	50
288	44
414	42
166	30
262	54
80	32
332	40
196	28
324	44
160	36
102	26
706	42
400	46
246	38
114	34
160	32
1752	106
78	30
524	40
186	38
210	42
650	70
1576	80
302	42
216	32
48	24
56	32
68	20
274	26
164	36
80	28
74	26
294	36
742	56
420	44
74	26
302	38
196	24
1524	80
1044	54
606	44
42	22
528	34
102	26
32	24
52	24
532	60
214	50
596	56
1088	52
318	36
894	66
120	32
1776	76
258	34
288	64
172	28
488	52
178	24
78	20
398	54
104	38
268	44
934	76
476	32
286	46
478	38
772	54
500	38
2160	114
680	40
246	34
364	40
92	40
302	30
112	32
1238	70
172	34
502	50
192	20
346	26
254	34
964	60
130	30
42	30
953	82
138	34
166	26
658	50
1374	78
616	36
98	26
92	36
124	32
100	28
868	56
100	18
812	42
550	52
78	38
286	42
1444	76
96	28
1170	54
176	36
54	14
102	38
792	48
1262	70
434	54
2312	108
192	52
228	32
502	70
468	44
290	42
70	14
1312	80
352	48
182	28
848	46
1680	88
1072	52
1558	86
120	40
618	46
866	54
568	56
174	18
84	20
692	48
262	50
510	60
432	28
140	32
260	28
48	36
1210	44
304	32
88	28
164	36
286	30
924	44
64	16
156	32
338	34
736	52
104	28
776	56
646	58
360	32
252	20
36	28
284	42
248	28
112	24
182	30
78	26
1268	76
144	24
600	72
36	28
474	52
346	54
334	30
1084	64
1976	84
392	56
251	38
676	40
828	60
698	58
390	46
266	34
642	34
84	28
654	48
704	46
204	44
792	52
500	36
844	76
494	42
98	34
616	50
944	52
166	30
306	38
184	28
174	30
310	34
152	28
116	36
3020	104
804	76
756	56
3720	134
422	50
200	44
1872	108
632	68
216	38
708	52
104	32
48	16
222	38
806	64
28	16
660	52
602	42
228	32
916	60
120	32
322	30
1042	58
172	36
118	22
192	36
752	54
222	26
428	52
814	58
886	50
790	66
246	42
224	44
210	18
106	26
76	28
898	54
322	38
478	54
504	42
390	48
194	38
198	42
1314	54
232	44
876	64
146	34
208	28
336	44
234	38
180	40
460	32
292	32
84	32
152	36
458	62
1100	62
278	46
222	18
416	32
916	68
788	60
148	36
372	40
580	40
352	40
96	24
100	32
496	38
452	56
228	32
244	28
132	32
440	52
104	24
762	70
374	58
82	30
516	58
140	28
766	54
604	52
180	44
146	42
656	38
488	44
644	46
722	48
318	30
1600	80
210	38
158	30
208	36
224	44
236	32
454	52
182	34
248	52
1012	68
652	56
1200	66
454	48
92	28
1456	92
198	30
64	16
1130	54
172	16
440	40
306	42
86	26
62	22
186	18
146	26
892	60
1412	86
102	30
126	22
100	32
472	36
186	18
22	10
228	48
642	42
202	22
1094	90
104	32
1190	70
70	34
568	44
622	64
1058	86
996	72
76	24
460	32
1170	90
396	44
592	56
830	54
732	60
616	56
190	14
306	38
800	84
698	42
288	44
612	44
202	18
414	46
210	50
416	48
1116	64
342	46
220	48
166	30
684	50
292	40
162	34
602	48
174	36
66	18
230	40
902	50
56	28
1548	92
298	46
92	24
292	40
184	30
80	28
34	26
388	52
80	32
98	18
388	38
254	38
1108	50
1478	80
428	52
400	34
64	32
198	40
300	40
632	56
116	36
234	34
128	40
434	58
1084	74
266	38
474	50
156	44
196	38
1598	74
270	36
166	26
446	48
2640	70
58	26
302	50
244	44
2314	112
916	62
76	24
1038	42
56	24
636	44
52	24
320	26
960	80
634	60
150	50
722	58
522	50
56	24
34	22
166	32
322	58
496	48
494	62
270	50
360	44
38	22
722	66
236	36
198	26
409	21
324	40
44	28
830	70
214	18
572	54
366	34
2410	106
208	36
936	68
220	40
1298	82
900	44
294	36
150	36
672	44
686	58
286	30
84	20
646	58
584	48
400	50
360	48
468	36
510	42
924	56
88	34
480	36
848	52
450	38
190	18
150	30
706	46
440	56
286	34
492	60
326	30
268	28
90	30
360	40
946	58
352	36
478	54
154	30
294	22
76	24
818	50
1160	58
332	36
484	36
1174	56
208	36
160	40
1338	70
914	70
544	56
346	38
376	44
388	40
626	56
920	56
310	38
192	32
680	52
502	54
290	46
870	54
942	62
1330	64
106	30
168	24
152	32
580	52
358	38
160	38
328	28
184	32
410	38
86	26
102	26
248	48
930	52
282	46
720	56
362	38
658	58
470	52
82	26
438	34
124	40
1756	100
564	40
1056	60
488	36
78	26
1006	66
106	22
758	66
344	40
246	34
184	34
628	72
490	46
64	28
578	64
478	38
604	56
1042	62
154	30
726	42
508	44
152	32
312	48
58	30
88	20
778	48
420	42
226	50
198	18
376	40
294	30
218	42
292	30
70	30
88	32
66	22
666	48
236	52
76	24
536	38
662	54
396	44
444	44
224	24
332	52
182	34
156	28
400	52
206	38
258	26
82	26
368	42
748	68
876	56
190	42
368	40
420	42
88	20
394	34
214	22
3648	136
1328	74
498	54
68	40
232	20
854	70
130	30
144	32
192	40
360	36
174	34
230	40
34	18
156	32
82	18
610	38
286	36
1038	68
238	34
144	36
398	36
122	26
68	36
248	40
922	50
148	36
630	50
410	52
74	30
104	28
1862	108
720	66
318	46
458	50
226	34
380	44
100	24
242	26
272	32
476	36
1122	56
694	50
670	44
518	54
154	34
958	68
1528	96
1124	70
110	30
146	26
2390	94
46	30
1184	80
146	26
1412	74
72	24
1258	76
82	30
416	56
692	56
1038	66
356	32
1660	70
586	50
980	64
1856	80
928	52
572	40
268	44
334	40
2658	98
164	44
312	24
130	30
1498	66
54	22
220	36
596	48
230	26
504	52
432	36
194	30
622	54
582	34
164	38
254	26
154	34
274	38
1256	76
114	42
232	32
164	28
108	32
594	50
384	20
612	60
724	62
334	50
202	30
36	20
19	7
6366	126
1118	66
660	48
230	34
290	54
196	36
218	30
682	46
460	52
238	30
40	12
482	46
546	50
1696	100
386	38
1250	74
882	58
94	26
922	76
132	24
1270	50
116	28
174	32
446	42
226	34
756	54
236	24
2126	96
762	66
510	38
224	48
324	36
144	40
184	40
900	56
200	44
23	9
830	58
218	38
234	22
19	7
780	76
40	24
904	74
1302	74
146	34
286	40
450	50
168	40
538	54
892	54
314	48
72	16
1156	92
254	30
76	44
148	36
382	50
164	44
340	40
54	22
1006	62
276	36
244	24
284	44
76	28
124	26
70	22
1082	86
388	54
440	48
192	20
480	48
154	26
248	36
80	20
1958	60
196	28
252	32
380	46
194	42
358	38
64	24
44	20
174	38
162	30
486	38
136	32
194	34
1868	68
1568	80
948	72
400	48
1412	76
398	32
504	36
422	38
742	50
128	40
490	46
422	42
1096	60
266	28
104	28
58	38
186	26
506	54
108	36
1240	70
464	68
56	24
38	22
148	32
128	32
932	80
884	66
506	54
472	36
198	42
2500	96
34	18
294	38
210	22
580	64
104	28
214	38
780	58
128	32
194	30
192	32
1804	88
174	50
144	40
3228	120
404	52
160	36
482	34
536	36
144	20
1088	62
692	80
68	28
464	52
310	42
696	56
294	46
810	74
2016	90
828	64
1010	62
1986	98
270	38
498	56
246	42
22	22
1456	76
170	38
358	46
166	34
96	20
9586	212
208	36
512	32
464	40
30	14
1124	68
436	44
534	64
376	56
608	72
528	56
256	36
226	34
104	26
556	48
2670	120
460	44
92	26
404	48
722	54
480	40
1094	74
64	32
1080	52
230	22
794	62
160	44
210	32
144	48
140	32
90	26
596	58
264	24
54	30
266	38
172	50
544	64
862	58
224	40
74	34
444	52
216	36
952	60
254	26
657	54
646	42
440	44
932	72
292	40
550	42
874	46
166	34
2122	102
58	30
326	34
19	7
228	24
684	46
1196	58
248	32
174	18
534	58
572	46
152	32
354	34
320	44
132	32
242	26
588	44
2436	104
52	24
394	46
1646	82
3400	122
164	28
92	28
642	62
436	40
90	26
1220	64
622	54
688	54
1156	58
180	64
650	40
1086	76
398	50
2402	92
526	38
88	32
906	46
610	34
388	40
952	48
346	38
430	38
240	44
19	7
436	64
294	26
674	70
596	52
74	30
853	50
702	46
92	24
252	40
826	66
388	44
476	48
322	50
1880	84
228	40
288	36
108	32
274	26
370	54
848	60
186	22
172	16
478	38
88	36
562	52
394	42
338	34
704	54
314	38
174	42
578	58
660	48
370	38
416	28
1064	74
128	24
496	52
142	26
94	26
1008	52
230	30
134	22
38	14
400	36
82	18
312	44
19	7
1414	90
534	52
180	40
266	38
594	38
86	30
66	26
170	34
56	32
676	54
244	44
380	56
394	50
144	40
1250	90
148	20
1066	84
1542	80
1128	68
738	44
52	28
158	34
624	56
38	18
116	28
42	30
750	66
160	36
1838	102
298	50
304	52
256	32
128	32
678	54
982	66
718	54
114	26
872	66
200	28
994	58
532	48
214	40
376	46
250	34
404	48
354	38
140	32
84	28
690	54
44	28
414	54
1704	92
60	28
240	32
146	26
654	82
1080	66
430	50
630	54
52	16
580	48
190	38
502	50
440	44
78	26
86	34
234	28
448	32
430	26
46	30
760	54
214	30
528	46
382	38
82	30
514	34
78	30
52	28
150	38
72	28
1250	74
118	26
158	44
318	38
684	64
204	32
376	48
156	32
636	52
218	38
370	58
160	44
1126	58
764	68
660	40
178	38
3370	138
354	50
44	16
480	48
66	26
322	34
1618	80
210	18
294	38
646	62
100	28
188	52
114	30
572	50
896	52
660	50
428	48
392	40
520	48
414	38
436	46
342	38
710	48
362	54
140	36
1048	80
302	42
58	22
416	40
306	46
532	44
656	48
108	36
470	46
350	34
86	26
214	30
36	20
90	18
128	44
182	38
1910	98
134	34
185	24
150	30
82	18
328	32
558	42
830	66
254	24
866	70
340	40
1980	98
462	36
606	50
1936	92
108	32
1294	66
42	14
326	30
86	34
250	46
358	50
248	32
256	42
22	14
42	18
138	30
666	62
616	48
264	34
58	14
302	42
678	42
138	34
86	26
1248	72
238	22
266	22
446	42
388	32
532	44
1168	66
246	34
556	64
228	40
802	46
352	32
320	36
174	42
386	46
192	28
190	30
132	24
272	44
158	42
176	24
66	26
1374	66
66	34
578	40
452	68
210	30
1890	92
294	38
1112	56
80	32
270	42
362	34
1166	54
308	44
386	38
1536	112
172	36
870	62
266	38
314	24
266	30
148	24
518	54
408	52
200	40
238	50
186	30
286	38
56	24
192	40
500	56
196	24
497	52
536	40
578	62
294	38
318	46
342	34
210	34
108	28
232	32
486	46
56	28
352	44
202	18
128	32
126	30
344	48
418	34
2144	100
34	22
518	34
128	36
60	24
980	80
750	54
336	36
984	52
96	26
80	20
86	26
142	26
802	64
1050	66
194	34
208	36
288	44
516	40
1910	76
864	48
736	76
272	16
156	20
872	66
226	16
374	46
586	54
276	36
676	64
724	72
364	48
174	36
19	7
346	38
126	38
1022	54
176	32
748	56
402	42
256	44
394	42
96	36
1086	68
812	52
86	30
492	48
226	38
564	38
724	64
476	52
346	52
640	40
298	30
68	24
460	32
616	56
228	40
608	44
138	42
346	38
524	54
916	72
172	36
82	26
100	24
146	34
348	50
1118	90
266	34
796	56
292	28
396	44
268	40
236	44
434	50
366	26
724	56
292	44
190	30
518	54
618	50
548	44
52	24
474	52
280	40
378	66
326	38
88	36
668	50
154	46
534	44
350	46
176	32
138	30
192	48
520	48
208	36
166	34
702	50
314	38
234	42
576	54
162	34
484	46
398	42
810	58
440	44
1634	96
212	36
162	42
64	20
392	48
426	54
218	22
1130	66
60	24
220	40
120	36
1004	72
64	20
560	32
544	46
306	38
372	32
238	30
88	28
272	28
42	22
422	42
142	30
884	60
582	50
260	40
462	42
882	62
228	36
456	56
170	30
348	40
212	48
144	28
72	24
132	34
30	14
142	38
78	22
260	56
148	44
282	46
60	20
72	24
148	32
254	30
180	32
476	44
186	26
178	30
494	42
758	50
566	42
132	32
888	54
146	26
566	38
162	38
192	32
204	32
984	82
92	28
132	40
2132	84
508	46
588	40
260	28
170	34
800	52
36	28
306	42
1664	66
70	18
104	36
378	34
84	40
76	18
280	36
530	50
380	46
84	40
502	32
19	7
332	40
2714	100
212	28
236	40
110	26
652	48
930	62
382	42
790	50
534	56
52	22
1856	84
612	52
516	44
482	58
100	32
104	32
110	46
218	42
1782	80
978	62
426	50
122	22
232	30
764	56
766	66
884	72
960	52
882	52
418	22
268	32
72	20
2990	100
236	36
186	34
168	44
1202	66
1220	88
472	48
240	32
100	40
1050	62
524	36
1754	90
306	50
98	34
1190	58
574	42
344	44
734	62
40	24
100	32
416	52
1142	68
354	46
254	50
700	60
316	50
88	24
228	40
56	24
158	34
548	52
248	32
600	36
192	24
640	48
1116	80
50	26
1570	72
581	54
620	48
510	46
408	48
60	28
68	24
184	44
346	46
218	42
608	40
398	54
148	52
240	24
624	52
100	24
44	44
46	18
1748	92
56	24
556	56
370	50
188	44
222	26
40	16
432	48
568	44
174	18
140	44
48	32
450	58
296	40
520	50
194	32
314	52
364	40
476	52
660	44
274	42
378	42
2014	112
364	20
242	34
390	38
2336	108
414	44
158	46
186	24
432	44
282	50
798	54
872	52
44	28
288	44
370	30
722	72
714	70
98	30
602	74
944	60
324	42
584	64
82	34
636	54
146	30
518	42
164	36
222	58
78	30
1244	60
2144	86
126	30
50	18
604	44
244	40
102	26
382	22
212	36
524	60
72	24
170	38
72	36
1122	62
366	46
1754	68
724	56
24	12
50	26
262	34
1010	54
168	48
174	30
1126	70
674	50
544	46
290	42
514	54
252	42
66	26
186	34
416	52
850	66
548	48
388	36
110	38
1222	70
112	28
402	42
422	66
1036	72
22	22
240	36
196	32
636	54
196	24
160	40
674	50
208	20
68	28
90	26
106	26
248	38
538	50
390	46
270	38
444	62
312	48
244	38
310	26
22	10
502	54
510	42
714	58
108	36
740	56
290	34
56	32
762	66
286	46
1312	76
1622	74
290	30
722	46
328	56
174	18
122	34
844	60
368	54
100	28
80	16
340	40
2802	110
28	28
114	34
120	24
178	30
3088	136
540	40
988	60
144	32
19	7
46	22
64	28
208	44
592	48
58	30
572	52
176	36
818	50
554	42
70	38
1010	74
136	32
768	36
218	42
180	44
662	62
148	36
1192	72
178	28
60	24
412	44
368	48
418	46
570	58
216	40
1120	60
616	42
1128	72
240	44
1034	64
2214	94
184	36
228	52
444	40
1090	60
826	74
166	34
358	38
210	30
144	24
176	36
446	44
70	22
642	42
272	32
100	24
266	38
282	42
448	40
778	58
120	36
386	42
68	28
602	66
390	38
206	40
648	70
496	48
528	52
360	48
320	50
74	26
602	58
420	44
146	38
836	74
58	26
684	68
636	42
1064	54
168	32
90	26
396	38
614	50
314	46
114	42
826	70
2366	82
146	32
120	28
84	28
766	60
530	38
598	58
166	42
282	58
174	42
2674	128
286	30
98	38
204	36
32	24
48	32
122	22
518	54
1022	54
