Score	Length
26	10
12	8
70	14
18	10
12	8
30	10
32	12
8	8
8	8
10	10
10	10
10	10
14	10
35	11
18	10
18	10
28	12
20	12
10	10
20	12
16	8
19	7
18	10
44	12
22	10
22	10
20	8
18	10
10	10
8	8
8	8
12	12
16	8
19	7
8	8
26	10
18	10
10	10
12	12
10	10
8	8
38	10
10	10
18	10
16	8
102	16
18	10
22	10
90	20
8	8
26	10
38	12
20	8
30	10
14	10
16	8
106	18
16	8
12	8
12	12
16	8
20	8
18	10
12	8
18	10
36	12
40	12
40	16
20	12
28	12
18	10
16	8
22	10
36	12
22	10
10	10
12	8
8	8
20	8
8	8
104	14
28	12
10	10
38	10
10	10
8	8
18	10
24	12
12	12
20	12
8	8
16	8
12	8
8	8
118	18
8	8
22	10
26	14
44	12
18	10
8	8
12	8
12	8
12	8
36	14
18	10
8	8
8	8
80	16
12	12
8	8
10	10
10	10
10	10
18	10
18	10
18	10
18	10
8	8
12	8
42	14
8	8
8	8
18	10
26	10
18	10
20	12
18	10
22	10
36	12
20	12
16	8
16	8
8	8
8	8
16	8
22	10
10	10
26	10
26	10
8	8
20	8
20	12
26	12
38	10
18	10
38	10
70	14
52	16
58	14
8	8
18	10
12	8
16	8
16	10
58	14
34	14
10	10
70	14
22	10
19	7
22	10
20	8
22	10
38	10
12	8
22	10
8	8
10	10
8	8
16	8
8	8
110	14
10	10
28	12
110	14
20	8
16	8
38	10
20	12
12	8
20	8
48	14
24	12
18	10
8	8
20	12
20	8
10	10
12	8
12	8
16	8
14	10
16	8
16	8
22	10
26	10
10	10
8	8
20	8
8	8
8	8
18	10
8	8
12	12
44	12
12	8
22	14
10	10
8	8
14	10
8	8
26	10
14	8
8	8
8	8
8	8
28	12
8	8
18	10
54	12
36	12
14	10
16	8
12	12
19	7
18	10
26	10
19	7
8	8
18	10
32	12
16	8
8	8
70	14
8	8
22	10
18	10
8	8
24	12
16	8
14	10
19	7
22	10
14	10
20	8
30	10
12	8
16	8
14	10
19	7
19	7
12	8
20	8
18	10
8	8
8	8
14	10
8	8
88	16
8	8
10	10
22	14
18	10
38	10
8	8
10	10
12	12
70	14
12	8
18	10
20	8
8	8
30	10
26	10
22	10
8	8
20	12
14	10
8	8
26	10
8	8
16	8
8	8
28	12
20	12
28	10
30	10
18	10
10	10
114	18
70	14
26	14
20	8
30	10
100	16
8	8
8	8
22	10
22	10
12	12
16	8
8	8
26	10
8	8
22	14
8	8
16	10
30	14
22	14
19	7
8	8
8	8
20	12
8	8
68	16
28	10
38	10
28	10
18	10
8	8
10	10
20	8
26	10
8	8
28	12
84	16
18	10
8	8
28	12
58	14
8	8
28	12
10	10
18	10
20	12
16	8
20	12
18	10
82	14
28	10
16	8
70	14
173	17
10	10
22	14
22	10
20	12
8	8
18	10
28	12
20	12
8	8
8	8
12	8
92	16
12	12
102	18
90	18
24	12
118	22
24	12
18	10
26	10
8	8
20	12
12	8
28	12
22	10
18	10
22	10
18	10
8	8
8	8
19	7
16	8
22	10
26	10
8	8
12	8
20	8
8	8
22	10
22	10
8	8
16	12
80	16
24	12
26	10
16	8
20	8
28	12
20	12
10	10
18	10
20	8
20	12
18	10
8	8
12	12
8	8
122	18
8	8
20	12
50	14
10	10
50	14
22	10
56	16
16	8
18	10
19	7
22	14
18	10
8	8
22	14
20	8
8	8
26	10
26	14
8	8
19	7
70	14
8	8
26	10
30	10
28	12
19	7
20	8
10	10
8	8
16	8
28	12
10	10
8	8
10	10
28	12
8	8
16	12
10	10
30	10
72	16
20	12
18	10
8	8
30	10
36	12
42	14
20	8
44	12
18	10
20	8
32	12
16	8
38	10
12	8
19	7
20	12
16	8
18	10
8	8
22	14
18	10
22	10
12	12
8	8
8	8
8	8
40	12
36	12
8	8
18	10
8	8
12	8
70	14
22	10
18	10
16	8
8	8
8	8
14	10
22	10
18	10
30	10
16	8
16	8
84	16
22	10
12	8
36	12
20	8
8	8
18	10
19	7
88	16
20	8
19	7
8	8
56	14
8	8
18	10
32	12
8	8
12	8
58	14
10	10
18	10
8	8
19	7
20	12
8	8
10	10
22	14
19	7
38	10
30	12
14	10
10	10
30	10
20	12
42	14
26	10
8	8
20	8
26	10
20	8
20	8
20	12
8	8
44	12
10	10
22	10
82	18
8	8
16	8
20	8
22	10
22	10
30	12
18	10
18	10
24	12
18	10
12	8
32	12
18	10
14	14
18	10
10	10
18	12
70	14
8	8
8	8
26	10
30	10
12	8
8	8
8	8
20	12
16	8
176	24
22	10
12	8
12	12
20	12
70	14
8	8
8	8
22	10
10	10
18	10
16	8
18	10
32	12
10	10
32	12
10	10
12	8
19	7
18	10
16	8
10	10
14	10
10	10
22	10
16	8
12	12
58	14
20	12
8	8
16	8
30	10
20	8
26	10
112	18
8	8
18	10
36	12
19	7
14	8
8	8
8	8
20	8
10	10
18	10
18	10
10	10
10	10
44	12
212	24
120	16
20	12
22	14
20	8
8	8
20	8
28	12
8	8
10	10
24	12
18	10
26	10
10	10
10	10
18	10
8	8
10	10
8	8
18	10
8	8
16	8
20	12
36	12
36	12
18	10
12	8
18	10
128	16
8	8
30	10
26	10
16	8
16	8
18	10
16	8
26	10
28	12
8	8
120	16
8	8
16	8
16	8
10	10
80	16
10	10
12	8
8	8
8	8
10	10
32	12
16	8
64	16
36	12
12	12
26	10
10	10
36	12
166	22
10	10
10	10
38	10
16	8
80	16
43	13
18	10
8	8
22	10
10	10
12	8
8	8
34	12
42	14
24	12
8	8
30	10
20	8
22	10
68	20
8	8
56	14
18	10
19	7
26	10
20	8
16	8
44	12
18	10
36	12
16	8
78	14
44	12
14	8
8	8
20	8
8	8
10	10
36	12
22	10
8	8
20	12
16	8
12	8
12	8
19	7
20	8
8	8
20	8
8	8
20	12
160	16
80	16
26	14
10	10
19	7
8	8
8	8
22	10
16	8
18	10
32	12
16	8
14	10
10	10
8	8
8	8
22	10
43	11
20	12
14	8
8	8
8	8
20	8
19	7
10	10
10	10
12	12
8	8
10	10
80	16
20	12
46	14
20	12
30	10
19	7
8	8
16	8
14	10
32	12
8	8
36	12
124	24
18	10
8	8
8	8
16	8
80	16
22	10
28	10
18	12
10	10
8	8
18	10
10	10
8	8
22	10
10	10
10	10
20	8
16	8
16	8
84	16
10	10
8	8
8	8
8	8
8	8
10	10
8	8
22	10
12	8
16	8
8	8
14	10
20	8
26	14
44	12
16	8
8	8
16	8
22	14
20	8
206	24
16	8
8	8
20	12
22	10
146	18
44	12
94	18
22	10
18	10
20	12
10	10
26	10
70	14
38	10
26	10
22	10
44	12
35	11
20	12
20	12
14	10
20	8
22	14
14	10
10	10
18	10
18	10
19	7
8	8
20	8
84	16
8	8
8	8
10	10
8	8
44	12
84	20
12	8
20	8
18	10
8	8
8	8
18	10
28	12
8	8
16	8
56	16
10	10
8	8
16	8
8	8
19	7
10	10
16	8
20	8
92	16
8	8
18	10
22	10
18	10
28	12
28	12
19	7
19	7
28	10
12	8
10	10
10	10
24	12
16	8
48	16
10	10
12	8
28	10
44	12
20	12
16	8
34	12
34	12
24	12
8	8
8	8
14	10
16	12
26	10
166	22
8	8
18	10
8	8
8	8
24	12
8	8
38	10
16	8
26	10
16	8
8	8
20	12
18	10
30	10
38	10
88	16
10	10
10	10
48	16
8	8
28	10
10	10
8	8
22	10
10	10
30	14
22	10
20	8
30	14
38	14
8	8
8	8
92	20
14	10
38	10
8	8
20	8
8	8
10	10
30	10
26	10
20	8
132	20
12	8
18	10
80	16
20	8
22	10
8	8
8	8
22	10
20	12
19	7
8	8
44	12
22	10
8	8
18	10
10	10
18	10
20	12
74	14
18	10
10	10
8	8
26	10
16	8
18	10
20	12
8	8
26	14
19	7
30	14
12	8
19	7
80	16
19	7
36	12
20	8
22	10
8	8
102	16
10	10
18	10
16	8
20	8
18	10
18	10
10	10
14	10
22	10
8	8
18	10
8	8
10	10
8	8
19	7
16	8
20	12
8	8
8	8
80	16
16	8
20	8
40	16
30	10
28	10
8	8
36	12
18	10
100	16
16	8
8	8
16	8
42	12
10	10
8	8
16	8
32	12
20	8
8	8
22	10
12	12
10	10
8	8
16	12
16	8
22	10
76	16
19	7
10	10
20	12
16	8
14	10
8	8
36	12
10	10
12	8
30	10
28	10
110	14
43	11
8	8
20	12
20	8
44	12
8	8
18	10
8	8
20	8
12	8
40	16
16	8
35	11
8	8
22	10
26	10
8	8
8	8
16	8
20	12
8	8
18	10
20	8
20	8
20	8
28	12
14	10
20	12
18	10
26	10
10	10
10	10
80	16
43	11
16	8
16	8
30	10
28	12
70	18
14	10
19	7
10	10
22	10
14	10
8	8
42	12
38	10
12	8
26	10
16	8
12	12
8	8
20	12
26	10
10	10
28	12
19	7
40	12
14	10
22	14
18	12
19	7
16	8
8	8
18	10
16	8
8	8
86	14
16	8
24	12
20	8
16	8
38	10
84	16
26	10
20	8
20	12
14	10
30	10
18	10
20	12
8	8
16	8
18	10
8	8
8	8
38	10
12	8
8	8
18	10
12	8
8	8
10	10
36	12
12	12
12	8
22	10
22	10
8	8
10	10
8	8
194	26
20	8
16	8
16	8
38	10
8	8
8	8
22	14
38	10
236	26
72	16
30	10
18	10
20	8
40	12
22	10
20	8
19	7
8	8
10	10
8	8
18	10
26	10
8	8
16	8
12	8
8	8
8	8
18	10
38	10
10	10
8	8
8	8
8	8
16	8
20	12
18	10
40	12
10	10
18	14
24	12
8	8
8	8
20	12
8	8
14	10
26	10
8	8
22	14
12	8
108	20
8	8
20	8
84	16
22	14
22	10
448	40
8	8
12	8
22	10
18	10
22	14
76	16
8	8
8	8
82	18
20	8
30	10
19	7
20	8
8	8
18	10
10	10
8	8
8	8
70	14
28	12
16	8
20	8
16	8
16	8
12	12
8	8
126	18
38	10
10	10
10	10
8	8
8	8
12	12
18	10
22	10
8	8
8	8
19	7
14	10
24	12
8	8
16	8
18	10
16	8
22	10
26	14
10	10
282	30
8	8
26	14
38	10
8	8
20	8
20	8
22	10
18	10
22	10
18	10
38	10
8	8
16	8
20	12
10	10
8	8
8	8
20	8
18	10
20	8
12	8
26	10
8	8
8	8
36	14
20	12
18	10
46	14
38	10
26	10
16	8
8	8
8	8
36	12
80	16
174	22
8	8
20	8
8	8
19	7
43	11
18	10
8	8
12	8
70	14
12	12
20	8
18	10
22	10
64	16
30	10
20	8
16	8
22	10
8	8
30	10
36	12
20	12
26	10
80	16
16	8
16	8
8	8
8	8
26	10
110	16
8	8
8	8
12	8
30	10
16	8
8	8
8	8
8	8
20	8
114	18
8	8
22	10
16	8
224	24
38	10
10	10
38	14
16	8
8	8
22	10
8	8
8	8
22	10
94	18
8	8
8	8
8	8
8	8
130	18
8	8
8	8
8	8
20	12
10	10
70	14
40	12
16	8
30	14
10	10
8	8
8	8
24	12
80	16
8	8
12	8
88	16
22	14
30	10
28	12
22	10
10	10
8	8
8	8
16	8
22	10
10	10
20	8
22	14
8	8
8	8
10	10
8	8
22	10
16	8
22	10
38	10
32	12
26	10
30	10
10	10
20	8
8	8
36	12
26	10
12	8
26	10
8	8
12	8
18	10
16	8
16	8
8	8
90	18
19	7
8	8
40	12
12	12
18	10
12	8
20	12
20	12
22	14
8	8
22	10
8	8
34	12
8	8
10	10
26	10
22	10
14	10
10	10
16	8
18	10
8	8
24	12
16	8
8	8
16	8
18	10
16	8
16	8
16	8
8	8
18	10
22	10
8	8
18	10
12	8
8	8
142	18
10	10
8	8
8	8
26	10
8	8
8	8
18	10
8	8
16	8
8	8
16	8
94	18
8	8
18	10
10	10
10	10
16	8
18	10
10	10
12	8
22	10
12	8
10	10
18	10
8	8
22	10
10	10
18	10
30	10
18	10
106	18
8	8
18	10
12	12
22	10
8	8
19	7
26	10
72	16
8	8
48	16
10	10
20	8
18	10
12	8
10	10
22	10
8	8
36	12
22	10
154	22
12	8
26	14
10	10
8	8
16	12
20	12
8	8
8	8
8	8
28	10
8	8
10	10
28	10
14	10
36	12
18	10
20	8
16	8
72	16
112	20
18	10
20	8
10	10
26	10
22	10
20	8
8	8
8	8
8	8
20	8
12	12
16	8
12	8
16	8
12	8
96	16
16	8
22	10
40	12
30	10
16	8
19	7
10	10
26	10
16	8
32	12
10	10
20	8
8	8
18	10
43	11
12	8
24	12
12	12
40	12
10	10
8	8
18	10
8	8
26	10
18	10
46	14
10	10
20	8
20	8
40	14
130	14
20	8
20	12
8	8
30	14
24	12
8	8
18	10
18	10
70	14
12	8
20	8
42	14
24	12
10	10
18	10
56	14
26	10
8	8
22	10
10	10
32	12
18	10
40	12
38	10
10	10
26	10
18	10
19	7
38	10
10	10
28	12
20	12
18	10
19	7
12	8
8	8
10	10
8	8
26	10
8	8
8	8
8	8
48	12
20	12
26	10
19	7
32	14
30	10
8	8
22	10
20	12
12	12
22	10
82	18
8	8
10	10
16	8
38	10
30	10
8	8
22	10
20	8
8	8
14	8
8	8
36	12
18	10
30	10
110	14
80	16
16	8
96	16
16	8
8	8
8	8
16	8
64	16
30	10
20	12
12	8
12	8
8	8
8	8
16	8
26	10
8	8
44	12
20	8
20	12
20	8
8	8
30	10
8	8
10	10
22	10
22	10
16	10
8	8
20	8
32	12
18	10
22	14
8	8
16	8
20	8
8	8
10	10
26	10
30	10
8	8
26	10
50	14
20	8
48	16
20	8
22	10
18	10
38	10
8	8
26	10
10	10
28	12
22	10
78	14
12	8
28	10
8	8
26	10
8	8
18	10
19	7
18	10
12	8
8	8
22	10
10	10
10	10
116	18
8	8
20	8
8	8
104	20
12	12
28	10
22	10
16	8
14	8
38	10
10	10
14	10
22	10
28	12
10	10
26	10
120	16
12	12
18	10
18	10
90	18
8	8
26	10
10	10
12	8
18	10
18	10
16	8
90	18
8	8
38	10
18	10
14	10
88	16
64	16
8	8
10	10
26	10
14	10
8	8
20	12
12	8
8	8
22	10
22	14
19	7
70	14
10	10
8	8
18	10
170	22
10	10
19	7
28	12
18	10
8	8
8	8
18	10
50	14
22	14
16	8
56	16
8	8
19	7
20	12
148	20
46	14
16	8
38	10
44	12
19	7
30	10
10	10
12	12
40	12
20	8
16	8
72	16
22	10
12	12
19	7
8	8
19	7
16	8
10	10
10	10
8	8
36	12
20	12
8	8
8	8
160	20
8	8
12	8
18	10
18	10
16	8
8	8
18	10
20	12
12	12
20	8
8	8
22	10
19	7
35	11
10	10
12	8
8	8
14	10
8	8
8	8
18	10
8	8
8	8
12	8
38	10
20	12
14	8
20	8
8	8
16	8
8	8
8	8
12	8
16	8
18	10
8	8
12	8
38	10
70	14
36	12
10	10
10	10
30	10
12	8
8	8
22	14
38	10
12	8
20	8
12	12
18	10
8	8
20	12
32	12
8	8
12	8
106	18
26	10
26	10
8	8
26	10
12	8
18	10
18	10
8	8
20	8
20	12
12	8
18	10
28	12
20	8
16	12
8	8
30	14
48	12
24	12
20	8
20	12
20	8
8	8
22	10
10	10
16	8
22	10
18	10
80	16
16	8
20	12
8	8
20	12
8	8
18	10
16	8
10	10
24	12
70	14
10	10
10	10
74	14
148	20
18	10
19	7
36	12
20	12
10	10
18	10
8	8
74	14
34	14
22	10
20	8
22	10
18	10
14	8
8	8
24	12
8	8
38	10
19	7
8	8
12	8
8	8
22	10
84	16
19	7
16	8
8	8
30	10
8	8
20	8
20	8
32	12
12	12
19	7
26	10
26	10
8	8
28	12
8	8
18	10
16	8
18	10
28	10
14	10
20	8
22	10
8	8
20	8
8	8
26	10
10	10
20	12
10	10
12	12
8	8
38	10
10	10
36	12
22	10
44	12
10	10
18	10
8	8
8	8
10	10
28	12
8	8
8	8
8	8
10	10
16	8
56	16
12	8
8	8
54	12
20	8
22	14
102	18
16	8
26	10
43	11
8	8
38	10
8	8
12	8
12	8
26	10
30	10
20	12
16	8
10	10
118	18
8	8
30	10
19	7
19	7
38	10
26	10
18	10
92	16
19	7
26	10
19	7
38	10
86	14
8	8
16	8
18	10
16	8
26	10
10	10
8	8
22	10
30	10
8	8
58	14
8	8
8	8
10	10
90	18
8	8
18	10
20	12
14	10
10	10
16	8
43	11
20	12
8	8
12	12
8	8
32	12
8	8
38	10
8	8
20	8
18	10
20	8
8	8
12	12
26	10
8	8
32	12
14	10
12	12
8	8
26	10
8	8
18	10
34	14
18	10
8	8
36	12
22	14
8	8
38	10
24	12
14	10
16	8
16	8
12	8
32	12
10	10
8	8
16	8
18	10
18	10
8	8
18	10
18	10
8	8
80	16
8	8
16	8
12	8
12	8
96	16
22	14
26	10
8	8
192	22
12	8
38	14
18	10
20	12
46	14
8	8
82	14
8	8
22	14
64	16
18	10
8	8
20	12
22	14
46	14
22	10
16	8
22	10
10	10
8	8
32	12
8	8
72	16
8	8
20	8
16	8
18	10
102	16
10	10
12	8
20	8
16	8
10	10
20	12
10	10
26	10
8	8
8	8
22	10
22	14
16	8
36	12
43	11
16	8
12	8
8	8
22	10
10	10
8	8
12	8
10	10
18	10
26	10
28	12
10	10
8	8
24	12
108	16
16	8
20	8
24	12
16	8
12	8
8	8
8	8
8	8
36	12
100	20
19	7
8	8
14	10
12	12
8	8
8	8
20	8
12	8
8	8
18	10
8	8
8	8
19	7
16	8
8	8
88	20
8	8
24	12
46	14
10	10
19	7
22	10
10	10
18	10
72	16
10	10
12	8
8	8
12	12
8	8
30	10
10	10
16	8
8	8
20	8
18	10
16	8
22	10
38	10
10	10
8	8
8	8
34	14
16	8
8	8
36	12
12	8
8	8
8	8
38	10
12	8
10	10
38	10
36	12
14	8
44	12
10	10
80	16
72	16
8	8
20	12
18	10
38	14
18	10
8	8
16	8
32	12
208	20
10	10
24	12
16	8
28	12
106	18
12	12
44	12
20	8
10	10
22	10
8	8
14	10
18	10
8	8
10	10
20	8
8	8
30	10
18	10
30	10
60	16
8	8
70	14
16	8
18	10
10	10
40	12
18	10
8	8
16	8
20	8
12	8
20	8
26	10
8	8
8	8
16	8
20	8
18	10
114	18
8	8
20	8
19	7
20	8
8	8
19	7
10	10
8	8
19	7
43	11
28	10
96	16
20	8
14	10
16	8
88	14
26	10
40	12
22	10
18	10
19	7
10	10
22	14
8	8
40	12
8	8
16	8
8	8
8	8
14	10
20	8
32	12
8	8
22	10
22	10
8	8
18	10
10	10
20	8
16	8
8	8
22	10
20	8
22	10
18	10
20	12
16	8
19	7
8	8
26	10
8	8
18	10
8	8
110	18
16	8
8	8
22	10
12	12
44	12
26	10
76	16
18	10
22	10
8	8
8	8
10	10
16	8
18	10
8	8
8	8
8	8
18	10
20	12
8	8
16	8
12	12
18	10
18	10
10	10
106	18
8	8
16	8
19	7
12	8
10	10
40	12
20	8
30	10
20	8
70	14
19	7
30	10
40	12
12	8
30	10
36	12
174	22
8	8
110	18
30	10
22	10
10	10
12	12
22	14
26	10
8	8
8	8
20	8
20	12
44	12
14	10
22	10
8	8
20	8
8	8
8	8
10	10
8	8
20	12
8	8
38	10
22	10
8	8
20	8
124	16
20	8
20	8
30	10
16	8
16	8
8	8
8	8
8	8
22	10
20	12
44	12
80	16
8	8
18	10
8	8
16	8
12	8
28	10
8	8
16	8
10	10
32	12
18	10
26	10
34	14
8	8
8	8
16	8
12	8
8	8
20	8
12	8
10	10
10	10
10	10
8	8
20	12
8	8
16	8
10	10
20	8
16	8
20	8
8	8
10	10
70	14
8	8
12	8
34	14
8	8
16	8
8	8
26	10
12	8
18	10
12	8
20	8
16	8
8	8
22	10
10	10
16	8
16	8
8	8
8	8
20	8
12	8
12	8
20	8
34	12
22	10
20	12
8	8
18	10
18	10
19	7
8	8
92	16
18	10
8	8
44	12
22	14
20	12
8	8
26	10
8	8
40	16
12	12
26	10
8	8
8	8
26	10
8	8
16	8
10	10
8	8
10	10
10	10
20	12
8	8
8	8
10	10
8	8
10	10
16	8
8	8
10	10
22	14
10	10
10	10
22	10
16	8
36	12
54	12
28	12
8	8
16	8
8	8
10	10
16	8
10	10
96	16
8	8
18	10
8	8
19	7
19	7
10	10
38	14
124	16
150	18
8	8
8	8
8	8
8	8
12	12
20	8
12	8
16	8
8	8
12	8
20	12
8	8
22	14
22	10
38	10
82	18
20	8
16	8
10	10
10	10
22	10
38	10
8	8
18	10
20	12
38	10
102	18
18	10
16	8
18	10
96	16
20	8
19	7
8	8
10	10
12	8
20	8
30	10
40	16
8	8
44	12
36	12
10	10
8	8
8	8
16	8
20	12
16	8
20	12
20	8
30	10
12	8
18	10
8	8
30	10
24	12
16	8
10	10
8	8
8	8
22	10
26	10
8	8
78	14
10	10
18	10
12	12
18	10
8	8
10	10
8	8
34	14
10	10
44	12
18	10
8	8
70	14
22	10
8	8
82	18
26	10
12	8
20	8
20	12
30	10
12	8
10	10
8	8
10	10
96	16
22	10
86	14
16	8
30	10
30	14
8	8
8	8
30	10
40	12
8	8
8	8
16	12
8	8
16	8
19	7
10	10
8	8
12	12
16	8
10	10
38	14
8	8
22	10
94	18
20	12
124	20
18	10
10	10
18	10
38	14
44	12
20	12
18	10
44	12
12	8
19	7
20	12
8	8
16	8
16	8
8	8
8	8
8	8
70	14
12	12
72	16
14	10
16	8
20	8
22	10
16	8
22	10
30	10
8	8
8	8
18	10
18	10
16	12
8	8
19	7
16	8
10	10
70	14
20	8
16	8
10	10
16	8
20	8
20	12
8	8
8	8
38	10
22	10
30	10
8	8
12	12
12	8
20	12
20	12
30	14
20	8
19	7
18	10
52	16
30	10
20	12
22	10
20	12
8	8
96	16
10	10
26	10
16	8
20	12
8	8
18	10
26	10
8	8
16	10
10	10
30	10
8	8
44	12
10	10
34	14
19	7
18	10
16	8
16	8
74	18
8	8
12	8
20	8
19	7
16	8
140	20
20	8
28	12
28	12
28	12
10	10
12	12
8	8
14	10
12	12
30	10
18	10
22	14
8	8
38	10
36	12
70	14
102	18
18	10
8	8
20	12
26	10
12	8
8	8
10	10
35	11
40	12
18	12
57	13
10	10
16	8
8	8
26	10
38	10
46	14
16	8
12	8
18	10
68	16
22	10
20	8
26	12
19	7
12	8
26	10
8	8
18	10
8	8
12	8
26	10
20	8
30	10
8	8
26	12
18	10
16	8
10	10
28	12
84	16
20	8
36	12
28	12
8	8
12	8
19	7
18	10
12	12
8	8
8	8
20	8
8	8
8	8
20	8
10	10
10	10
12	8
19	7
12	12
8	8
22	10
18	10
8	8
8	8
8	8
52	16
48	16
8	8
10	10
20	12
8	8
22	10
8	8
10	10
10	10
18	10
12	8
20	8
72	16
8	8
22	10
10	10
22	10
12	8
140	20
8	8
12	12
10	10
18	10
20	8
10	10
94	18
12	12
10	10
8	8
8	8
30	10
20	8
8	8
18	10
8	8
30	14
10	10
12	8
26	10
8	8
16	8
8	8
10	10
8	8
12	12
20	12
102	18
58	14
8	8
20	8
22	14
30	14
30	10
22	10
18	10
10	10
18	10
32	12
32	12
20	8
36	12
10	10
10	10
86	14
32	12
28	12
90	14
20	8
90	18
84	16
38	10
30	10
18	10
8	8
20	8
34	12
20	12
28	12
10	10
10	10
28	12
26	14
16	8
22	10
38	10
18	10
8	8
10	10
22	10
84	16
18	10
20	12
18	10
38	10
16	8
8	8
12	12
8	8
40	12
14	14
40	12
12	12
22	10
12	8
18	10
8	8
18	10
8	8
12	8
38	10
8	8
16	8
8	8
20	8
26	10
26	14
18	10
8	8
56	16
58	14
8	8
8	8
28	12
43	11
16	8
10	10
36	12
18	10
30	10
84	20
8	8
26	10
19	7
10	10
8	8
12	8
50	14
16	12
16	8
16	12
16	8
26	10
36	12
22	14
90	18
8	8
40	12
20	12
18	10
10	10
8	8
10	10
18	10
10	10
8	8
8	8
16	8
22	10
80	16
18	10
10	10
8	8
14	10
26	10
26	10
28	12
90	14
8	8
18	10
16	8
30	10
26	10
16	8
8	8
16	8
28	12
26	10
16	8
12	8
20	12
16	8
14	8
10	10
82	14
26	14
18	10
88	16
30	14
30	14
20	8
16	8
28	12
16	8
58	14
22	14
20	12
38	10
10	10
18	10
8	8
8	8
10	10
20	8
26	10
20	8
20	8
20	8
102	16
10	10
16	8
12	12
20	8
10	10
8	8
16	8
48	16
28	12
8	8
8	8
8	8
26	10
8	8
16	8
12	12
8	8
10	10
14	8
18	10
16	8
16	8
10	10
8	8
58	18
20	12
40	12
18	10
22	10
28	12
43	11
18	10
10	10
8	8
8	8
20	12
20	12
19	7
26	10
35	11
8	8
22	10
44	12
72	16
44	12
46	14
30	12
12	8
8	8
12	8
12	8
16	8
18	10
22	10
10	10
8	8
10	10
14	10
22	14
16	8
10	10
8	8
38	10
20	8
16	8
22	10
22	10
8	8
8	8
80	16
20	12
18	10
10	10
8	8
18	10
8	8
20	8
20	8
19	7
24	12
10	10
8	8
20	12
22	10
26	10
18	10
18	10
32	12
10	10
120	16
8	8
22	10
20	12
16	8
18	10
10	10
32	12
8	8
8	8
14	10
28	10
43	11
126	16
8	8
16	8
8	8
19	7
8	8
16	8
20	12
130	18
8	8
8	8
20	12
12	12
44	12
26	10
16	8
30	10
8	8
22	10
30	14
8	8
86	14
20	8
8	8
19	7
12	12
10	10
10	10
18	10
20	8
8	8
22	10
10	10
32	12
8	8
8	8
10	10
18	10
8	8
8	8
10	10
16	8
18	10
8	8
20	12
18	10
8	8
28	12
8	8
19	7
16	8
36	12
30	10
12	8
8	8
8	8
8	8
20	8
8	8
16	8
20	8
16	8
8	8
8	8
16	8
8	8
30	10
19	7
22	10
10	10
12	8
20	8
16	8
19	7
94	14
28	12
12	8
8	8
20	8
26	10
22	14
43	11
16	8
16	8
110	16
28	10
30	10
8	8
16	8
46	12
76	16
16	8
36	12
108	16
10	10
10	10
10	10
12	8
8	8
20	12
16	8
22	10
8	8
8	8
12	8
16	8
8	8
18	10
116	16
84	20
18	10
18	10
8	8
10	10
70	14
20	12
8	8
70	14
70	14
26	14
8	8
26	10
32	12
10	10
110	16
10	10
8	8
108	20
26	10
10	10
8	8
20	8
22	10
30	10
14	8
8	8
70	14
34	14
8	8
8	8
12	8
50	14
20	12
8	8
36	14
8	8
8	8
36	12
36	12
28	12
8	8
26	10
26	10
20	8
40	12
10	10
10	10
8	8
8	8
8	8
88	16
16	8
8	8
8	8
12	8
30	10
14	10
8	8
218	26
8	8
22	10
16	10
8	8
8	8
74	18
18	10
14	10
66	14
10	10
8	8
8	8
14	10
8	8
30	10
28	12
19	7
30	10
12	8
10	10
20	12
24	12
18	10
8	8
28	12
8	8
8	8
22	14
8	8
18	10
26	10
8	8
8	8
16	8
8	8
8	8
18	10
78	14
26	10
10	10
10	10
18	10
106	18
22	14
20	12
36	12
110	14
28	14
20	12
12	12
46	12
80	16
19	7
20	12
16	12
8	8
10	10
30	10
10	10
10	10
8	8
120	16
18	10
10	10
10	10
12	8
10	10
16	8
12	8
12	8
22	10
70	14
8	8
16	8
20	12
8	8
10	10
38	10
28	12
20	12
12	12
40	12
18	10
20	12
10	10
16	8
72	16
22	10
18	10
10	10
18	10
20	12
10	10
20	12
43	11
16	8
19	7
20	12
12	8
16	8
19	7
14	10
19	7
44	16
70	14
10	10
30	10
14	10
32	12
16	8
38	14
20	8
8	8
18	10
16	8
22	14
36	12
8	8
12	8
16	8
22	10
8	8
18	10
16	8
19	7
16	8
8	8
30	10
12	8
148	20
16	8
8	8
26	12
19	7
19	7
10	10
18	10
22	10
10	10
8	8
20	8
162	22
72	16
24	12
20	12
16	8
26	14
8	8
18	10
16	8
20	12
10	10
20	12
28	12
16	12
18	10
8	8
10	10
20	8
24	12
20	12
38	10
10	10
16	8
20	12
8	8
36	12
16	8
8	8
26	10
8	8
12	12
16	8
50	14
18	10
14	10
8	8
18	10
8	8
22	10
20	8
16	8
16	8
14	10
108	20
74	14
8	8
8	8
8	8
22	10
80	16
26	10
90	16
88	16
82	18
8	8
20	8
8	8
30	10
10	10
112	16
8	8
20	8
12	12
8	8
26	10
18	10
8	8
8	8
22	10
12	8
106	18
30	10
30	14
170	16
22	14
16	8
16	8
8	8
74	14
10	10
18	10
44	16
16	8
16	8
22	10
8	8
8	8
19	7
8	8
12	12
26	10
44	12
22	10
20	8
22	10
10	10
20	12
8	8
20	12
36	12
12	8
88	16
50	14
26	10
76	16
18	10
92	16
16	8
8	8
18	10
28	12
10	10
10	10
92	16
8	8
60	16
8	8
30	10
12	8
170	16
74	18
8	8
16	8
32	12
80	16
19	7
35	11
28	12
12	8
18	10
12	12
8	8
98	18
16	8
16	8
12	12
22	10
82	18
100	20
20	12
8	8
8	8
8	8
14	10
26	10
8	8
19	7
20	12
16	8
72	16
12	12
8	8
10	10
8	8
16	8
8	8
43	11
20	8
26	10
8	8
18	10
26	10
78	14
20	12
22	10
12	8
16	12
16	12
38	10
20	12
18	10
28	12
22	14
162	22
28	10
22	10
56	16
8	8
16	8
20	12
18	10
38	10
8	8
18	10
8	8
8	8
18	10
90	14
10	10
8	8
12	8
12	12
12	8
40	16
19	7
19	7
22	10
16	8
10	10
16	8
12	12
12	8
70	14
16	8
26	10
20	12
20	12
8	8
8	8
10	10
8	8
32	12
12	8
10	10
16	8
8	8
8	8
16	8
18	10
22	10
14	14
30	14
16	8
20	8
22	10
44	12
56	16
8	8
50	14
36	12
10	10
8	8
38	10
16	8
102	18
10	10
8	8
8	8
10	10
8	8
26	14
26	10
98	18
40	16
18	10
30	10
10	10
8	8
20	12
26	10
8	8
18	10
8	8
8	8
16	12
8	8
8	8
86	14
22	14
10	10
8	8
19	7
38	14
20	12
8	8
8	8
120	20
22	14
20	8
8	8
26	10
70	14
19	7
8	8
142	18
28	12
16	8
30	10
28	12
8	8
10	10
16	8
8	8
38	10
8	8
20	8
8	8
12	8
8	8
58	14
32	12
16	8
43	11
56	16
16	8
16	8
16	8
22	10
22	10
8	8
12	8
84	16
12	8
16	8
8	8
19	7
72	16
86	14
8	8
16	8
14	10
12	12
14	10
8	8
8	8
19	7
110	14
18	10
18	10
8	8
44	16
20	8
18	10
18	10
8	8
10	10
8	8
30	14
12	8
38	10
12	12
20	8
22	10
12	8
8	8
8	8
38	10
20	12
12	8
94	18
44	12
14	10
20	12
26	10
74	18
38	10
16	12
26	10
10	10
10	10
22	10
10	10
38	14
42	14
8	8
18	10
16	8
10	10
16	8
22	14
86	18
8	8
20	8
10	10
19	7
98	18
20	12
12	12
12	8
70	14
8	8
8	8
44	12
18	10
8	8
14	10
10	10
19	7
10	10
28	12
80	16
32	12
26	10
8	8
16	8
44	12
8	8
20	8
178	22
22	10
18	10
18	10
22	10
20	12
18	10
20	8
22	10
26	14
24	12
16	12
19	7
8	8
22	10
10	10
16	12
19	7
16	8
28	12
30	10
8	8
14	10
8	8
8	8
16	8
16	8
8	8
26	10
24	12
22	10
18	10
22	10
28	12
8	8
16	8
24	12
82	18
22	10
60	16
16	8
10	10
10	10
8	8
14	10
18	10
8	8
20	8
8	8
43	11
12	12
20	8
38	12
8	8
14	10
10	10
84	16
16	8
22	10
40	12
22	14
16	8
12	8
12	8
8	8
38	10
98	18
92	16
16	8
30	10
16	8
8	8
18	10
10	10
22	14
10	10
50	14
28	12
12	12
16	8
20	8
8	8
8	8
30	14
10	10
20	8
10	10
18	10
22	10
12	8
16	8
22	10
8	8
30	10
20	8
54	12
8	8
22	10
28	12
86	14
20	8
18	10
10	10
16	8
16	8
18	10
8	8
10	10
14	10
76	16
16	8
8	8
8	8
8	8
16	8
20	8
20	8
20	8
22	14
10	10
44	12
8	8
22	10
16	8
8	8
30	10
18	10
10	10
26	10
20	8
30	10
16	8
16	8
19	7
18	10
14	14
12	8
20	8
8	8
26	10
8	8
8	8
20	8
20	8
20	8
26	10
16	10
134	18
8	8
16	8
10	10
16	8
22	10
20	8
8	8
16	8
26	14
18	10
16	8
26	10
36	12
22	10
20	8
16	8
8	8
22	14
22	10
24	12
20	8
26	10
8	8
19	7
22	10
110	14
10	10
10	10
10	10
22	14
16	8
8	8
102	18
22	10
8	8
38	10
20	12
18	10
20	8
10	10
8	8
8	8
8	8
8	8
14	10
16	8
8	8
20	12
28	12
18	10
24	12
22	10
22	10
26	10
16	8
8	8
16	8
12	8
38	10
10	10
116	16
14	10
8	8
16	8
12	8
28	12
26	10
38	12
30	10
32	12
44	12
22	10
14	10
12	8
14	10
8	8
18	10
8	8
22	10
20	12
26	10
8	8
8	8
30	14
92	16
8	8
22	10
10	10
90	18
26	10
10	10
22	10
28	10
12	8
40	16
22	14
8	8
18	10
8	8
18	10
18	10
26	10
70	14
16	8
8	8
104	20
10	10
44	12
10	10
10	10
10	10
90	18
8	8
16	8
30	10
20	12
20	12
30	10
90	18
12	8
16	8
12	12
12	8
12	8
92	16
22	10
18	10
40	12
20	12
26	10
8	8
8	8
32	12
26	10
30	10
48	16
36	12
20	8
18	10
16	8
12	8
152	20
20	8
8	8
8	8
16	8
18	10
36	12
14	10
28	12
20	12
12	8
88	16
8	8
20	12
8	8
10	10
8	8
18	10
14	10
10	10
38	10
8	8
16	8
8	8
10	10
10	10
12	8
10	10
22	10
26	10
12	8
8	8
12	12
16	8
20	8
20	8
16	8
8	8
12	8
18	10
16	8
16	8
26	10
20	8
8	8
10	10
16	8
8	8
70	14
8	8
28	12
26	10
12	8
20	12
16	8
16	8
8	8
26	10
10	10
18	10
30	10
20	12
18	10
106	18
8	8
92	16
10	10
8	8
20	12
20	12
8	8
48	12
20	8
8	8
20	8
18	10
18	10
30	10
22	10
22	10
16	8
8	8
10	10
8	8
18	10
18	10
20	12
14	8
28	12
8	8
18	10
154	22
70	14
36	12
8	8
100	16
12	8
18	10
16	8
8	8
80	16
8	8
12	8
10	10
8	8
20	8
8	8
8	8
8	8
8	8
20	12
16	8
20	12
26	10
8	8
156	20
8	8
22	10
19	7
8	8
26	10
92	20
18	10
26	10
24	12
90	18
8	8
28	12
20	8
19	7
18	10
16	8
32	12
24	12
8	8
16	8
30	10
12	8
8	8
20	8
18	10
20	12
22	10
28	12
18	10
8	8
20	8
22	10
18	10
26	10
8	8
96	16
114	18
22	14
82	18
8	8
44	12
12	12
8	8
18	10
32	12
19	7
16	8
12	8
16	8
16	8
18	10
8	8
36	12
10	10
14	10
20	8
20	8
10	10
10	10
30	10
10	10
28	12
20	8
8	8
18	10
18	10
8	8
18	10
20	8
18	10
20	12
8	8
8	8
12	8
20	12
58	14
50	14
10	10
22	10
12	12
8	8
22	10
18	10
20	12
8	8
32	12
12	8
18	10
18	10
82	18
32	12
18	10
40	12
12	8
8	8
30	10
8	8
8	8
26	10
12	12
8	8
18	10
12	8
70	14
8	8
26	10
74	14
14	10
80	16
8	8
8	8
32	12
16	8
44	12
10	10
22	14
8	8
18	10
16	8
32	12
12	8
26	14
40	12
80	16
12	8
8	8
12	8
8	8
16	8
8	8
16	12
16	8
12	12
20	12
30	10
20	8
16	8
26	10
8	8
19	7
38	10
20	8
22	10
10	10
8	8
22	14
16	8
18	10
8	8
38	10
8	8
16	8
16	8
8	8
18	10
30	10
18	10
30	10
70	14
18	10
20	8
8	8
8	8
22	10
19	7
20	8
12	8
16	8
8	8
8	8
22	10
14	10
16	8
38	10
8	8
10	10
32	12
18	10
12	8
16	8
8	8
32	12
30	10
19	7
16	8
8	8
20	8
8	8
8	8
20	8
10	10
16	8
8	8
14	10
18	10
8	8
26	10
10	10
8	8
8	8
26	10
40	12
90	14
10	10
8	8
8	8
20	8
12	12
8	8
10	10
10	10
20	8
22	10
12	8
18	10
12	12
40	12
10	10
124	16
58	14
19	7
18	10
18	10
16	8
12	12
8	8
44	12
30	10
14	10
12	8
16	8
54	14
8	8
10	10
38	10
8	8
22	10
16	10
26	10
8	8
8	8
8	8
10	10
16	10
28	12
10	10
12	8
10	10
36	12
16	8
18	10
22	10
18	10
8	8
28	12
18	10
16	8
8	8
116	20
90	16
16	8
10	10
14	10
8	8
20	12
12	12
18	10
30	10
26	10
20	8
14	8
8	8
40	12
22	10
18	10
38	10
30	10
124	20
22	14
12	8
90	14
46	14
8	8
16	8
12	8
84	16
20	8
80	16
8	8
22	10
18	10
84	16
8	8
26	10
24	12
38	14
16	8
44	12
30	10
30	10
16	8
82	18
44	12
10	10
12	12
28	14
14	10
30	14
18	10
52	16
44	12
22	10
20	12
14	10
38	10
8	8
8	8
8	8
20	8
12	8
20	8
8	8
16	8
16	8
10	10
38	10
8	8
20	8
8	8
28	10
12	12
14	10
26	10
43	13
26	10
20	8
136	20
10	10
8	8
10	10
46	14
18	10
30	10
84	16
16	8
20	8
8	8
10	10
16	12
18	10
16	8
18	10
20	8
30	12
18	10
18	10
30	10
19	7
20	8
18	10
18	10
28	12
10	10
8	8
28	12
8	8
19	7
10	10
30	10
8	8
16	8
16	8
8	8
16	10
16	8
26	10
16	10
8	8
16	8
8	8
20	8
12	12
22	10
30	14
12	8
30	10
18	10
22	14
16	8
8	8
82	14
20	8
8	8
20	8
10	10
66	18
80	16
22	10
8	8
26	10
8	8
32	12
8	8
36	12
8	8
36	12
20	12
26	10
20	8
12	8
18	10
16	8
26	10
88	16
20	8
22	10
26	10
8	8
8	8
22	10
164	28
10	10
18	10
16	8
12	8
12	12
8	8
8	8
12	8
20	12
8	8
22	10
10	10
20	8
16	8
16	8
8	8
30	10
20	8
19	7
10	10
16	8
116	20
12	8
24	12
8	8
20	8
26	10
26	14
116	20
12	8
12	8
18	10
10	10
30	10
14	10
38	14
10	10
12	8
8	8
19	7
8	8
10	10
26	14
16	8
16	8
8	8
70	14
16	8
104	14
44	12
8	8
8	8
10	10
34	14
8	8
8	8
30	12
8	8
18	10
80	16
36	12
10	10
20	8
20	12
22	14
140	18
18	10
8	8
19	7
8	8
12	8
26	10
18	10
18	10
20	12
22	10
12	8
14	10
44	12
22	10
80	16
19	7
140	20
8	8
18	10
18	10
20	12
14	8
16	8
56	16
20	8
8	8
26	10
12	8
38	10
12	8
10	10
22	10
19	7
10	10
8	8
18	10
20	12
26	12
38	10
20	8
14	10
80	16
20	8
8	8
20	12
30	10
30	10
70	14
20	12
10	10
20	8
70	14
8	8
124	20
46	14
46	14
22	10
22	10
22	10
46	14
12	12
22	14
10	10
20	12
19	7
20	8
18	10
12	12
8	8
14	10
152	20
10	10
22	10
38	10
20	12
38	10
18	10
20	12
8	8
40	12
8	8
26	10
10	10
8	8
18	10
16	8
26	10
88	18
10	10
43	11
10	10
18	10
8	8
20	12
12	12
8	8
18	10
10	10
32	12
22	10
8	8
18	10
18	10
8	8
110	18
12	8
16	8
8	8
20	8
26	12
22	10
16	8
12	8
22	10
30	10
10	10
22	10
19	7
28	10
16	12
8	8
22	14
56	16
8	8
12	8
20	8
12	12
26	10
124	16
28	12
12	12
20	8
8	8
72	16
8	8
10	10
26	10
18	10
8	8
8	8
112	20
36	12
26	10
12	12
8	8
22	14
30	14
16	8
20	8
19	7
8	8
8	8
12	8
12	8
8	8
32	12
16	8
8	8
70	14
8	8
8	8
8	8
16	8
16	8
16	8
19	7
16	8
8	8
8	8
18	10
16	8
24	12
22	10
8	8
20	8
26	10
20	8
22	14
10	10
16	8
19	7
8	8
20	12
26	10
8	8
18	10
22	10
38	10
8	8
70	14
8	8
20	12
20	12
8	8
8	8
22	10
8	8
20	8
18	10
8	8
70	14
18	10
20	8
20	12
28	12
18	10
20	8
10	10
10	10
12	8
10	10
16	8
22	14
8	8
80	16
8	8
16	8
20	12
20	8
8	8
36	12
18	10
20	8
8	8
16	8
8	8
86	14
8	8
8	8
24	12
70	14
30	14
8	8
10	10
46	14
20	8
20	8
16	8
12	8
8	8
18	10
10	10
18	10
26	10
10	10
22	10
20	8
10	10
8	8
38	10
8	8
16	8
26	10
12	8
20	8
88	16
70	14
8	8
8	8
16	8
12	8
8	8
82	14
14	10
26	10
24	12
20	12
70	14
18	10
8	8
10	10
30	10
20	8
19	7
16	8
10	10
8	8
20	12
22	10
8	8
16	8
40	12
56	14
20	8
16	8
8	8
38	10
16	8
8	8
8	8
30	10
10	10
20	12
8	8
26	10
16	8
114	14
44	12
40	12
8	8
26	10
16	8
8	8
20	12
18	10
22	10
8	8
8	8
20	8
26	10
12	12
22	10
8	8
16	8
22	10
18	10
12	8
16	8
18	10
18	10
12	12
19	7
20	12
20	12
100	14
114	18
8	8
20	12
20	12
8	8
20	8
72	16
12	12
12	12
19	7
10	10
24	16
18	10
19	7
28	12
16	12
32	12
8	8
18	10
16	8
10	10
8	8
16	8
150	22
22	14
12	12
8	8
20	8
16	12
22	10
10	10
18	10
18	10
12	8
24	12
8	8
18	10
24	12
10	10
8	8
10	10
70	14
12	8
20	12
8	8
20	8
10	10
18	10
10	10
78	14
16	8
16	8
20	12
20	8
8	8
20	8
8	8
22	10
80	16
8	8
30	14
106	20
20	12
8	8
16	8
8	8
12	8
86	14
20	8
82	18
14	10
8	8
8	8
16	8
10	10
22	14
18	10
10	10
19	7
16	8
18	10
16	8
10	10
16	8
8	8
38	14
10	10
18	12
16	8
18	10
30	10
10	10
80	16
20	12
76	16
20	12
12	8
18	10
8	8
8	8
18	10
120	18
18	10
32	12
20	8
40	12
12	12
22	10
14	8
82	18
74	14
44	12
80	16
18	10
40	12
8	8
18	10
42	18
24	12
24	12
10	10
19	7
12	8
44	12
80	16
19	7
96	20
20	12
8	8
8	8
26	10
30	10
28	12
10	10
20	8
20	8
10	10
44	12
22	14
38	10
20	8
16	8
10	10
70	14
158	22
18	10
19	7
10	10
30	10
10	10
70	14
100	16
19	7
32	12
50	14
38	10
22	10
16	8
14	10
12	12
22	10
152	20
12	8
20	8
16	8
16	12
12	8
16	8
8	8
28	12
12	12
24	12
8	8
19	7
12	8
20	8
110	14
20	8
8	8
16	8
30	10
12	12
16	8
42	18
10	10
8	8
26	10
110	14
12	12
8	8
38	10
20	12
18	10
28	12
16	8
10	10
12	12
12	8
18	10
8	8
14	10
10	10
32	12
18	10
10	10
18	10
8	8
34	14
20	8
18	10
24	12
8	8
8	8
20	12
72	16
34	14
26	10
16	8
26	10
43	11
80	16
20	12
12	8
22	10
18	10
8	8
16	8
44	12
10	10
10	10
18	10
16	8
8	8
19	7
8	8
26	10
154	24
8	8
12	8
70	14
20	8
22	10
30	10
19	7
16	8
16	8
14	10
12	8
30	10
70	14
8	8
72	16
8	8
8	8
30	14
18	10
20	12
30	10
8	8
20	12
44	12
84	16
8	8
19	7
10	10
22	10
10	10
28	12
10	10
26	10
20	8
12	12
8	8
8	8
8	8
12	12
18	10
10	10
8	8
8	8
12	8
36	12
26	10
8	8
10	10
20	8
8	8
8	8
26	10
16	8
16	8
18	10
8	8
70	14
8	8
8	8
18	10
12	8
10	10
18	10
10	10
30	10
8	8
20	8
8	8
8	8
90	16
8	8
12	8
16	8
10	10
10	10
12	8
36	12
8	8
54	12
18	10
80	16
10	10
18	10
10	10
16	8
8	8
34	12
40	12
20	12
18	10
10	10
20	8
12	12
18	10
46	14
10	10
8	8
8	8
8	8
10	10
16	8
22	10
8	8
32	12
26	14
20	8
28	12
12	12
40	12
18	10
22	14
20	12
8	8
8	8
20	8
16	8
16	8
8	8
18	10
8	8
18	10
70	14
26	10
8	8
30	10
12	8
56	16
18	10
32	12
19	7
32	12
10	10
104	16
22	10
14	10
8	8
10	10
8	8
20	8
16	8
8	8
16	8
8	8
10	10
96	16
8	8
10	10
22	10
10	10
8	8
30	10
16	8
16	8
26	10
10	10
16	8
18	10
22	10
26	10
10	10
26	10
8	8
8	8
8	8
22	10
10	10
10	10
8	8
20	8
8	8
28	12
12	8
8	8
8	8
16	8
10	10
12	8
20	8
130	18
20	8
28	12
20	12
12	8
18	10
22	10
22	10
18	10
12	12
22	10
22	14
70	14
8	8
64	16
8	8
8	8
10	10
8	8
24	12
12	12
20	12
8	8
36	12
12	8
32	12
22	10
36	12
8	8
12	12
22	10
18	10
182	26
22	14
106	18
72	16
20	12
70	14
110	14
36	12
8	8
8	8
88	16
28	10
10	10
8	8
8	8
14	8
20	8
8	8
12	12
18	10
16	12
12	12
22	10
30	10
8	8
22	10
12	8
8	8
32	12
8	8
22	10
18	10
8	8
18	10
78	14
22	10
18	10
16	8
24	12
20	12
8	8
16	8
10	10
20	12
10	10
20	8
26	14
12	8
8	8
20	12
18	10
12	12
36	12
20	8
19	7
14	10
12	8
46	14
18	10
10	10
19	7
40	12
120	16
22	10
22	10
18	10
22	10
8	8
20	12
10	10
32	12
44	12
10	10
18	10
16	8
22	14
44	12
8	8
8	8
18	10
18	10
12	12
18	10
18	10
20	12
8	8
14	10
19	7
12	8
30	10
12	12
138	18
8	8
12	8
32	12
10	10
8	8
18	10
20	8
22	10
40	12
8	8
22	10
20	8
20	8
28	12
36	12
19	7
8	8
38	14
32	12
16	8
16	10
16	8
8	8
22	10
18	10
24	12
20	12
18	10
16	8
10	10
8	8
30	10
40	12
19	7
70	14
8	8
72	16
96	16
18	10
12	8
38	10
8	8
22	10
8	8
22	10
22	10
28	12
18	10
10	10
100	20
16	8
16	8
18	10
10	10
8	8
20	8
82	14
22	10
46	14
46	14
30	10
40	12
26	10
26	10
18	10
8	8
20	8
56	16
16	8
10	10
14	10
22	10
30	10
18	10
16	8
44	12
22	10
16	8
20	12
16	8
72	16
46	14
44	12
74	14
10	10
8	8
8	8
14	10
12	8
8	8
10	10
8	8
8	8
26	10
30	10
16	12
26	10
80	16
19	7
22	10
18	10
22	14
20	8
16	8
18	10
8	8
8	8
82	18
24	12
19	7
8	8
14	10
18	10
8	8
8	8
12	8
20	12
22	10
16	8
22	10
12	8
100	16
50	14
26	14
20	12
8	8
8	8
22	10
18	10
8	8
32	14
10	10
19	7
12	8
14	10
19	7
70	14
12	12
8	8
12	8
8	8
8	8
12	12
22	10
12	12
18	10
10	10
26	10
8	8
8	8
18	10
8	8
8	8
8	8
22	10
16	8
12	12
36	12
22	10
44	12
10	10
16	8
18	10
8	8
8	8
18	10
20	8
8	8
8	8
28	12
8	8
86	16
20	8
8	8
8	8
8	8
8	8
16	8
8	8
10	10
120	20
150	18
38	10
20	12
8	8
22	10
8	8
19	7
8	8
110	18
22	14
19	7
12	8
16	8
18	10
22	10
16	8
8	8
38	12
36	12
22	14
20	12
22	14
32	12
38	14
8	8
22	10
16	8
12	12
20	12
12	8
12	12
8	8
8	8
16	12
14	10
80	16
26	10
82	18
8	8
16	8
10	10
28	12
22	10
10	10
110	18
8	8
16	8
44	12
16	8
40	14
22	10
30	10
14	10
8	8
18	10
28	10
12	8
10	10
26	10
26	10
32	12
10	10
20	8
16	8
8	8
18	10
28	10
8	8
24	12
8	8
18	10
92	20
46	14
22	10
140	20
70	14
19	7
16	8
20	12
10	10
56	16
10	10
16	8
8	8
22	10
28	12
10	10
10	10
22	10
10	10
32	12
64	16
20	8
10	10
22	10
50	14
8	8
12	8
8	8
8	8
80	16
72	16
10	10
8	8
18	10
12	8
8	8
8	8
118	18
26	10
20	8
38	10
8	8
8	8
22	10
70	14
18	10
102	18
12	8
8	8
10	10
30	10
70	14
12	8
26	10
8	8
10	10
8	8
8	8
8	8
16	8
24	12
12	12
16	8
100	20
12	8
22	10
38	14
8	8
38	10
8	8
30	10
8	8
20	8
30	14
20	8
26	10
18	10
19	7
136	20
8	8
20	8
18	10
30	10
40	12
30	10
8	8
20	12
8	8
8	8
8	8
60	16
18	10
14	14
44	12
12	8
18	10
8	8
10	10
22	10
8	8
10	10
8	8
26	10
18	10
38	10
10	10
8	8
20	8
20	8
44	12
16	8
26	10
22	10
10	10
28	12
20	8
72	16
38	10
30	10
20	8
8	8
26	10
38	10
10	10
22	10
22	10
8	8
20	12
70	14
16	8
20	8
19	7
8	8
8	8
10	10
19	7
16	8
30	10
8	8
20	8
8	8
8	8
20	12
36	12
18	10
30	10
19	7
8	8
8	8
30	10
30	10
8	8
19	7
8	8
10	10
16	8
10	10
8	8
20	8
8	8
38	10
10	10
16	8
16	8
18	10
26	10
8	8
12	8
19	7
8	8
16	8
34	14
14	10
18	10
8	8
18	10
8	8
108	16
8	8
8	8
98	18
8	8
8	8
44	12
10	10
20	8
8	8
20	8
18	10
10	10
10	10
19	7
8	8
88	18
38	14
44	12
38	10
8	8
18	10
70	14
22	10
8	8
12	8
8	8
18	10
12	8
14	10
30	10
30	14
8	8
8	8
8	8
18	10
12	12
40	12
12	8
24	12
8	8
8	8
16	8
8	8
8	8
8	8
14	8
74	14
8	8
44	12
110	14
20	12
16	8
28	14
10	10
16	8
12	8
8	8
10	10
8	8
12	8
8	8
8	8
20	8
10	10
8	8
19	7
26	10
18	10
8	8
38	10
14	14
16	12
12	8
104	18
12	8
19	7
16	8
22	10
18	10
18	10
8	8
16	8
18	10
18	10
10	10
20	12
30	12
10	10
18	10
20	8
20	12
10	10
30	14
122	22
8	8
22	10
26	10
132	20
28	12
18	10
12	8
26	10
10	10
36	14
20	12
10	10
18	10
18	10
16	8
72	16
16	8
26	10
8	8
8	8
28	12
22	10
10	10
92	16
22	10
16	8
12	12
38	10
16	8
8	8
28	12
10	10
12	8
30	10
16	8
38	10
16	8
10	10
54	12
8	8
16	8
20	12
30	10
8	8
10	10
44	12
14	10
70	14
19	7
8	8
26	10
8	8
44	12
18	10
18	10
20	8
8	8
8	8
19	7
10	10
40	12
12	8
16	8
16	8
20	8
20	8
28	12
22	10
22	10
20	8
16	8
8	8
18	10
20	8
28	12
26	10
18	10
90	18
12	8
18	10
16	8
26	10
16	8
18	10
12	8
20	8
20	12
16	8
16	8
