Score	Length
20	12
20	8
32	12
112	16
8	8
16	8
18	10
104	16
120	16
30	10
122	18
18	10
20	12
24	12
12	8
40	12
20	8
8	8
19	7
30	10
12	8
26	10
10	10
8	8
10	10
22	10
30	10
20	8
8	8
19	7
18	10
20	8
18	10
12	12
10	10
16	8
18	10
26	10
12	8
8	8
128	16
8	8
120	16
16	8
18	10
16	8
12	12
130	18
22	10
8	8
20	12
36	12
12	8
32	12
36	12
114	18
8	8
124	16
12	12
22	10
26	10
40	12
46	14
20	12
8	8
18	10
8	8
160	20
10	10
108	20
26	10
14	10
8	8
26	10
32	12
22	10
18	10
14	10
18	10
444	32
40	12
20	8
8	8
14	10
16	8
8	8
30	12
12	8
12	8
19	7
26	10
20	8
142	14
22	10
10	10
12	8
190	22
20	8
20	8
10	10
16	8
8	8
12	12
20	12
22	10
38	10
19	7
8	8
8	8
8	8
18	10
8	8
8	8
12	12
28	10
12	12
18	12
22	10
12	8
102	14
28	10
28	12
14	10
20	12
19	7
30	10
8	8
128	16
8	8
12	8
30	10
18	10
30	14
196	20
22	14
8	8
20	8
20	8
20	8
8	8
16	8
18	10
20	12
124	16
28	12
22	10
38	14
168	20
30	10
22	10
20	12
22	10
16	8
32	12
12	8
30	10
14	10
16	8
16	8
28	12
12	8
8	8
102	14
24	12
8	8
30	10
18	10
8	8
8	8
18	10
20	8
19	7
16	8
16	12
168	24
20	8
138	18
26	10
22	10
10	10
12	8
32	12
8	8
28	12
20	8
12	8
186	18
18	10
18	10
22	10
10	10
16	8
16	8
20	8
12	8
20	8
16	8
10	10
19	7
20	12
10	10
20	8
12	8
22	10
36	12
22	14
10	10
26	10
22	10
28	12
54	12
32	12
26	10
19	7
36	12
20	12
8	8
18	10
80	16
8	8
22	14
28	12
8	8
22	10
8	8
14	10
8	8
26	10
8	8
46	14
22	10
10	10
8	8
8	8
22	14
19	7
16	8
8	8
20	12
16	8
19	7
36	12
8	8
12	12
22	10
8	8
178	18
14	10
24	12
24	12
48	12
8	8
18	10
20	8
138	18
18	10
14	10
10	10
116	16
10	10
20	8
19	7
28	12
18	10
18	10
12	8
16	8
18	10
8	8
18	10
10	10
28	10
8	8
18	10
19	7
36	12
18	10
20	12
8	8
16	12
20	12
19	7
8	8
20	8
26	10
162	20
18	10
8	8
20	8
8	8
20	12
38	10
10	10
10	10
18	10
19	7
16	8
128	16
16	8
78	14
19	7
10	10
40	12
20	8
8	8
140	16
18	10
8	8
43	11
16	8
20	8
20	8
8	8
16	8
16	8
104	16
8	8
22	10
12	12
20	12
8	8
18	10
10	10
22	14
30	10
42	12
8	8
10	10
8	8
8	8
12	8
16	8
10	10
26	10
18	10
19	7
8	8
8	8
32	12
8	8
64	16
22	10
19	7
86	18
14	10
44	16
8	8
20	8
56	16
80	16
134	14
30	16
14	10
16	8
26	10
22	10
19	7
54	12
20	8
20	8
8	8
18	10
8	8
14	10
18	10
26	10
8	8
12	8
26	10
116	16
120	16
8	8
26	10
118	16
12	8
10	10
8	8
16	8
16	8
26	10
18	10
26	10
16	8
20	12
8	8
20	8
118	18
18	10
26	10
8	8
28	12
106	14
8	8
8	8
12	12
16	8
12	12
16	8
43	11
38	10
18	10
16	8
16	8
30	12
18	10
26	10
18	10
20	12
48	14
40	12
10	10
14	8
18	10
8	8
16	8
134	18
26	10
18	10
8	8
12	12
18	10
32	12
8	8
8	8
8	8
8	8
30	10
104	16
12	12
112	16
36	12
8	8
22	10
16	8
22	10
10	10
20	8
22	10
12	8
8	8
28	12
20	12
16	8
18	10
16	8
112	16
86	14
124	16
44	12
14	8
8	8
10	10
8	8
8	8
22	10
8	8
8	8
18	10
8	8
8	8
20	12
8	8
30	12
30	10
28	12
22	10
20	8
36	12
12	12
8	8
8	8
16	8
10	10
16	8
16	8
20	12
120	16
36	12
26	10
8	8
19	7
12	12
22	10
22	10
40	12
24	12
20	12
12	8
8	8
8	8
102	14
16	8
16	8
19	7
20	12
16	8
20	8
8	8
8	8
14	10
102	14
8	8
92	20
8	8
8	8
102	14
26	14
10	10
124	20
10	10
30	10
22	10
30	10
14	10
20	12
10	10
40	12
138	18
10	10
18	10
20	12
10	10
20	8
20	8
16	8
154	20
10	10
38	14
14	10
10	10
10	10
10	10
10	10
19	7
22	14
10	10
10	10
14	10
22	14
19	7
18	10
8	8
18	10
26	10
10	10
8	8
10	10
8	8
16	8
8	8
8	8
10	10
22	10
20	8
8	8
19	7
36	12
8	8
14	10
8	8
102	14
10	10
28	12
16	8
22	10
12	8
18	10
14	10
8	8
18	10
18	10
10	10
8	8
18	10
196	16
18	10
8	8
26	10
16	8
36	12
24	12
30	10
30	10
8	8
20	12
222	22
16	8
10	10
140	16
8	8
40	12
22	14
12	12
43	11
20	8
8	8
19	7
18	10
8	8
8	8
152	20
10	10
20	8
8	8
24	12
36	12
26	10
16	8
19	7
19	7
132	16
22	10
19	7
142	14
20	12
26	10
16	8
8	8
26	10
22	10
20	8
42	14
12	8
19	7
8	8
8	8
16	8
8	8
18	10
38	10
18	10
38	10
92	16
56	16
30	10
20	8
142	14
28	12
12	12
40	12
36	12
26	10
18	10
12	8
22	10
8	8
116	16
18	10
124	16
12	8
16	8
8	8
10	10
8	8
22	10
30	10
26	10
36	12
172	16
12	12
20	8
14	10
22	10
18	10
24	16
40	12
8	8
30	10
22	14
30	10
22	10
18	10
8	8
102	14
14	10
18	10
8	8
20	8
8	8
114	14
16	8
12	12
12	8
38	10
8	8
12	8
8	8
10	10
18	10
8	8
10	10
10	10
8	8
20	8
18	10
8	8
8	8
19	7
16	8
82	14
8	8
28	12
162	18
38	10
20	12
50	18
12	8
10	10
8	8
16	8
10	10
18	10
10	10
20	8
24	12
12	12
20	8
16	8
32	12
12	8
16	8
22	10
16	8
22	10
16	8
19	7
20	8
16	8
20	8
8	8
28	12
19	7
35	11
18	10
18	10
88	16
32	12
16	8
22	14
8	8
102	14
8	8
18	10
20	8
10	10
18	10
30	10
18	10
26	10
19	7
18	10
8	8
12	8
18	10
12	8
8	8
30	10
8	8
16	8
120	20
44	12
132	18
18	10
19	7
8	8
8	8
16	8
8	8
14	14
16	8
22	10
20	8
8	8
14	10
20	14
20	8
122	18
20	8
20	8
42	14
96	16
10	10
10	10
8	8
48	12
10	10
44	12
104	16
20	8
8	8
14	8
14	10
57	13
12	12
18	10
16	8
128	16
14	14
16	8
40	12
10	10
8	8
18	10
20	8
12	8
18	10
26	10
12	8
10	10
114	18
8	8
30	10
10	10
10	10
22	10
18	10
14	14
26	14
8	8
10	10
8	8
38	10
8	8
18	10
16	16
22	10
10	10
20	12
16	8
12	12
38	14
30	10
24	12
8	8
20	8
10	10
20	8
30	10
28	12
8	8
30	10
28	12
26	10
14	10
8	8
20	8
8	8
8	8
18	10
16	8
36	12
22	14
122	14
22	10
10	10
122	18
8	8
8	8
20	8
20	12
36	12
158	22
44	12
18	10
43	11
16	8
30	10
20	12
10	10
28	10
20	8
8	8
8	8
122	16
12	8
8	8
12	8
14	8
8	8
8	8
20	8
114	14
26	12
8	8
18	10
110	18
22	10
18	10
18	10
10	10
19	7
20	8
12	12
20	8
8	8
8	8
36	12
20	8
86	14
36	12
8	8
20	12
16	8
19	7
102	14
18	10
12	8
19	7
36	12
16	12
16	8
8	8
8	8
12	12
16	8
20	8
8	8
12	8
8	8
10	10
42	14
26	10
26	10
46	14
10	10
8	8
14	10
16	8
16	8
16	8
8	8
30	10
8	8
8	8
32	12
22	10
8	8
10	10
19	7
20	8
18	10
178	18
32	16
16	8
154	22
16	8
10	10
38	10
8	8
8	8
16	8
8	8
116	16
22	10
16	8
18	10
30	10
19	7
32	12
12	12
10	10
36	12
26	10
10	10
106	18
8	8
120	16
10	10
20	8
26	10
22	10
8	8
44	12
20	8
16	8
18	10
102	14
114	18
20	8
12	12
16	8
20	12
10	10
18	10
18	10
12	8
28	16
18	10
18	10
156	20
8	8
22	10
18	10
44	16
10	10
38	14
18	10
16	8
12	8
8	8
38	10
38	14
20	12
10	10
38	10
22	10
12	8
142	14
24	12
8	8
18	10
36	12
8	8
8	8
16	8
26	10
8	8
22	10
28	12
16	8
18	10
22	10
22	10
43	11
16	8
44	12
8	8
18	10
40	12
106	14
18	10
40	16
16	8
10	10
22	10
8	8
22	10
8	8
18	10
12	12
32	12
16	8
8	8
10	10
162	14
22	10
14	10
122	14
8	8
36	12
8	8
26	10
10	10
106	18
122	14
8	8
19	7
19	7
90	14
16	8
86	14
38	16
44	12
8	8
22	10
8	8
8	8
30	14
26	10
18	10
8	8
12	12
20	12
30	10
8	8
18	10
16	8
20	12
12	8
8	8
20	8
24	16
18	10
26	10
26	10
10	10
118	14
18	10
8	8
20	12
18	10
18	10
28	12
22	10
22	10
122	14
35	11
40	16
8	8
18	10
20	8
10	10
18	10
12	12
10	10
8	8
112	16
18	10
18	10
22	10
10	10
16	8
38	10
20	12
44	12
28	10
8	8
20	12
10	10
38	10
22	10
32	12
8	8
22	10
122	14
16	8
10	10
108	20
24	12
192	16
10	10
8	8
28	14
8	8
22	10
30	10
14	10
8	8
20	8
8	8
18	10
10	10
16	8
8	8
14	10
8	8
38	10
18	10
22	14
8	8
16	8
38	14
20	12
19	7
18	10
20	8
20	8
16	8
18	10
24	16
20	12
8	8
19	7
12	12
8	8
8	8
26	10
18	10
8	8
8	8
22	10
20	12
30	10
20	12
38	10
26	10
8	8
10	10
8	8
12	8
22	10
8	8
22	10
8	8
8	8
34	14
106	14
20	12
102	14
16	8
8	8
20	12
64	16
8	8
22	10
8	8
22	10
8	8
18	10
8	8
20	12
10	10
12	8
8	8
26	10
20	12
12	8
8	8
10	10
140	20
18	10
8	8
12	12
8	8
26	10
8	8
8	8
8	8
18	10
10	10
12	8
8	8
20	8
8	8
10	10
16	8
36	12
19	7
22	10
8	8
38	10
28	12
16	8
38	10
24	12
20	8
8	8
12	8
30	10
106	14
168	20
46	14
8	8
20	8
28	12
12	8
19	7
28	12
12	12
18	10
8	8
8	8
19	7
16	8
30	14
18	10
10	10
10	10
8	8
19	7
8	8
16	8
26	10
104	16
18	10
8	8
8	8
12	12
20	8
8	8
102	14
38	10
19	7
8	8
16	12
30	10
22	10
8	8
26	10
10	10
22	10
20	8
20	8
18	10
8	8
10	10
14	10
8	8
16	8
12	8
18	10
43	11
24	16
20	8
36	12
22	10
16	8
12	8
14	8
22	10
10	10
8	8
19	7
22	10
8	8
26	10
20	12
20	12
16	8
16	8
10	10
22	10
14	10
8	8
20	12
16	8
20	8
102	14
16	12
22	10
18	10
8	8
8	8
22	10
14	10
8	8
8	8
8	8
22	10
20	12
10	10
8	8
8	8
18	10
18	10
16	8
22	10
44	12
10	10
16	8
20	8
32	12
18	10
8	8
18	10
16	8
16	8
8	8
8	8
50	14
18	10
22	10
46	14
102	18
30	14
18	10
10	10
20	12
40	12
24	12
106	14
10	10
20	8
188	20
24	12
52	16
18	10
16	8
30	14
10	10
36	16
19	7
18	10
8	8
30	10
10	10
22	10
20	8
8	8
8	8
20	12
16	8
12	8
19	7
20	12
30	10
18	10
38	10
8	8
12	8
16	8
18	10
19	7
8	8
10	10
14	10
10	10
10	10
10	10
18	10
16	8
12	8
12	8
26	10
10	10
10	10
18	10
20	12
8	8
114	14
30	10
26	10
22	10
10	10
8	8
14	10
12	8
8	8
10	10
12	8
20	8
10	10
40	12
26	14
12	8
38	14
22	14
12	8
19	7
40	12
26	10
8	8
18	10
8	8
8	8
10	10
10	10
20	12
10	10
8	8
20	12
10	10
22	10
10	10
122	14
8	8
16	8
18	10
58	14
22	10
22	10
8	8
112	16
12	12
8	8
32	12
8	8
30	10
19	7
38	10
24	12
12	8
128	16
38	14
24	12
20	12
10	10
10	10
8	8
8	8
116	20
19	7
20	8
18	10
38	10
19	7
108	20
26	10
10	10
18	10
16	8
8	8
14	10
26	10
12	12
20	12
19	7
20	12
18	10
146	18
22	10
20	12
120	16
16	8
38	10
8	8
8	8
20	8
16	8
16	8
8	8
10	10
28	10
38	10
18	10
8	8
8	8
20	8
40	12
22	10
10	10
18	10
20	12
28	12
8	8
24	12
10	10
28	12
22	14
26	10
26	10
20	8
10	10
10	10
19	7
10	10
10	10
38	12
12	8
16	8
30	10
12	8
8	8
172	16
42	14
18	10
10	10
16	8
20	8
112	16
26	10
14	10
20	8
8	8
30	10
8	8
26	10
8	8
22	14
8	8
18	10
10	10
30	14
50	14
28	12
12	12
22	10
18	10
14	10
16	8
19	7
8	8
16	10
26	10
26	10
16	8
10	10
26	10
10	10
8	8
8	8
18	10
8	8
8	8
116	16
10	10
20	12
14	10
22	10
10	10
8	8
12	8
32	12
10	10
108	16
8	8
16	8
38	10
40	12
8	8
22	10
18	10
122	14
8	8
12	12
10	10
18	10
8	8
30	10
8	8
14	10
8	8
14	10
26	10
19	7
18	10
8	8
8	8
14	10
10	10
16	8
16	8
10	10
114	18
18	10
20	8
8	8
42	14
12	12
8	8
22	10
26	10
12	8
36	12
38	10
20	8
28	12
28	12
8	8
110	18
16	8
102	14
22	10
14	10
16	8
20	8
8	8
8	8
22	10
16	8
8	8
8	8
18	10
12	8
14	8
16	8
8	8
19	7
22	10
8	8
26	10
16	8
10	10
18	10
20	8
56	14
20	8
20	8
20	8
20	8
12	8
10	10
16	8
20	8
20	8
26	10
130	18
20	8
16	8
18	10
16	8
30	10
8	8
12	8
19	7
20	8
12	8
14	10
10	10
20	8
16	8
24	12
18	10
18	10
12	8
126	18
10	10
166	18
100	16
22	14
10	10
10	10
38	14
22	10
44	12
18	10
18	10
8	8
38	12
20	8
20	12
16	8
8	8
28	12
106	18
8	8
18	10
122	18
18	10
8	8
18	10
38	14
20	8
24	12
8	8
22	10
102	14
24	12
12	12
12	8
126	16
110	14
20	8
40	16
20	12
8	8
8	8
138	18
8	8
22	10
20	8
8	8
24	12
22	10
20	8
16	8
112	16
8	8
12	12
24	12
20	8
102	14
18	10
22	10
16	8
18	10
8	8
40	12
12	12
8	8
16	8
22	14
8	8
12	8
8	8
19	7
8	8
20	8
8	8
26	10
8	8
8	8
8	8
16	8
8	8
18	10
18	10
8	8
28	12
8	8
8	8
8	8
36	12
8	8
19	7
8	8
26	10
10	10
26	10
20	8
19	7
16	8
12	8
22	10
58	18
28	12
30	10
30	10
16	8
8	8
26	10
16	8
20	12
8	8
22	10
16	8
16	8
152	16
26	10
14	14
28	12
48	12
19	7
16	8
20	12
190	22
102	14
58	14
8	8
16	8
8	8
20	8
14	8
8	8
20	12
14	10
8	8
22	10
12	8
19	7
30	10
20	12
26	10
40	12
16	8
16	8
26	10
8	8
10	10
18	10
14	8
18	10
16	8
18	10
32	12
12	12
18	10
14	10
8	8
8	8
16	10
12	8
12	12
16	8
12	12
12	12
26	10
12	8
26	10
20	8
10	10
10	10
102	14
20	12
102	14
16	8
8	8
8	8
226	18
20	12
8	8
20	12
18	10
16	8
28	12
16	8
18	10
16	8
20	12
43	11
18	10
12	8
19	7
44	12
20	8
26	10
10	10
12	12
18	10
18	10
40	12
30	10
8	8
8	8
38	10
46	14
10	10
36	12
156	16
20	12
16	12
24	12
14	8
8	8
30	10
8	8
18	10
10	10
18	10
26	10
22	10
18	10
102	14
19	7
22	10
18	10
43	11
32	12
8	8
32	16
18	10
30	10
22	10
38	10
16	8
22	10
22	10
14	10
10	10
26	10
18	10
32	12
22	10
50	14
20	8
16	8
20	8
8	8
26	10
16	8
8	8
102	14
10	10
38	12
8	8
8	8
19	7
10	10
12	12
18	10
8	8
20	12
30	10
8	8
26	10
10	10
18	10
8	8
10	10
118	18
16	8
20	8
8	8
16	8
16	8
38	10
8	8
22	14
20	12
18	10
18	10
26	14
10	10
8	8
22	10
22	10
192	16
8	8
38	10
12	12
22	10
20	8
10	10
20	12
32	12
104	16
16	8
22	10
104	16
22	10
8	8
8	8
8	8
20	12
20	12
30	14
10	10
92	16
38	10
26	10
20	8
22	14
20	12
28	12
8	8
176	16
16	8
22	10
54	12
136	16
16	8
16	8
18	10
40	12
10	10
20	8
16	8
8	8
30	10
14	10
18	10
180	22
18	10
18	10
8	8
12	8
26	10
16	8
16	8
12	8
10	10
8	8
19	7
12	8
22	10
16	8
12	8
20	12
8	8
10	10
16	8
22	10
8	8
8	8
16	8
8	8
8	8
16	8
20	8
12	8
8	8
120	16
43	11
30	10
18	10
20	8
20	8
26	10
32	12
18	10
19	7
22	10
102	14
22	10
8	8
8	8
38	10
12	12
122	18
8	8
10	10
8	8
18	10
12	8
16	8
8	8
124	16
10	10
10	10
22	14
8	8
10	10
8	8
30	10
20	8
20	8
12	12
8	8
26	10
20	8
8	8
8	8
8	8
140	16
12	8
24	12
20	12
16	8
12	12
10	10
36	12
19	7
96	16
10	10
18	10
16	8
28	12
22	10
36	12
8	8
8	8
120	16
18	10
38	10
38	10
8	8
8	8
8	8
22	10
8	8
10	10
20	8
20	8
22	10
20	8
8	8
18	10
8	8
20	8
16	8
16	8
12	12
176	20
18	10
18	10
8	8
10	10
10	10
22	14
10	10
19	7
52	16
14	14
8	8
16	8
24	12
10	10
106	14
38	14
8	8
20	8
16	8
178	18
16	8
8	8
8	8
20	8
18	10
8	8
104	16
18	10
20	12
20	8
8	8
10	10
10	10
8	8
8	8
8	8
10	10
8	8
10	10
22	10
19	7
16	8
8	8
10	10
8	8
30	10
8	8
16	8
20	8
19	7
18	10
30	10
28	12
8	8
8	8
8	8
16	8
18	10
28	10
18	10
19	7
8	8
36	12
56	16
10	10
30	10
10	10
16	12
18	12
36	12
20	12
28	12
16	8
8	8
20	8
8	8
8	8
28	12
18	10
38	10
36	12
16	8
8	8
8	8
112	16
8	8
20	12
8	8
8	8
16	8
19	7
10	10
8	8
18	10
10	10
12	8
8	8
18	10
12	12
22	10
12	8
28	12
12	12
12	8
122	14
16	8
12	8
38	10
26	14
120	16
120	20
10	10
44	12
8	8
10	10
16	8
20	12
118	14
8	8
14	10
8	8
36	12
10	10
26	10
18	10
14	10
26	10
12	8
20	8
8	8
10	10
8	8
22	10
22	10
30	10
22	10
8	8
26	10
30	14
19	7
8	8
10	10
16	8
8	8
22	14
26	10
12	8
8	8
8	8
8	8
26	10
26	10
20	8
14	10
12	8
202	26
22	10
8	8
18	10
16	8
10	10
43	11
19	7
28	10
54	14
10	10
12	8
19	7
142	14
58	14
10	10
10	10
20	8
8	8
8	8
22	10
56	16
20	8
18	10
8	8
24	12
20	12
16	8
20	8
12	8
102	14
22	10
10	10
8	8
10	10
22	10
10	10
19	7
192	24
19	7
19	7
12	8
40	12
20	12
16	8
8	8
10	10
8	8
10	10
54	12
12	8
18	10
24	12
18	10
8	8
8	8
10	10
10	10
10	10
10	10
10	10
12	8
18	10
20	12
26	10
26	10
16	8
10	10
16	8
16	8
22	10
10	10
96	16
120	16
20	8
38	14
16	8
12	12
8	8
19	7
10	10
18	10
18	10
12	8
8	8
112	16
10	10
8	8
18	10
12	12
20	12
10	10
8	8
10	10
144	20
18	10
18	10
28	12
14	8
8	8
8	8
102	14
8	8
8	8
20	8
8	8
30	10
106	14
38	10
18	10
24	12
78	14
8	8
16	12
18	10
8	8
10	10
16	8
10	10
8	8
8	8
10	10
12	8
16	8
16	8
10	10
8	8
102	14
20	8
8	8
18	10
20	12
32	12
8	8
8	8
18	10
24	16
22	10
152	20
20	12
8	8
8	8
20	12
16	8
8	8
26	10
44	12
28	10
44	12
10	10
8	8
8	8
18	10
26	10
20	8
24	12
10	10
10	10
8	8
22	10
22	14
8	8
30	10
102	14
18	10
22	10
10	10
8	8
18	10
28	12
12	8
8	8
8	8
8	8
36	12
8	8
8	8
8	8
26	14
10	10
8	8
8	8
8	8
19	7
22	14
8	8
22	10
20	12
20	8
20	8
40	16
8	8
42	14
22	10
8	8
102	14
26	14
16	8
44	12
36	12
140	16
134	22
40	16
16	8
20	12
22	10
16	8
8	8
28	12
18	10
16	8
8	8
30	10
32	12
26	10
8	8
20	8
46	14
26	10
18	10
28	12
26	10
26	10
34	14
8	8
22	14
20	8
8	8
12	12
16	8
22	10
10	10
28	10
16	8
28	12
8	8
8	8
22	10
8	8
8	8
10	10
128	16
38	10
16	12
22	10
8	8
122	18
128	16
14	10
8	8
26	10
19	7
30	14
22	14
22	10
26	10
18	10
50	18
8	8
16	8
38	10
40	12
8	8
18	10
144	16
8	8
8	8
26	10
28	12
32	12
10	10
16	8
14	14
44	12
20	8
10	10
22	10
12	8
20	8
8	8
8	8
18	10
30	10
10	10
10	10
96	16
102	14
20	8
26	10
28	12
12	12
19	7
86	14
8	8
22	10
8	8
12	12
42	14
8	8
20	12
10	10
16	8
24	12
118	14
8	8
22	14
186	18
16	8
18	10
20	8
16	8
10	10
12	12
10	10
20	12
10	10
24	12
180	20
10	10
18	10
16	8
10	10
16	8
12	8
30	14
8	8
22	14
18	10
20	12
48	16
22	10
20	8
28	12
8	8
236	24
10	10
19	7
16	8
18	10
10	10
20	8
18	10
130	18
12	8
26	10
8	8
16	8
18	10
156	16
8	8
8	8
8	8
20	14
30	14
10	10
19	7
26	10
12	8
18	10
8	8
20	12
10	10
44	12
20	8
26	10
12	12
102	14
8	8
18	10
28	12
8	8
8	8
12	8
18	10
32	12
28	10
174	18
36	12
10	10
8	8
22	10
38	14
350	32
214	22
8	8
10	10
18	10
96	16
10	10
142	22
16	8
138	18
12	8
8	8
26	10
18	10
102	14
16	8
46	14
18	10
22	10
20	8
10	10
116	20
19	7
48	12
16	8
8	8
12	8
18	10
22	10
36	12
8	8
14	8
10	10
102	14
30	10
128	16
12	12
10	10
20	12
19	7
28	12
18	10
8	8
16	8
26	10
156	20
18	10
8	8
26	10
36	12
8	8
8	8
94	18
22	10
24	12
30	10
12	8
30	10
16	8
43	11
12	8
8	8
28	12
16	12
120	16
8	8
16	8
20	14
22	10
16	8
8	8
18	10
8	8
12	8
20	8
16	8
26	14
10	10
8	8
22	10
12	8
44	12
78	14
14	10
8	8
24	12
16	8
130	18
38	10
30	10
19	7
10	10
30	10
8	8
20	12
8	8
12	12
132	16
19	7
12	12
12	12
8	8
26	10
52	16
40	12
8	8
18	10
12	8
8	8
8	8
30	14
10	10
18	10
26	14
8	8
8	8
12	8
14	14
26	10
22	14
26	10
8	8
30	10
30	10
10	10
16	8
20	8
8	8
30	10
43	11
10	10
8	8
36	12
8	8
18	10
20	8
30	10
20	8
19	7
10	10
18	10
10	10
16	8
12	12
10	10
56	16
18	10
19	7
10	10
18	10
22	10
30	14
14	8
18	14
26	10
8	8
114	14
10	10
22	10
22	10
20	8
16	8
20	8
8	8
12	12
8	8
32	12
12	8
22	14
20	8
48	16
8	8
20	12
38	10
102	14
22	10
20	12
12	12
16	8
58	14
18	10
10	10
16	8
28	12
104	16
16	8
8	8
8	8
62	18
20	12
8	8
44	12
38	10
20	8
40	12
57	13
8	8
38	10
18	10
10	10
8	8
120	16
44	12
30	10
16	8
26	10
8	8
8	8
20	12
22	10
18	10
26	10
112	16
20	8
12	12
26	10
26	10
8	8
20	8
24	12
14	10
8	8
30	10
10	10
16	8
16	8
16	8
28	10
16	8
20	12
8	8
24	12
20	8
20	8
14	10
16	8
10	10
8	8
8	8
102	14
42	16
10	10
8	8
10	10
8	8
10	10
46	14
20	8
22	10
28	12
38	10
22	10
8	8
152	20
8	8
22	10
12	8
22	14
8	8
10	10
12	8
14	8
10	10
18	10
16	8
64	16
10	10
30	10
20	8
56	16
22	10
12	8
26	10
218	22
20	12
18	10
8	8
12	8
108	20
46	14
40	12
8	8
18	12
19	7
22	10
22	10
43	11
16	8
88	16
40	12
18	10
18	10
22	10
30	10
10	10
124	20
8	8
36	12
20	8
8	8
50	14
14	10
20	12
22	14
12	8
8	8
18	10
28	12
16	8
10	10
16	8
18	10
26	10
20	8
20	8
16	8
46	14
36	12
20	12
38	10
8	8
16	8
8	8
12	8
40	12
28	10
19	7
20	8
18	10
19	7
16	8
118	16
16	8
16	8
8	8
58	14
14	10
14	8
102	14
10	10
26	10
102	14
19	7
10	10
124	14
24	12
104	16
14	8
56	16
22	10
16	8
22	10
8	8
12	8
22	10
8	8
22	10
8	8
14	10
8	8
44	12
38	10
24	12
20	8
22	10
58	14
88	20
12	12
96	16
10	10
8	8
12	8
8	8
16	8
26	10
104	16
8	8
20	8
22	10
102	14
62	20
16	8
20	12
12	8
28	12
16	8
36	12
10	10
8	8
8	8
22	10
22	10
10	10
12	8
16	8
16	8
20	12
18	10
22	10
20	8
14	10
26	10
18	10
10	10
26	10
8	8
24	12
22	10
154	14
24	12
102	14
16	8
22	10
8	8
8	8
8	8
10	10
26	10
38	10
19	7
22	10
28	12
8	8
12	12
8	8
16	8
18	10
18	10
18	10
8	8
16	8
20	12
16	8
8	8
18	10
14	10
30	14
16	8
26	10
114	18
28	12
16	8
122	14
12	8
44	12
10	10
22	14
10	10
8	8
16	8
8	8
10	10
28	12
114	14
20	12
20	8
128	16
16	8
178	18
8	8
12	8
12	12
34	14
8	8
26	10
34	14
24	16
102	14
112	16
28	12
20	12
20	12
18	10
16	12
22	10
10	10
20	8
20	12
38	14
22	10
30	10
19	7
26	10
20	8
20	12
192	16
18	10
32	12
22	10
12	12
19	7
10	10
22	10
22	10
12	12
12	8
18	10
18	10
26	10
24	12
116	20
10	10
18	10
8	8
8	8
12	8
44	12
20	8
8	8
18	10
8	8
32	12
20	8
8	8
10	10
8	8
30	10
8	8
14	10
10	10
22	10
8	8
38	10
16	8
20	8
44	12
22	10
20	12
106	14
36	14
8	8
10	10
8	8
10	10
14	10
19	7
160	24
10	10
20	12
14	10
20	8
20	8
8	8
16	8
8	8
18	10
18	10
18	10
18	10
8	8
8	8
8	8
102	14
20	8
14	10
12	8
8	8
12	12
128	16
14	10
12	8
20	12
24	12
26	10
18	10
48	16
12	8
19	7
18	10
18	10
18	10
18	10
10	10
16	8
14	10
10	10
22	10
20	8
18	10
10	10
22	10
22	10
8	8
43	11
102	14
8	8
8	8
16	8
10	10
8	8
22	10
30	14
8	8
20	8
20	8
36	14
8	8
128	16
26	10
10	10
10	10
14	10
10	10
8	8
8	8
22	10
16	8
8	8
20	12
20	12
30	10
8	8
42	18
19	7
16	8
38	10
8	8
10	10
32	12
20	8
38	10
30	14
36	12
8	8
19	7
8	8
20	8
32	12
104	16
10	10
8	8
16	8
110	14
16	8
22	10
20	12
10	10
12	8
20	8
8	8
12	8
10	10
30	10
8	8
16	8
28	12
10	10
28	12
22	10
22	10
10	10
102	14
55	13
43	11
10	10
24	12
24	12
8	8
8	8
30	10
8	8
12	8
40	12
56	16
24	12
10	10
10	10
22	10
18	10
78	14
14	10
150	18
12	12
10	10
8	8
28	10
20	8
8	8
8	8
26	10
18	10
36	12
16	8
22	14
22	14
10	10
8	8
26	10
10	10
8	8
22	14
12	12
19	7
8	8
8	8
36	12
16	8
18	10
30	10
16	8
16	8
22	10
18	10
8	8
10	10
28	10
10	10
8	8
8	8
18	10
20	8
18	10
26	10
102	14
162	14
30	10
24	16
16	8
20	8
8	8
26	10
8	8
90	18
28	12
10	10
16	8
98	18
18	10
10	10
12	8
10	10
102	14
20	8
104	16
172	16
102	14
108	16
40	12
22	10
16	10
18	10
8	8
18	10
20	8
19	7
30	14
26	10
22	10
8	8
19	7
114	18
110	16
8	8
8	8
10	10
10	10
138	18
56	14
8	8
10	10
20	8
10	10
22	14
12	8
22	10
180	20
8	8
8	8
8	8
8	8
18	10
22	10
8	8
112	16
20	8
44	12
8	8
14	8
26	10
10	10
8	8
12	8
38	14
8	8
96	16
36	12
18	10
18	10
12	8
8	8
12	8
38	10
26	10
150	18
10	10
8	8
36	12
8	8
12	8
28	14
20	12
8	8
80	16
10	10
8	8
22	10
50	18
26	10
20	8
8	8
8	8
38	12
10	10
12	12
10	10
22	14
22	10
20	12
32	16
8	8
54	12
8	8
40	12
8	8
8	8
20	12
19	7
10	10
8	8
28	12
18	10
8	8
128	16
12	8
40	12
8	8
8	8
8	8
30	10
20	8
10	10
10	10
16	8
26	10
40	12
18	10
22	10
8	8
12	12
108	16
8	8
112	16
16	8
28	12
10	10
40	12
8	8
12	8
10	10
28	12
20	8
36	12
20	12
14	8
10	10
8	8
36	12
19	7
18	10
12	8
26	10
22	10
16	8
20	8
22	10
8	8
10	10
120	20
8	8
12	8
198	22
22	10
20	8
18	10
8	8
14	10
12	12
10	10
8	8
22	10
8	8
10	10
10	10
8	8
16	8
20	12
20	8
88	16
12	8
26	10
36	12
14	8
8	8
8	8
12	12
110	18
18	10
18	10
8	8
12	8
8	8
112	16
38	10
26	10
16	8
20	8
10	10
10	10
35	11
20	8
46	14
16	8
8	8
10	10
8	8
22	14
8	8
8	8
20	12
10	10
18	10
18	10
20	12
8	8
114	18
22	10
8	8
26	10
10	10
18	10
26	10
110	18
8	8
116	16
16	8
20	8
12	12
10	10
12	8
28	12
18	10
22	10
126	14
104	16
12	8
36	16
128	16
8	8
16	8
12	8
16	8
18	10
30	10
10	10
8	8
18	10
16	8
8	8
8	8
38	10
112	16
16	8
16	8
32	16
18	10
18	10
38	10
8	8
30	10
112	16
20	8
10	10
36	12
12	12
154	18
8	8
26	10
18	10
8	8
12	8
19	7
30	10
19	7
22	14
18	10
16	8
26	14
8	8
12	8
12	12
8	8
16	8
16	12
8	8
20	8
102	14
16	8
16	10
8	8
28	12
8	8
8	8
28	10
86	14
102	14
8	8
8	8
106	14
178	18
114	18
20	8
8	8
8	8
8	8
208	24
19	7
20	8
8	8
20	8
22	14
8	8
50	14
8	8
8	8
120	14
20	8
20	12
16	8
8	8
30	10
8	8
30	10
8	8
8	8
18	10
102	14
118	14
8	8
18	10
8	8
14	10
222	18
114	14
22	14
8	8
36	12
16	8
10	10
130	16
20	8
8	8
102	14
10	10
30	14
20	8
30	10
8	8
16	8
18	10
8	8
134	18
8	8
38	10
8	8
8	8
28	12
18	10
20	8
36	12
20	12
8	8
130	18
16	8
38	10
44	12
8	8
12	8
20	12
12	8
16	8
18	10
19	7
8	8
8	8
8	8
8	8
10	10
10	10
16	8
40	12
19	7
8	8
10	10
19	7
22	10
10	10
12	12
18	10
42	12
8	8
8	8
8	8
20	12
40	12
8	8
28	10
16	8
18	10
19	7
10	10
8	8
16	8
10	10
8	8
14	10
16	8
102	14
8	8
22	10
38	12
22	10
12	12
10	10
38	14
22	10
16	8
16	8
102	14
12	8
8	8
112	16
8	8
8	8
122	14
10	10
120	16
16	8
10	10
8	8
8	8
8	8
102	14
38	14
38	10
126	18
18	10
16	8
8	8
12	12
26	10
20	8
10	10
8	8
20	12
130	18
12	12
20	8
38	10
182	18
18	10
26	10
74	16
10	10
19	7
18	10
8	8
8	8
30	10
16	8
16	8
19	7
16	8
10	10
8	8
18	10
18	10
12	12
18	10
14	10
28	12
22	10
8	8
8	8
12	8
22	10
20	8
36	14
16	8
8	8
20	8
8	8
16	8
26	10
20	12
8	8
14	10
14	8
18	10
14	10
8	8
28	10
8	8
43	11
12	8
130	18
18	10
30	10
20	12
18	10
8	8
8	8
38	10
26	10
8	8
30	10
20	8
12	8
19	7
38	10
22	10
38	10
216	24
8	8
16	8
8	8
12	12
28	12
10	10
10	10
18	10
38	10
12	12
28	12
36	12
20	12
14	10
18	10
8	8
12	8
12	8
20	8
8	8
8	8
20	8
18	10
8	8
24	12
38	10
18	10
12	8
18	10
16	8
16	8
10	10
18	10
14	10
28	12
8	8
8	8
124	16
14	10
38	10
136	16
14	8
38	14
20	8
10	10
10	10
10	10
19	7
16	8
114	18
12	12
8	8
12	8
30	14
18	10
8	8
26	10
12	12
18	10
8	8
8	8
38	10
36	12
22	14
19	7
12	8
188	16
24	12
8	8
18	10
20	8
116	16
10	10
18	10
8	8
8	8
10	10
22	10
10	10
12	8
8	8
22	10
28	12
8	8
18	10
22	10
56	14
8	8
12	8
104	16
22	14
20	12
8	8
28	12
12	12
22	10
8	8
20	12
16	8
16	8
20	12
36	12
38	10
22	10
26	10
42	12
10	10
36	12
30	10
12	8
8	8
8	8
22	10
122	18
8	8
12	12
112	16
8	8
18	10
16	8
18	10
8	8
38	10
26	10
8	8
36	12
16	8
10	10
10	10
8	8
26	10
28	12
10	10
18	10
8	8
20	12
8	8
28	12
8	8
20	8
20	8
8	8
22	10
36	12
20	12
18	12
8	8
18	10
10	10
10	10
20	12
12	8
43	11
112	16
22	10
10	10
8	8
8	8
22	10
8	8
40	12
22	10
16	8
36	12
22	10
20	12
19	7
8	8
8	8
20	8
18	10
18	10
8	8
104	16
16	8
28	12
22	10
16	8
18	10
8	8
68	16
20	8
40	14
8	8
8	8
26	10
8	8
36	12
28	12
16	8
8	8
10	10
8	8
38	10
8	8
8	8
22	10
22	10
20	12
12	12
16	8
8	8
184	20
19	7
8	8
10	10
18	10
276	24
20	12
16	8
20	8
16	8
30	10
26	10
10	10
16	8
58	14
30	10
110	14
16	8
20	12
16	8
12	12
12	8
30	10
18	10
10	10
22	10
18	10
28	10
19	7
20	12
102	14
18	10
24	16
18	10
16	8
102	14
10	10
8	8
36	12
38	10
102	14
36	12
30	14
12	12
20	8
18	10
10	10
18	10
10	10
36	12
12	8
10	10
16	8
10	10
48	16
8	8
16	8
126	18
30	14
22	10
8	8
8	8
30	10
18	10
10	10
26	10
20	8
18	10
8	8
8	8
14	8
104	16
14	14
116	20
192	16
10	10
10	10
12	8
8	8
10	10
40	12
8	8
18	10
8	8
26	10
40	14
12	8
38	10
26	10
16	8
16	8
16	10
20	8
20	8
38	10
16	8
8	8
10	10
8	8
18	10
30	10
20	12
18	10
8	8
8	8
56	16
20	12
8	8
8	8
16	8
19	7
18	10
10	10
18	10
16	8
16	8
40	12
30	10
22	10
26	10
12	12
16	8
18	10
18	10
18	10
110	14
16	8
8	8
8	8
48	16
20	12
8	8
10	10
22	10
8	8
102	14
134	16
22	10
18	10
12	8
22	14
14	14
22	14
104	16
8	8
16	8
16	8
8	8
22	14
154	18
8	8
10	10
8	8
28	12
114	14
30	10
8	8
10	10
12	12
18	10
10	10
24	12
8	8
8	8
8	8
16	8
18	10
18	10
8	8
8	8
18	10
28	12
22	10
8	8
10	10
8	8
19	7
18	10
8	8
20	8
10	10
10	10
16	8
16	8
36	12
38	12
8	8
18	10
14	10
12	8
26	18
20	8
114	14
158	18
8	8
30	10
8	8
8	8
26	10
18	10
10	10
10	10
22	14
18	10
10	10
10	10
16	8
36	12
140	18
80	16
10	10
8	8
46	14
22	10
8	8
44	12
16	8
18	10
12	12
18	10
20	12
8	8
10	10
16	8
8	8
16	8
16	8
22	14
10	10
32	12
8	8
18	10
20	12
8	8
8	8
120	16
16	8
12	8
38	10
16	8
12	12
10	10
43	11
8	8
16	8
12	8
16	8
36	12
10	10
144	20
20	12
18	10
8	8
20	8
138	18
19	7
8	8
20	12
22	10
10	10
10	10
18	10
8	8
20	8
8	8
38	14
10	10
30	10
8	8
24	12
124	16
116	16
8	8
44	12
16	8
8	8
16	8
18	10
8	8
20	8
18	10
16	8
20	12
102	14
18	10
22	10
18	10
18	10
8	8
20	12
14	10
19	7
12	8
40	12
26	10
16	8
16	8
18	10
8	8
8	8
10	10
8	8
18	10
20	12
8	8
16	8
12	12
102	14
12	8
8	8
19	7
8	8
14	10
26	10
20	12
102	14
20	12
8	8
38	10
26	10
30	10
16	8
30	10
10	10
8	8
26	10
22	10
18	10
18	10
8	8
38	10
10	10
8	8
8	8
18	10
104	16
19	7
38	10
10	10
20	8
10	10
16	8
8	8
26	10
16	8
88	16
24	12
46	14
20	12
18	10
8	8
20	8
10	10
8	8
20	8
19	7
14	10
12	12
36	12
20	8
12	8
16	8
18	10
10	10
8	8
20	12
162	14
28	10
38	10
10	10
8	8
8	8
8	8
8	8
66	16
8	8
20	12
8	8
19	7
26	10
26	10
19	7
10	10
19	7
10	10
8	8
10	10
19	7
22	10
19	7
20	12
78	14
38	10
8	8
10	10
8	8
12	8
8	8
19	7
18	10
38	10
96	20
8	8
8	8
40	12
44	12
18	10
8	8
102	14
16	8
8	8
16	8
114	14
184	24
8	8
10	10
22	10
18	10
30	10
8	8
8	8
16	8
20	8
28	10
8	8
12	8
8	8
104	16
28	12
26	10
20	12
20	8
38	10
12	8
8	8
12	8
18	10
8	8
22	10
20	8
30	10
10	10
18	10
28	10
8	8
10	10
18	10
28	12
30	10
34	12
8	8
8	8
20	12
19	7
8	8
72	16
20	8
22	10
38	10
30	14
18	10
8	8
8	8
8	8
18	10
10	10
28	10
10	10
8	8
50	18
19	7
8	8
22	10
40	12
190	22
38	10
22	10
140	16
16	8
12	12
8	8
14	10
20	8
8	8
112	16
30	10
8	8
10	10
10	10
12	8
50	18
36	12
20	12
10	10
18	10
28	12
