0	19416	0
1	19416	0
2	19416	19416
3	19416	6394
4	19416	6406
5	19416	1900
6	19416	1668
7	19347	466
8	19347	413
9	19347	222
10	19347	131
11	19343	70
12	19343	61
13	19343	17
14	19343	31
15	19343	11
16	19342	8
17	19335	6
18	19334	0
19	19317	0
20	19315	0
21	19301	0
22	19298	0
23	19285	0
24	19282	0
25	19262	0
26	19260	0
27	19226	0
28	19219	0
29	19181	0
30	19175	0
31	19132	0
32	19123	0
33	19080	0
34	19074	0
35	19033	0
36	19026	0
37	18971	0
38	18965	0
39	18908	0
40	18886	0
41	18822	0
42	18803	0
43	18721	0
44	18704	0
45	18596	0
46	18565	0
47	18415	0
48	18387	0
49	18234	0
50	18196	0
51	18051	0
52	18012	0
53	17837	0
54	17794	0
55	17616	0
56	17567	0
57	17351	0
58	17302	0
59	17055	0
60	16989	0
61	16735	0
62	16677	0
63	16397	0
64	16332	0
65	16029	0
66	15973	0
67	15655	0
68	15586	0
69	15298	0
70	15217	0
71	14887	0
72	14806	0
73	14446	0
74	14335	0
75	13992	0
76	13885	0
77	13527	0
78	13415	0
79	13063	0
80	12934	0
81	12589	0
82	12462	0
83	12082	0
84	11947	0
85	11559	0
86	11414	0
87	11070	0
88	10914	0
89	10548	0
90	10406	0
91	10057	0
92	9916	0
93	9579	0
94	9448	0
95	9113	0
96	8981	0
97	8657	0
98	8495	0
99	8182	0
100	8028	0
101	7685	0
102	7551	0
103	7215	0
104	7077	0
105	6784	0
106	6634	0
107	6344	0
108	6215	0
109	5946	0
110	5808	0
111	5561	0
112	5422	0
113	5202	0
114	5067	0
115	4823	0
116	4691	0
117	4467	0
118	4355	0
119	4137	0
120	4037	0
121	3833	0
122	3702	0
123	3516	0
124	3420	0
125	3262	0
126	3147	0
127	2956	0
128	2862	0
129	2707	0
130	2625	0
131	2480	0
132	2398	0
133	2277	0
134	2204	0
135	2095	0
136	2027	0
137	1907	0
138	1835	0
139	1727	0
140	1674	0
141	1572	0
142	1532	0
143	1435	0
144	1388	0
145	1298	0
146	1263	0
147	1199	0
148	1162	0
149	1094	0
150	1056	0
151	1005	0
152	965	0
153	913	0
154	879	0
155	835	0
156	807	0
157	759	0
158	728	0
159	692	0
160	669	0
161	627	0
162	603	0
163	563	0
164	545	0
165	512	0
166	492	0
167	467	0
168	453	0
169	423	0
170	409	0
171	387	0
172	370	0
173	348	0
174	328	0
175	309	0
176	303	0
177	289	0
178	276	0
179	265	0
180	253	0
181	240	0
182	229	0
183	219	0
184	214	0
185	196	0
186	190	0
187	182	0
188	173	0
189	159	0
190	154	0
191	147	0
192	139	0
193	134	0
194	126	0
195	123	0
196	116	0
197	109	0
198	103	0
199	94	0
200	92	0
201	90	0
202	89	0
203	82	0
204	82	0
205	77	0
206	74	0
207	68	0
208	65	0
209	58	0
210	58	0
211	55	0
212	51	0
213	49	0
214	47	0
215	42	0
216	41	0
217	40	0
218	39	0
219	36	0
220	35	0
221	32	0
222	29	0
223	28	0
224	25	0
225	20	0
226	20	0
227	19	0
228	17	0
229	16	0
230	16	0
231	15	0
232	15	0
233	14	0
234	13	0
235	10	0
236	10	0
237	8	0
238	8	0
239	7	0
240	6	0
241	6	0
242	5	0
243	5	0
244	5	0
245	5	0
246	5	0
247	3	0
248	3	0
249	3	0
250	3	0
251	3	0
252	3	0
253	3	0
254	2	0
255	1	0
256	1	0
257	1	0
258	1	0
259	1	0
260	1	0
261	0	0
262	0	0
263	0	0
264	0	0
265	0	0
266	0	0
267	0	0
268	0	0
269	0	0
270	0	0
271	0	0
272	0	0
273	0	0
274	0	0
275	0	0
276	0	0
277	0	0
278	0	0
279	0	0
280	0	0
281	0	0
282	0	0
283	0	0
284	0	0
285	0	0
286	0	0
287	0	0
288	0	0
289	0	0
290	0	0
291	0	0
292	0	0
293	0	0
294	0	0
295	0	0
296	0	0
297	0	0
298	0	0
299	0	0
300	0	0
301	0	0
302	0	0
303	0	0
304	0	0
305	0	0
306	0	0
307	0	0
308	0	0
309	0	0
310	0	0
311	0	0
312	0	0
313	0	0
314	0	0
315	0	0
316	0	0
317	0	0
318	0	0
319	0	0
320	0	0
321	0	0
322	0	0
323	0	0
324	0	0
325	0	0
326	0	0
327	0	0
328	0	0
329	0	0
330	0	0
331	0	0
332	0	0
333	0	0
334	0	0
335	0	0
336	0	0
337	0	0
338	0	0
339	0	0
340	0	0
341	0	0
342	0	0
343	0	0
344	0	0
345	0	0
346	0	0
347	0	0
348	0	0
349	0	0
350	0	0
351	0	0
352	0	0
353	0	0
354	0	0
355	0	0
356	0	0
357	0	0
358	0	0
359	0	0
360	0	0
361	0	0
362	0	0
363	0	0
364	0	0
365	0	0
366	0	0
367	0	0
368	0	0
369	0	0
370	0	0
371	0	0
372	0	0
373	0	0
374	0	0
375	0	0
376	0	0
377	0	0
378	0	0
379	0	0
380	0	0
381	0	0
382	0	0
383	0	0
384	0	0
385	0	0
386	0	0
387	0	0
388	0	0
389	0	0
390	0	0
391	0	0
392	0	0
393	0	0
394	0	0
395	0	0
396	0	0
397	0	0
398	0	0
399	0	0
400	0	0
401	0	0
402	0	0
403	0	0
404	0	0
405	0	0
406	0	0
407	0	0
408	0	0
409	0	0
410	0	0
411	0	0
412	0	0
413	0	0
414	0	0
415	0	0
416	0	0
417	0	0
418	0	0
419	0	0
420	0	0
421	0	0
422	0	0
423	0	0
424	0	0
425	0	0
426	0	0
427	0	0
428	0	0
429	0	0
430	0	0
431	0	0
432	0	0
433	0	0
434	0	0
435	0	0
436	0	0
437	0	0
438	0	0
439	0	0
440	0	0
441	0	0
442	0	0
443	0	0
444	0	0
445	0	0
446	0	0
447	0	0
448	0	0
449	0	0
450	0	0
451	0	0
452	0	0
453	0	0
454	0	0
455	0	0
456	0	0
457	0	0
458	0	0
459	0	0
460	0	0
461	0	0
462	0	0
463	0	0
464	0	0
465	0	0
466	0	0
467	0	0
468	0	0
469	0	0
470	0	0
471	0	0
472	0	0
473	0	0
474	0	0
475	0	0
476	0	0
477	0	0
478	0	0
479	0	0
480	0	0
481	0	0
482	0	0
483	0	0
484	0	0
485	0	0
486	0	0
487	0	0
488	0	0
489	0	0
490	0	0
491	0	0
492	0	0
493	0	0
494	0	0
495	0	0
496	0	0
497	0	0
498	0	0
499	0	0
