Score	Length
546678	1340
80385	580
76710	630
257973	966
40468	464
179920	804
58296	548
1307428	1962
39836	488
46162	498
7186967	3928
96544	608
371021	1204
15434	306
37974	458
59094	542
72763	564
304646	1062
52806	512
504840	1310
73061	646
474797	1230
79090	640
27808	364
553023	1386
11450	264
184694	836
13798	276
88158	668
751623	1445
1061489	1658
437307	1207
97237	702
551671	1266
66114	552
156640	818
142803	844
155319	796
35074	488
69674	564
359095	1078
28368	414
130251	824
160704	784
322740	1016
610581	1396
271979	978
278787	1026
656639	1378
59543	566
316888	1086
479640	1306
33478	448
399278	1202
275120	1040
410010	1132
230581	922
267818	940
49764	446
361853	1120
370877	1120
21104	348
282075	1054
129644	734
22910	350
66962	538
15928	292
18268	320
54740	584
297372	1066
279727	992
506184	1316
430402	1170
164414	776
34998	466
23996	382
5227925	3379
202007	890
99246	636
34448	412
83233	664
57731	498
72694	554
47336	450
2383259	2297
38002	414
67688	602
46896	550
907894	1592
122250	706
60858	560
19396	352
47094	428
156883	778
399062	1120
221757	928
22748	336
70302	538
95902	674
151342	800
17210	318
32098	352
42666	460
159798	820
210114	958
81673	612
2860074	2638
667368	1410
84519	656
697849	1462
392907	1124
59762	578
14082	306
98893	726
453181	1206
118058	714
40906	398
6678933	3693
73306	608
536880	1338
963724	1674
240638	972
219622	870
159270	836
428998	1248
2200625	2335
3548670	2834
2973638	2622
141522	786
315322	1052
896241	1600
73506	584
30200	432
197223	918
27302	376
126082	732
51876	484
147291	812
180734	852
411687	1172
22010	352
1325638	1946
49555	546
2838169	2573
61934	526
92578	668
124059	746
228811	914
34468	422
37722	466
167050	852
721976	1482
166008	764
111852	694
214440	930
251008	936
51383	468
51016	530
292943	1016
131050	770
43435	482
53156	582
151204	818
57972	554
1783776	2164
746240	1474
24786	382
128145	744
3427685	2746
277968	1074
5104282	3319
52828	548
976206	1709
63666	588
9858	270
562795	1294
85506	696
21642	396
43502	494
789158	1536
213788	900
96440	690
466866	1222
52515	648
257422	900
41006	456
56528	520
54474	516
120958	734
67640	562
284226	1036
198919	874
751946	1534
1346927	1872
73700	580
116585	742
706873	1424
99117	612
60782	550
39102	462
74745	612
525616	1280
156260	800
29540	408
38662	474
216786	904
156708	852
41648	452
300078	1066
2187075	2274
542541	1360
273294	986
13090	278
82944	610
199637	868
134636	770
246751	976
78961	588
214999	874
341080	1038
161598	830
462781	1244
37212	462
68654	632
889610	1526
42476	448
372292	1148
208082	892
56472	584
12842	274
347338	1088
167031	866
204083	860
131886	726
489574	1314
73496	648
27872	410
188858	822
159993	804
163070	764
14460	268
335847	1082
180092	844
156813	814
26192	376
255711	978
113280	700
78588	596
118758	742
56844	452
17136	322
216738	844
405453	1194
99098	646
213906	898
32166	416
317108	1088
86340	680
34204	452
37402	438
95092	658
92078	636
190344	816
85164	626
437590	1192
50674	568
35092	456
19	7
91860	684
1982044	2141
118372	710
44122	468
55554	510
108923	628
42262	466
161058	806
276930	1046
3092827	2664
70692	588
38516	440
35778	434
31914	448
251339	960
57664	496
28090	392
80420	646
30390	416
127762	712
44304	554
111816	694
331420	1074
133476	690
49226	580
195866	920
53686	550
2167967	2356
100590	682
93836	660
56787	494
89180	684
443106	1202
2131708	2262
30714	442
261914	1032
23202	330
79331	684
179365	916
114862	700
415995	1186
575584	1326
166066	844
76952	600
49400	476
110309	700
362558	1068
1626915	2045
118182	754
78632	616
26178	372
43796	522
1338191	1853
245778	1042
191136	882
35586	444
276411	938
266440	982
34700	460
41398	496
835855	1604
1086670	1698
55280	538
31088	410
527508	1264
93908	698
90733	610
94700	646
82728	618
33572	430
115750	792
376184	1182
178154	850
70612	572
35508	482
140981	820
504428	1135
3513042	2792
45279	486
106530	682
218464	822
35724	412
1947284	2270
66450	572
297362	1036
210329	872
125952	774
914822	1727
32112	392
950449	1633
49624	530
71250	532
1244408	1821
464170	1210
296905	1100
103879	654
914538	1606
102196	626
208947	906
242955	932
3698517	2934
3573963	2815
100342	672
34090	410
61374	532
117834	716
107522	650
2850363	2556
519642	1252
14494	296
362909	1128
251806	950
229950	970
904853	1532
60464	510
816986	1520
92323	618
448842	1210
69788	622
67130	648
609275	1378
35288	438
119470	714
877266	1553
62581	546
355460	1106
7660406	4004
52980	554
356583	1098
24234	394
552197	1332
654343	1382
8625013	4200
71808	588
45524	498
870526	1620
94028	692
198858	900
1988017	2270
382894	1110
37520	432
55096	526
28496	456
177928	812
1079513	1734
105770	718
274019	936
33022	404
85138	642
650442	1398
377875	1172
67470	566
233001	974
652838	1454
105638	732
40042	432
148217	828
442480	1182
115350	734
144573	748
199886	858
70902	526
636255	1438
91668	674
34794	424
578091	1322
48718	466
140069	714
198160	836
90876	636
20416	342
44554	570
194545	880
20462	390
24568	342
49815	512
138554	750
53780	512
3154405	2633
85366	634
307815	994
69500	604
34143	386
21090	376
324895	1028
183610	902
52358	530
74152	626
39356	486
41976	448
803310	1508
212180	902
249320	906
22952	358
25418	406
407172	1174
488680	1176
34884	464
36498	414
874612	1622
55569	488
444013	1244
353460	1186
36284	476
175972	798
79066	616
102482	622
1972332	2295
96036	674
457943	1210
281120	1030
18584	334
179908	822
32462	426
140736	810
545066	1332
19	7
38912	500
63708	538
37726	490
15304	304
80840	646
115142	726
78368	630
160384	822
31867	390
2305596	2332
19144	352
29374	400
150550	822
61620	568
16542	336
449649	1172
35241	400
28960	388
395450	1204
66277	552
57302	564
76212	614
302162	1032
175327	802
85858	694
78784	648
52553	494
76870	588
4671786	3284
74242	656
281392	1016
5980	174
226040	920
480127	1240
223948	938
84089	586
41245	440
595479	1332
618650	1422
8052	274
205332	984
583908	1394
350146	1042
1121734	1713
2318638	2436
408438	1196
468224	1258
178568	894
10912	272
89998	650
95034	610
67326	584
64167	562
872484	1586
1048113	1750
864145	1584
117018	642
52184	498
1061226	1664
145539	778
51697	542
148604	804
365482	1098
54934	484
24648	380
3556418	2828
73136	556
41164	450
36544	470
226524	902
5383654	3330
123662	764
29796	400
29007	360
503359	1300
22930	420
38158	428
135561	712
43424	480
26396	382
1767709	2116
30004	404
92854	558
21850	386
58627	526
136780	708
292004	1024
54820	536
40662	430
362051	1164
31194	382
52478	492
160694	822
103458	732
120528	748
903578	1570
47266	464
20286	378
222986	836
133940	734
285539	1022
10480	254
65216	552
252213	974
46242	488
170322	822
98637	722
517806	1314
19348	346
196797	908
523107	1266
457418	1312
162084	846
58786	588
73948	662
120618	714
71302	606
110980	694
356169	1088
282993	920
58524	508
94434	650
67980	606
23580	328
74144	552
5296944	3435
924873	1626
239928	920
47348	558
565606	1374
264328	1016
37011	466
59293	630
45744	462
57478	586
221229	856
103274	658
63120	676
102836	650
129152	734
870453	1574
71979	576
94406	636
235140	862
150496	836
69948	592
274291	1044
49770	510
205061	868
4076324	3094
4369546	3164
41124	476
18744	378
28856	412
101920	638
24454	420
261738	948
31398	418
865258	1560
236705	978
880112	1650
224386	928
815169	1453
93378	646
1834273	2147
867397	1612
138630	704
109896	694
34282	438
46808	466
187876	826
175860	914
138058	754
60644	554
46270	496
19518	314
32224	344
45640	472
56958	514
81408	676
99047	656
3061554	2773
507444	1372
1018153	1648
23750	336
26582	398
101992	636
4348	128
130630	718
709265	1438
32136	448
895969	1605
598190	1402
96642	704
483872	1262
106231	752
875005	1636
593163	1286
602783	1330
509319	1254
80606	696
990797	1728
21436	374
29190	408
794665	1560
83407	638
353169	1058
128485	698
402927	1176
503290	1185
9876	240
259900	970
35658	432
34804	454
145680	774
22996	450
104685	660
298556	954
506962	1282
193126	864
304329	1050
152234	788
65311	592
27418	418
304705	1006
1622753	2084
19504	336
108874	704
101758	620
73318	562
303649	1062
52070	532
706660	1476
1012670	1692
66256	576
154784	808
27014	424
71382	580
37886	454
111236	664
174704	826
945690	1688
84596	608
110774	726
478201	1236
326950	1070
395604	1150
20924	372
145784	810
44762	478
422616	1174
171024	844
123334	734
34182	340
1818805	2178
114262	740
66662	602
1557411	2037
6656	220
70168	622
219340	852
21854	380
182153	852
147252	754
99858	736
240571	964
9566	246
490738	1182
199674	920
34512	410
186036	874
1288392	1741
178181	864
4589666	3140
335122	1080
18966	330
64472	564
279516	1014
95748	588
108364	742
92454	658
53648	500
61268	584
32670	428
45602	482
4359471	3124
31668	468
133134	780
330142	1024
36542	440
472381	1180
70513	606
30612	412
207532	878
58990	528
13054	294
771586	1396
207572	886
40518	456
123060	720
83760	630
35348	408
103912	644
96720	676
412704	1104
330534	1110
51400	508
255901	1034
82568	620
189530	860
275669	1030
459075	1228
2797888	2672
34828	430
223155	904
273647	1024
305381	1110
13698	280
57274	560
745855	1542
171650	798
421159	1154
1457723	1988
2039746	2220
441130	1174
1387691	1928
31488	414
679956	1522
281766	1108
542030	1270
50200	540
346144	1126
150088	856
2069417	2336
316890	1082
29746	428
322902	1122
35278	444
43208	480
13168	292
1702498	2028
131663	752
35002	460
71144	662
449296	1206
131750	806
780521	1455
46724	504
241240	994
426169	1194
49168	532
1899011	2175
99302	656
41198	422
222315	936
1290746	1904
86565	654
195986	824
6060	218
1756600	2128
74184	566
70025	602
240934	890
141828	778
61566	590
41653	538
265770	924
225306	940
21107	416
635982	1396
226920	972
16130	318
77704	632
295751	1056
171842	870
111118	656
435679	1190
230568	904
155491	764
231604	938
290577	970
80300	648
358763	1110
590379	1294
276626	1006
124094	746
2564625	2465
148059	786
455250	1176
1726582	2083
55776	574
254143	984
33220	448
497382	1214
570320	1289
119222	728
107350	684
185154	876
57832	530
40006	466
3028042	2641
50164	522
96256	650
11214	282
59458	602
3229252	2703
128732	658
3387193	2860
22316	378
329432	1118
350888	1076
44546	442
34838	424
37436	490
93888	676
30335	452
180550	792
586290	1431
154715	846
1203026	1755
1508802	1920
6600	192
33664	406
146864	840
207724	888
128372	762
196745	844
280623	990
546168	1332
4884017	3177
40880	472
706428	1458
319278	1080
32792	450
92490	696
