Score	Length
5247	173
45431	469
45429	491
33429	435
22267	377
77575	597
28257	373
106835	715
15785	309
95599	629
39803	439
167872	831
18499	321
33409	445
18059	323
36629	437
133320	691
65245	577
50003	475
44245	433
21271	311
34857	423
12885	285
14309	303
5699	173
15849	301
36851	443
12379	251
36137	427
6227	185
43627	475
13135	271
10731	251
59615	505
11857	285
4673	189
39867	447
69609	491
29476	397
77613	547
22881	315
3001	149
22559	379
94901	663
202855	915
14631	289
71506	559
14943	349
16671	337
31643	405
14627	297
14249	269
6737	191
14335	311
20431	329
24117	369
90129	587
34469	435
66002	543
5051	181
8581	221
56471	497
19187	345
8863	201
33012	379
17285	301
121370	663
26701	373
10763	251
74929	559
11829	245
44997	503
28766	357
38261	437
52247	473
185827	811
10441	241
31371	409
24533	359
13233	239
10113	245
98453	669
15223	315
20469	343
19399	321
10397	229
7717	225
66175	561
20523	303
54453	507
83885	609
27215	375
29962	331
29379	377
25585	365
4195	155
10219	239
32425	421
6967	201
36999	427
20056	357
16549	263
8007	205
13059	275
126468	713
11199	231
9307	257
4005	157
5189	137
19	7
4641	107
12999	267
19199	369
41087	503
16171	323
8999	209
21047	355
40055	403
6277	179
12257	265
29251	363
5003	181
57998	511
112721	665
48309	457
14973	283
130772	693
46647	479
29623	417
49637	467
76013	533
27305	397
107746	679
6217	213
15955	351
20553	355
5009	171
20725	349
178745	825
17923	295
59851	449
95897	653
15971	347
17355	299
22245	335
20863	337
30225	419
3599	155
7447	229
35707	373
4561	171
32083	411
74606	645
20803	347
103551	601
39221	459
4731	187
3737	125
59747	533
9841	263
12409	255
4475	147
5679	149
9709	271
80623	613
11157	241
27803	371
45115	455
12343	303
7139	231
9276	221
38952	423
62789	545
37543	437
15241	291
10721	241
5851	195
42759	469
30123	373
11321	287
142892	725
10243	237
11363	219
53543	465
79616	595
31651	417
178735	787
2475	127
34045	455
47955	483
111729	635
43831	511
35508	407
25483	353
96870	629
30786	379
13195	293
68409	569
9905	257
23217	339
14393	291
66465	555
43993	449
25737	373
13323	283
59911	511
9953	241
48571	483
30923	411
38971	469
10763	239
29181	403
5407	159
43593	399
51441	521
129517	727
26338	361
5431	167
35718	427
16369	311
28775	401
166677	775
10815	235
32109	415
41423	465
55707	545
22909	425
8969	237
4857	163
28433	381
80789	639
25663	339
18845	383
9315	251
36141	453
78378	585
3419	121
46457	465
29077	391
27675	359
22795	351
44333	453
13973	271
160393	753
22877	381
45505	477
7523	205
3001	143
15121	313
25891	371
6203	177
7087	199
5809	191
33455	419
36113	409
16153	311
31533	413
74551	599
15569	331
43867	475
137285	699
6943	187
10939	257
28061	351
35305	405
3241	149
4415	199
76583	603
10863	275
32225	389
53897	485
9553	247
9293	201
44103	433
19278	297
43641	473
801	65
18625	297
50259	469
44229	475
21355	319
27487	399
24457	379
24093	365
6617	183
11167	227
19825	303
24105	347
8837	229
62152	529
6067	211
386145	1092
96095	661
62419	549
8917	239
60191	499
43000	455
29483	377
39403	397
23961	369
12707	257
65433	539
21757	323
135925	739
27851	355
15121	249
16435	281
78005	589
20771	335
6090	185
11547	275
4291	151
259338	937
30421	427
2129	125
30941	379
7201	237
30743	359
23177	343
10643	259
40621	487
19	7
30193	401
9165	233
27400	377
8419	217
32173	405
21279	321
13466	277
9653	223
54408	533
57675	519
9589	213
162525	789
40305	463
26991	417
40271	437
51207	509
5125	157
24615	333
5333	191
10601	253
24881	361
27339	373
9089	211
39047	443
21161	357
47639	463
14047	259
33075	395
4049	135
7135	195
177213	811
63263	529
46833	425
8989	237
17013	333
15236	299
24759	347
179310	811
24231	353
26915	399
14921	283
8971	239
24611	355
78828	603
52099	497
26034	391
83795	595
15191	279
13981	303
35463	409
12941	253
8851	215
21909	347
149350	755
43999	455
28592	387
20761	333
72177	557
73817	569
17203	261
60403	525
56653	565
115089	673
51881	499
50121	539
44821	455
38943	453
154916	728
5009	203
42885	435
3205	125
10339	221
1453693	1759
41607	481
4771	165
7569	163
33173	473
10351	241
77268	555
67492	565
90657	647
52049	499
25011	357
14611	259
9737	201
33455	411
122132	701
245180	919
70385	555
4537	121
93962	577
18135	269
39897	433
5017	183
29217	371
12891	243
41135	451
18163	269
107937	647
14379	249
4903	179
11610	271
32313	395
9397	257
18713	341
20599	313
24015	353
30813	373
6561	193
26875	409
15627	267
66289	529
24353	345
11717	255
21421	403
65849	485
38925	453
30031	411
27451	351
1709	89
9701	227
31327	397
13123	211
9427	213
19011	355
81465	567
26073	391
47715	469
186003	821
31935	343
11539	239
13113	253
8423	213
82919	531
16661	349
18140	327
60192	555
14443	303
22818	367
14191	295
38193	393
35173	465
45059	479
11393	243
90994	575
17309	315
9133	239
41703	487
29491	363
84353	619
7341	199
10699	263
17957	319
49209	497
8231	191
61993	563
35385	435
52705	485
17877	291
31559	403
22891	389
15881	329
34957	427
4319	167
15309	303
17053	309
94723	681
78297	565
1509	105
50007	493
64889	543
141415	673
54580	519
54967	547
70831	589
28067	363
73929	577
67867	603
13391	315
27955	369
13125	259
23829	377
15845	257
2249	125
11983	269
14383	289
22359	373
40741	413
23595	393
14977	287
27825	385
7799	201
22597	369
22367	337
47083	469
45333	465
9423	237
17405	313
15140	293
21197	291
519472	1161
47011	493
5753	171
46593	495
11265	259
36349	487
15857	289
19	7
3439	111
2307	131
40163	459
15699	263
9137	219
21717	355
32445	383
12533	245
9567	233
27417	363
13607	277
21401	351
32679	427
203689	791
9917	195
50239	497
17761	299
18453	323
7265	227
19983	355
4065	141
13312	307
21279	325
43145	465
14867	291
99565	683
11759	247
98943	605
194298	859
24393	395
27137	397
21225	359
25179	355
14227	259
16175	293
17531	351
48006	491
3333	147
33799	387
3053	137
11619	279
10271	239
9513	279
4419	187
20051	309
4077	157
108189	627
47604	465
23887	395
137951	719
3853	189
108509	655
41501	461
215327	839
30231	409
21007	381
182623	769
193295	813
90629	587
80743	553
18445	317
39653	427
24531	355
12333	291
101599	627
104298	659
35497	439
22689	359
73623	555
42720	467
25623	371
83533	615
28711	405
50939	495
132406	699
110023	659
42507	433
20319	327
198317	847
7025	211
8105	229
63865	516
14369	259
27573	367
9557	259
19417	333
20047	331
29443	405
182775	783
34651	405
62801	525
104626	665
41341	389
44163	501
10575	263
31349	399
32769	385
27963	379
50703	447
12800	233
14539	279
17431	327
12667	257
32789	425
35863	433
33173	413
6783	197
14527	283
5077	179
18087	313
66905	537
79757	613
68717	587
12693	233
14767	299
36277	435
3627	155
104315	635
58103	523
22491	363
94515	633
18068	329
19	7
531040	1197
199044	877
13987	251
63256	551
6325	189
26031	323
72021	539
13363	275
6097	177
54419	493
8025	209
3381	149
23687	343
10599	199
10255	243
104882	627
18413	319
9179	227
28715	409
18225	341
4209	143
27516	387
21147	381
18137	299
61869	569
29988	403
29845	389
15147	259
76065	555
41361	441
35199	423
30713	373
9199	223
12887	269
15107	277
33331	431
125763	695
97187	647
12413	263
11988	251
49863	481
30578	421
16463	289
4229	177
146881	747
6499	201
97472	615
13167	269
13783	253
58837	527
120929	687
117078	673
38515	453
2887	111
45077	469
16281	279
94463	585
28369	399
369842	1065
33185	429
80607	579
22849	325
12155	237
10817	269
12067	253
9635	181
318819	993
11579	263
25589	365
2539	121
8345	227
189424	855
4995	185
18855	311
30831	397
10425	247
99391	631
21551	309
19631	319
7905	225
20097	331
32253	407
40922	445
6097	211
2819	151
10075	253
37703	407
28147	385
38349	435
4889	155
22327	335
16409	291
31625	383
12859	305
4695	181
5187	173
9015	257
18285	337
29715	391
164505	777
13899	269
27853	339
11453	227
19207	325
43660	425
21561	331
83804	573
35323	459
105167	645
102410	627
15943	301
6165	213
14339	269
8853	223
23931	335
12076	247
18997	325
29975	363
54071	495
29049	407
11863	239
3951	131
29455	415
9346	199
3077	131
42931	503
7575	201
40397	469
16167	277
8203	215
8167	211
27915	383
24921	385
50689	513
98761	647
146937	755
31838	395
5503	151
23641	391
45473	517
29897	397
22351	397
6655	245
129721	733
35037	445
34263	435
39031	437
56453	541
5877	217
39451	449
14395	255
27552	341
34151	405
9671	227
7213	199
54659	491
3257	165
24247	335
33737	409
14047	257
13001	267
30337	429
97214	633
49607	517
6835	211
91009	623
4873	173
19969	335
134093	743
8715	241
31861	401
19	7
66537	513
69371	563
23547	347
98391	651
11831	231
16220	305
49765	493
29719	359
11825	259
32653	379
49739	511
11159	257
47451	465
96017	593
22333	347
26289	349
4397	155
16455	307
37427	493
3485	141
15737	301
17933	297
308538	1023
195520	797
18521	299
6709	209
47003	497
7145	189
52891	433
12397	271
91929	633
142189	669
19143	289
18079	355
89446	575
41743	483
8741	237
3075	127
6591	183
4033	149
6337	201
6839	187
122971	669
20613	355
69086	573
50617	451
10737	267
23143	381
28701	411
94345	637
40732	481
65855	543
55276	507
45497	471
28413	385
73413	553
11567	235
31376	397
157123	743
27455	391
68023	541
16645	343
5019	175
12271	279
4479	181
30171	433
29007	409
72635	613
16777	297
30167	377
47535	485
10151	255
4259	141
18853	325
32413	437
3723	133
4687	165
12387	295
15865	313
48909	499
17699	297
51051	431
26517	409
6027	165
1455	91
14778	277
51279	505
14683	277
13677	247
12956	297
21707	309
20013	337
21909	341
16353	321
40833	399
17359	309
15055	257
19381	321
57549	493
2867	141
66095	517
14287	261
7813	205
39985	431
11197	235
11363	271
1663	61
32853	413
27031	347
5349	151
11121	227
10923	273
10567	237
11885	279
13601	271
22495	303
41333	421
39997	443
38151	441
38983	425
15185	317
22733	363
12999	277
25475	337
49187	461
5487	171
66729	531
44747	471
13013	261
8773	193
4625	147
53637	473
1663	87
40191	453
1253	99
7189	193
26121	371
15771	259
7563	227
22281	345
55959	509
18599	327
73923	523
40891	421
66371	537
17929	321
25389	337
8863	209
19377	369
115333	699
71213	539
11211	273
2759	155
12097	275
9943	205
63457	501
56109	513
13925	283
184967	799
4361	165
65217	555
8521	227
7679	179
3465	163
907261	1405
13161	313
61486	529
29921	391
20191	339
16799	299
51267	487
39313	469
8461	217
46697	471
5871	171
