Score	Length
1061	77
1341	81
2051	87
1471	95
89	41
801	85
3185	149
3487	143
1141	81
1377	97
2707	135
483	71
1645	71
2043	93
593	57
3627	147
1177	61
307	79
1167	75
3329	141
3819	163
3387	145
489	41
3497	141
1183	95
2099	93
449	53
1739	83
4653	149
499	69
3145	141
303	39
801	69
2729	137
1789	105
859	63
1059	91
3037	111
7571	201
1777	107
1723	91
5387	177
1349	85
1395	81
6183	171
2921	157
465	41
635	55
1103	99
4457	149
2407	107
1191	111
2209	111
2151	121
2639	135
2223	91
1363	95
3983	149
1119	79
4911	163
571	71
6391	179
6855	187
833	75
865	71
341	61
5573	179
13201	223
1653	107
3345	163
4983	189
1523	99
15751	279
1677	119
2757	123
4053	167
451	71
6659	193
1395	77
911	59
6327	167
333	49
1299	87
561	49
1923	103
1863	107
1035	71
10263	247
1237	85
1665	111
1397	81
2221	117
1003	77
1403	101
1579	103
4109	149
845	81
773	69
1349	89
285	43
4935	161
3585	145
2017	125
1771	105
19	7
957	77
1745	101
163	47
2869	117
945	67
2185	123
2323	115
4675	155
2495	123
627	59
767	55
371	43
1301	101
1109	57
829	57
1443	99
1177	101
1349	79
1113	77
1701	85
699	85
1717	97
3253	139
4111	167
731	61
4215	137
839	79
1643	99
19	7
2543	123
4319	153
2779	131
1323	95
401	25
4955	171
1433	105
1953	93
1641	93
5157	159
133	29
909	91
1189	71
445	49
1821	99
675	63
1315	77
281	57
3289	127
787	75
1119	83
1969	93
2153	105
2571	123
10467	219
3843	141
337	49
1291	99
59	43
1015	65
2281	113
109	41
713	73
1283	77
875	59
4413	167
821	57
3373	163
1409	89
6474	167
1903	103
2549	117
3689	157
1031	79
12363	265
1483	101
2187	115
711	51
945	77
1965	113
1559	99
499	67
1803	115
6858	179
4367	153
16063	271
933	69
1951	101
869	73
705	53
7741	181
1043	61
3091	133
419	43
1197	73
605	65
1787	103
3313	135
831	57
31079	331
1237	81
1461	81
2545	123
2483	99
1313	97
1185	91
1045	71
473	51
1683	95
1439	91
6973	193
20211	299
1457	81
961	69
373	69
857	97
1047	79
1131	63
907	75
1479	71
1255	81
2649	121
1269	81
1193	83
1877	109
561	49
4857	157
3627	139
7339	175
3957	149
411	51
5747	191
2499	101
5165	181
1221	89
4931	141
951	77
6887	209
3609	143
827	83
3817	141
1009	65
2183	109
1955	119
1763	107
1123	69
1467	87
1681	113
2011	127
4151	121
1821	93
23155	313
1511	95
249	65
1871	87
2847	109
2965	103
417	41
1609	113
2033	101
1797	115
329	41
2345	105
11681	237
2869	115
637	53
629	45
5129	179
3225	141
649	45
317	49
1913	93
1193	93
7463	217
1817	73
1629	97
2911	131
2467	119
5325	171
5537	165
379	45
2585	101
677	69
791	65
1359	91
8197	197
1227	95
5803	169
2647	111
1145	59
645	61
527	83
499	55
845	75
327	59
2353	109
2193	105
927	87
2895	141
925	71
1289	85
651	63
465	53
1907	101
1517	73
657	71
2455	125
309	45
1471	103
4169	159
2587	99
3991	151
3301	121
705	51
3027	127
909	77
1535	85
1797	101
1001	73
2253	127
19	7
4089	129
2903	137
2709	137
755	57
4769	157
1437	89
3311	139
101	21
1293	85
609	53
277	57
1399	91
645	63
1981	99
3871	159
2859	123
3815	159
6581	175
545	65
249	37
507	59
943	79
1297	77
1075	95
727	79
1439	75
7295	179
629	61
1869	117
359	47
1275	89
969	77
3873	157
4721	169
7953	229
3539	143
5221	157
5501	153
1827	99
661	69
6795	203
2689	119
1797	107
1581	83
2323	113
253	61
3383	127
811	71
4110	135
207	35
2097	103
2103	115
1357	109
1271	79
1157	69
2555	111
3925	181
1149	81
3055	133
5779	195
2635	101
1193	85
5303	163
3877	153
2547	121
19	7
4503	147
2757	121
3147	139
3883	145
7603	201
2583	111
6089	161
1915	93
1073	79
3023	125
1853	113
2019	105
1771	115
3441	141
247	53
3729	131
1957	97
2815	137
1235	69
785	69
1509	91
1435	103
2185	95
1919	131
4899	163
627	43
803	67
1295	69
1851	103
3327	133
19	7
827	59
3185	143
5015	143
1291	83
14887	263
2001	137
927	87
2861	145
797	71
1653	99
1527	85
1441	81
597	69
791	63
689	65
4317	161
1057	69
1917	121
2255	123
803	77
3411	163
649	61
6044	169
1657	95
1909	101
10134	227
1491	103
5459	175
197	45
1795	109
5377	173
1403	91
2500	115
1285	83
495	53
1885	109
5835	193
2063	115
2795	127
7277	215
1387	77
1315	79
6751	179
2345	117
751	57
1491	87
453	45
15183	243
6437	195
4605	163
877	75
1357	105
2277	93
1485	109
755	71
1009	85
5055	157
645	53
1711	99
377	33
121	57
979	79
10567	215
1399	75
637	57
4271	155
2431	129
1961	121
4579	181
711	71
863	75
2771	127
3485	111
1057	77
3587	139
227	35
651	63
9201	239
1261	101
141	25
1631	87
2001	101
557	61
681	89
1303	81
4225	145
2765	121
363	51
1103	83
1087	63
643	55
1749	87
4675	173
1383	83
719	63
1407	91
1447	91
153	49
2681	109
709	49
4309	153
8961	239
789	67
4993	163
983	67
3121	121
1029	73
1141	91
959	77
605	49
4955	175
699	55
743	71
457	49
2585	121
17903	289
13215	271
783	75
219	33
1093	77
1627	125
661	57
2859	125
1129	75
3417	147
589	33
1899	121
521	41
851	79
475	43
5691	177
2183	115
4269	155
4311	141
6601	205
245	49
3995	137
345	49
4829	163
2051	117
1635	93
3191	131
673	59
1183	87
279	55
115	39
1079	85
3051	123
621	67
4073	155
593	61
2053	149
2615	123
399	55
2499	115
1245	77
675	61
1417	95
10883	249
1127	73
1395	107
7305	189
2325	115
607	55
1675	127
1445	89
723	59
1489	97
453	57
415	77
1455	87
8183	185
1885	101
3281	113
9453	235
657	85
2759	115
4623	159
3951	155
1009	73
869	45
933	73
267	43
7549	199
317	49
5553	175
943	73
901	57
1097	85
7839	199
2007	115
2565	125
571	51
2913	153
639	79
4913	161
887	61
1751	95
477	57
803	87
7813	195
2043	107
1233	99
549	61
725	61
3763	153
1523	81
2375	131
2139	107
795	63
231	25
457	61
3273	143
1587	95
1775	111
2419	119
301	45
861	73
533	61
1277	93
349	37
2659	153
12835	231
919	79
779	79
193	59
1279	83
1547	115
2373	131
555	43
779	75
1753	107
3591	111
1423	91
1573	111
2681	137
825	63
5515	153
1125	89
1225	69
1001	91
2247	117
1309	85
1449	97
2165	97
999	71
613	49
2669	97
2021	99
203	47
1227	91
2703	119
3067	153
7271	187
607	55
1975	119
2581	117
1067	67
847	71
1195	103
687	67
1625	73
921	77
795	79
661	57
27853	339
10195	231
1557	89
2997	125
1837	81
1515	89
4145	157
411	55
633	65
2227	129
2831	155
1307	95
2671	123
505	53
3941	153
1307	79
6619	197
2131	107
1459	99
2771	151
1075	87
1591	103
529	59
553	65
1587	103
2743	131
2483	129
5355	159
1033	73
641	69
2519	141
1455	71
2007	119
1721	91
2423	111
7305	211
2055	111
359	59
927	69
4689	159
1535	109
759	65
1219	81
501	69
161	33
1141	81
7105	207
425	77
619	55
3091	135
2561	109
2435	129
357	25
1133	105
789	49
2623	125
6155	191
1121	89
5383	153
2501	97
2433	109
1017	73
3539	159
969	65
1161	69
6491	183
589	63
1757	91
3243	115
2823	133
1693	113
1587	77
1421	109
2015	105
1091	83
877	53
1405	93
861	77
4631	159
1741	89
1323	81
129	45
717	61
651	59
2863	135
4517	159
1695	97
529	79
7473	193
441	49
351	47
205	37
6395	177
2435	105
2969	135
4581	177
10297	223
7133	197
227	43
2287	119
1247	75
5199	169
2067	115
1121	91
415	47
1087	75
1981	107
765	49
2043	125
1123	87
2981	113
595	67
3761	145
1621	89
4959	175
293	57
1991	99
3931	151
5843	173
465	57
663	39
2195	119
325	45
2165	101
687	59
3795	145
385	45
663	97
2764	101
5443	175
615	47
5349	165
877	65
1937	105
2853	129
1291	85
1073	85
4975	173
1793	101
7973	205
823	59
843	77
2063	127
3793	109
1717	139
4621	159
823	59
8507	211
2781	133
2317	101
2474	113
2321	111
5077	145
1735	83
2759	111
1796	89
8747	193
7321	207
429	81
4933	161
1915	103
685	85
1525	99
113	41
1677	95
2191	113
2123	107
2007	119
5963	185
2135	113
1085	93
2235	131
1625	111
1667	87
2181	123
1011	67
341	41
2309	99
1811	119
577	61
11953	245
2097	127
793	73
751	65
277	53
1517	125
503	43
1931	87
2633	119
683	75
861	71
2591	121
697	69
21057	281
1981	109
15873	257
3547	113
2873	141
1935	91
673	87
929	67
1727	87
1901	115
1029	75
5285	169
1315	71
1795	115
3359	143
993	85
1499	101
3643	137
1919	105
1329	89
1485	99
185	37
2035	99
847	63
4633	165
1584	85
1435	81
3439	165
3457	135
6977	183
2239	119
7533	181
4351	159
2099	115
623	71
785	57
1555	99
737	81
1359	71
275	51
467	63
1403	91
4395	159
601	69
257	29
977	81
6605	175
5545	177
1353	81
8573	221
3177	119
3529	139
1021	77
8333	197
2403	127
901	77
691	59
2069	107
901	77
2103	123
1285	73
337	67
373	59
3645	125
2021	107
503	69
2445	99
877	69
1827	77
2279	95
435	55
1617	73
2999	121
4439	153
3453	135
6141	173
2803	125
4369	167
7331	183
857	57
1259	91
765	57
3797	155
431	55
1627	89
675	63
699	65
843	83
1903	93
2733	117
665	69
9171	201
4683	187
2981	125
2167	109
6325	195
959	73
1013	65
4671	155
205	45
5567	177
2787	147
2347	143
3541	149
2415	107
9017	207
321	55
1431	105
19	7
553	33
2723	131
3149	119
431	47
3865	151
655	59
1131	83
1179	87
1361	85
413	41
967	85
