Score	Length
1384	70
692	46
194	26
338	40
452	48
144	28
2008	108
520	56
80	24
98	34
40	24
1356	74
50	38
192	44
412	40
220	32
1160	68
1376	72
148	48
722	62
74	34
186	42
668	52
206	32
408	52
504	36
1006	70
74	22
536	46
242	34
50	18
348	40
210	46
606	50
420	52
456	48
64	28
548	52
196	32
78	26
608	68
196	28
48	16
288	32
746	60
860	48
180	32
482	66
314	26
382	44
1528	84
2200	94
372	36
458	38
170	34
432	48
19	7
334	42
96	28
1986	118
66	30
254	34
52	24
138	38
164	32
90	30
958	72
124	34
252	44
174	30
82	30
1158	50
200	36
1236	80
420	40
142	26
94	26
280	36
166	30
416	56
156	38
954	68
908	64
324	40
870	70
332	36
334	36
142	38
1010	62
882	62
222	42
894	78
1104	64
384	32
124	40
214	42
3146	116
558	38
3354	114
38	26
192	32
1216	86
44	24
776	68
638	56
522	42
792	78
180	40
238	26
702	68
784	60
828	60
1256	82
228	36
132	24
968	72
376	36
106	26
1116	66
560	48
490	42
308	32
68	28
56	16
426	50
50	26
182	34
78	30
114	22
5208	152
98	30
142	24
180	36
238	30
762	38
1308	64
920	68
19	7
266	42
5468	160
76	24
538	62
1458	68
720	44
118	30
4034	134
304	42
794	56
894	82
206	36
226	26
150	34
1402	66
2212	100
34	14
376	40
178	34
144	48
378	42
190	30
232	44
306	44
82	22
4046	102
252	36
206	30
994	68
326	38
236	28
784	52
296	52
142	34
196	20
134	30
586	58
344	42
438	38
244	32
652	46
572	50
196	22
256	32
364	52
640	32
86	26
592	56
1006	54
160	32
476	52
260	48
292	36
78	30
104	28
544	48
40	24
104	28
1304	84
238	26
232	40
56	24
136	36
472	52
448	48
620	56
840	48
608	44
274	30
144	28
512	52
136	32
250	38
382	42
238	44
378	38
590	54
182	38
178	22
38	26
296	52
560	52
172	32
42	26
756	60
212	24
612	36
1028	52
570	54
680	48
1552	84
114	34
1570	86
490	50
364	40
510	54
246	26
508	60
1086	70
446	58
2622	96
244	32
66	38
36	24
1592	104
346	42
674	50
550	50
566	58
398	38
424	36
1010	58
858	70
320	32
416	54
662	62
296	48
76	36
866	50
152	24
466	36
2014	98
598	44
576	48
34	22
46	30
390	42
52	24
500	48
516	66
28	22
96	32
514	46
66	26
416	32
302	34
314	54
208	36
418	50
88	20
282	46
568	40
734	54
68	24
1262	86
740	40
112	24
2964	110
478	54
600	56
1206	70
744	56
248	40
19	7
3170	122
132	28
476	40
112	30
606	54
730	42
98	34
72	28
442	42
254	30
400	48
218	30
504	44
1158	68
134	38
216	36
506	44
2332	120
40	24
154	34
366	48
376	52
92	24
1892	100
386	50
1028	64
250	42
538	56
158	50
200	32
288	36
478	58
2628	130
30	22
294	42
48	24
164	28
432	30
212	32
832	68
138	26
172	32
486	54
132	36
660	60
860	80
624	60
442	50
194	42
2654	108
606	38
348	40
154	34
338	26
52	36
98	30
302	38
604	44
384	56
292	48
960	54
144	24
204	36
750	66
462	46
686	58
64	24
32	24
450	46
1016	78
780	48
42	26
72	16
640	66
192	34
104	40
278	34
520	60
608	50
264	32
108	24
592	56
120	28
576	44
202	38
108	24
124	28
692	42
19	7
406	38
838	50
742	72
662	46
354	50
22	10
908	62
106	30
1152	72
184	28
452	48
160	40
356	48
334	46
486	50
568	48
1954	78
284	36
238	46
286	44
71	15
660	44
872	82
544	36
706	54
226	34
348	54
388	24
228	46
522	54
190	32
782	54
110	34
348	38
280	40
216	44
618	54
2418	110
726	44
2088	96
236	48
859	62
42	14
706	50
472	60
234	26
210	42
308	56
154	18
280	64
120	32
128	36
168	32
62	28
60	28
32	24
840	40
64	28
878	78
660	60
762	66
86	30
812	60
1340	68
920	58
414	48
228	40
1416	76
328	32
160	46
1064	64
56	20
272	36
58	18
482	50
816	60
120	32
168	44
874	62
612	32
150	38
870	58
1362	78
658	54
154	26
406	46
1074	56
150	30
94	30
616	56
704	60
568	40
944	56
224	40
148	36
536	48
296	36
62	26
92	36
934	56
1298	90
842	70
528	44
84	36
360	40
738	42
108	24
652	52
3518	110
66	18
370	46
426	46
566	46
680	58
958	58
398	36
52	28
492	48
126	22
154	28
108	28
392	32
80	24
292	60
630	54
146	30
312	36
732	70
926	60
448	44
386	54
194	30
968	60
56	32
264	36
1664	88
204	32
50	14
504	34
286	46
994	54
612	48
406	60
416	36
392	40
278	36
354	42
348	48
904	56
436	44
458	50
726	62
922	58
1728	88
430	46
1980	82
248	24
352	40
226	34
552	64
578	42
1504	70
80	32
604	52
178	38
1044	60
404	46
444	44
288	36
166	34
310	38
546	50
540	44
304	40
340	28
1347	76
206	46
396	24
770	52
114	26
976	60
468	56
586	54
230	34
550	42
586	56
410	38
886	46
452	36
104	24
180	44
712	60
190	34
474	62
176	44
850	62
1076	68
466	46
194	42
320	36
64	20
298	54
612	40
1064	64
266	46
324	34
144	24
342	42
34	28
466	42
84	28
76	22
304	36
464	44
78	18
486	46
1650	88
958	68
540	36
1200	80
954	64
1698	66
360	42
114	26
1680	76
366	50
1364	96
1328	84
342	50
330	42
282	42
2578	106
19	7
492	44
422	30
346	42
294	42
96	24
1584	80
170	34
22	22
2126	84
94	30
166	36
924	68
490	58
2298	92
208	40
172	32
82	26
80	28
224	40
1040	58
280	36
736	48
260	44
1980	88
244	28
522	54
716	60
208	40
1612	80
218	42
132	36
716	60
760	52
168	28
210	38
130	42
1286	74
138	38
100	28
680	52
280	36
160	48
128	28
1170	64
508	40
736	62
40	24
284	42
56	28
260	40
96	32
282	28
366	44
276	36
168	36
92	24
424	40
182	26
498	38
394	34
1052	80
536	50
60	16
754	78
326	32
346	26
170	42
240	32
462	44
268	40
760	44
204	24
3942	116
54	26
150	26
272	48
264	28
404	56
132	30
1494	90
530	58
28	28
202	46
42	22
106	30
34	22
122	30
118	32
132	40
380	48
232	34
270	34
366	40
574	34
342	46
442	34
212	24
202	48
260	44
94	34
2448	104
478	38
26	26
458	58
244	32
364	32
1132	84
354	54
82	34
78	26
412	42
158	30
378	62
480	42
68	28
276	44
278	54
154	44
1018	66
788	46
566	56
458	50
498	54
2112	100
1068	76
132	28
828	58
248	36
244	56
112	24
342	30
272	40
268	44
1774	64
58	26
98	34
708	58
54	14
138	30
62	22
580	48
118	42
550	46
270	34
406	42
700	56
230	42
19	7
220	40
5576	156
408	36
406	50
72	24
50	18
596	44
488	54
248	28
134	22
680	52
142	40
532	64
1610	82
608	44
218	30
302	30
546	50
296	44
454	46
1480	84
148	32
562	52
788	46
1058	50
554	42
1520	70
1468	80
120	28
534	46
486	46
418	40
286	46
496	46
646	66
58	18
174	34
242	34
162	34
382	62
74	22
170	34
1228	88
462	42
1884	88
70	30
564	26
554	58
226	38
684	48
330	38
2106	86
382	64
300	46
1072	84
440	48
120	24
422	30
364	48
642	42
486	40
370	46
1210	74
174	34
552	28
156	32
1402	78
118	30
702	58
328	36
728	56
802	70
106	34
1016	52
40	28
1380	82
234	46
318	42
830	62
1206	62
510	46
180	34
322	46
30	30
2324	96
826	72
242	42
232	40
610	50
596	44
444	44
176	36
390	34
770	66
1618	78
4008	144
608	48
640	52
212	44
206	38
44	20
98	28
940	60
460	56
826	50
1302	64
260	40
102	28
76	16
184	36
30	26
468	52
894	64
276	40
60	28
702	62
1910	118
480	44
196	32
2560	92
1114	54
948	64
354	30
146	34
102	38
286	30
208	40
202	34
740	52
210	46
2980	100
400	56
240	28
202	42
352	52
84	24
668	64
3184	122
484	40
696	48
648	40
88	20
452	44
674	56
30	24
232	44
456	36
616	64
102	34
1122	70
60	24
98	30
582	46
150	34
256	34
40	28
610	62
838	42
732	76
1126	62
630	38
114	30
466	40
572	60
712	60
508	52
1324	80
696	60
1052	60
534	42
1688	80
416	44
92	32
200	36
396	56
618	48
1708	76
188	32
370	34
98	30
412	48
42	26
644	56
508	48
646	66
358	50
544	60
446	48
1498	54
614	62
62	30
374	52
714	58
1276	64
540	56
134	30
892	58
1002	78
926	62
572	40
108	36
358	44
718	46
408	44
548	48
414	34
1984	84
378	46
1302	66
124	36
262	46
188	34
1188	60
284	36
170	34
268	34
170	30
390	30
676	48
108	40
860	62
964	64
496	48
6344	164
2108	94
98	26
578	42
778	58
284	44
264	28
654	54
210	30
124	28
19	7
598	58
708	52
56	20
232	36
1434	82
930	62
670	50
86	26
384	40
440	44
324	40
562	34
884	60
92	24
742	52
90	34
302	42
262	34
352	30
3136	98
1276	68
208	28
136	24
94	30
1014	66
164	36
84	32
76	28
212	34
874	58
414	42
1066	64
566	54
1662	98
810	62
658	60
944	70
286	50
1024	68
250	34
46	30
142	38
362	38
1274	64
482	38
498	34
236	48
366	34
776	56
60	36
71	15
348	44
334	36
602	50
530	42
1160	56
566	58
308	32
116	36
276	30
952	56
58	34
64	32
524	44
88	28
98	42
258	54
736	62
34	22
92	24
644	52
516	28
124	28
104	28
132	40
50	14
780	52
1508	76
1302	90
470	54
480	44
76	30
2112	94
524	46
1598	82
464	40
70	34
148	36
742	50
948	64
52	28
178	38
790	54
306	36
852	68
522	42
268	32
314	54
74	22
198	26
914	56
110	26
134	26
518	58
448	44
2066	104
470	46
304	32
376	40
148	48
140	32
86	30
190	30
258	26
666	50
226	46
116	32
440	48
344	24
792	60
416	56
166	38
1062	68
322	42
426	54
758	46
382	30
60	28
1574	82
414	34
188	48
502	38
520	42
386	48
214	34
412	52
308	48
646	50
64	28
1412	74
298	42
396	36
150	30
180	16
438	42
310	46
1008	76
60	28
706	50
78	18
2382	76
74	26
412	32
272	44
2456	98
1192	60
72	32
128	28
194	42
492	32
464	50
84	32
1254	82
116	36
106	34
790	58
48	20
182	42
317	30
96	28
192	36
854	66
430	38
82	30
252	40
50	18
352	44
488	40
410	38
150	18
674	42
98	26
878	68
122	26
828	56
364	50
224	32
240	28
964	68
92	28
54	28
44	28
52	24
690	48
238	48
1034	50
46	38
252	40
624	40
166	42
780	48
38	14
328	52
1092	84
860	60
1058	62
128	28
354	50
1640	66
140	40
576	52
206	18
106	26
200	36
266	50
136	36
160	48
100	20
2640	94
930	82
2198	114
80	28
266	34
296	32
1460	76
66	34
54	22
138	34
172	36
90	22
332	44
262	46
474	48
70	26
260	40
342	46
108	28
210	34
836	72
214	38
548	48
624	52
1228	64
770	86
38	26
274	42
314	34
902	70
62	18
600	56
274	38
274	34
318	40
1654	76
96	32
108	36
366	46
336	52
254	34
322	38
936	64
250	22
150	42
60	20
1552	74
72	24
344	44
604	44
694	62
366	44
228	40
146	26
300	36
784	68
2228	100
280	48
830	66
362	42
558	44
290	30
342	36
304	32
384	40
286	46
98	26
144	40
460	56
124	32
1686	70
86	22
1566	84
94	34
40	28
88	24
372	48
84	24
210	46
888	64
234	42
678	58
194	30
338	34
50	30
92	28
754	60
84	28
580	40
298	38
800	40
2060	88
320	48
106	34
412	32
594	48
138	38
110	26
920	68
54	26
754	66
82	30
426	54
136	32
724	56
396	44
1746	90
686	70
1332	80
388	44
70	18
376	52
320	40
596	56
294	38
294	34
712	44
84	40
1556	78
892	52
586	42
1028	76
68	28
126	26
48	16
552	50
700	46
218	30
514	54
556	44
124	40
966	62
236	24
250	46
174	34
786	50
260	36
72	28
474	54
1436	80
198	42
19	7
314	38
278	26
122	50
226	30
1600	84
686	38
630	58
418	42
294	34
302	38
1082	78
268	28
360	40
648	48
112	28
278	36
226	34
90	30
1244	80
120	34
1966	88
276	40
78	26
422	42
306	42
264	52
388	32
510	44
352	40
834	50
1242	78
296	60
382	54
96	24
144	36
90	30
104	28
46	18
86	26
384	48
1638	70
144	38
500	32
254	30
434	38
280	36
176	48
312	44
1380	76
306	34
178	34
194	38
198	34
60	16
78	30
224	32
100	32
874	54
416	56
392	60
96	24
19	7
124	34
516	48
366	54
288	56
1386	62
474	32
1218	68
912	50
344	28
98	30
194	30
226	40
1554	98
68	20
690	68
798	70
1986	104
282	34
172	40
280	36
202	30
1034	66
322	36
666	62
932	68
254	50
176	26
432	40
32	20
168	32
46	14
118	34
414	30
404	32
412	44
238	22
118	26
270	42
292	32
56	24
1932	82
1118	80
270	42
5810	122
90	34
684	68
182	34
372	48
1290	78
164	28
116	44
406	34
386	38
412	44
334	34
122	34
486	30
802	62
376	44
1162	90
216	32
148	32
182	34
210	30
598	48
168	28
160	24
684	40
96	32
416	32
226	34
486	50
872	76
68	20
322	34
556	64
874	50
270	48
318	38
860	60
402	62
72	24
120	36
384	44
100	36
714	64
542	34
1098	72
84	28
80	16
378	44
330	34
1772	88
966	58
90	22
394	46
1908	82
138	24
1150	62
272	24
100	24
72	16
580	40
192	40
658	42
102	30
766	38
136	44
94	30
1862	86
198	34
234	38
82	38
292	48
1300	64
432	44
682	34
66	26
406	50
36	28
964	62
332	36
1514	90
1440	72
1180	54
248	48
1062	74
72	28
80	24
446	54
170	30
208	36
470	46
562	54
104	32
958	70
114	50
222	42
694	54
356	40
394	42
638	50
746	54
208	20
256	40
72	20
86	22
288	44
578	50
288	40
138	34
296	28
1056	52
436	44
868	56
562	38
230	40
1932	94
110	26
120	40
90	26
308	36
440	44
298	38
1716	96
118	32
686	46
392	54
552	44
806	64
476	56
730	54
528	60
414	42
590	50
496	48
240	28
566	50
246	34
106	38
144	28
1090	86
830	70
1490	78
584	60
662	62
800	64
286	44
424	40
180	36
438	46
1280	58
1008	64
188	24
648	58
474	46
524	56
372	60
120	32
382	30
92	28
118	38
92	32
172	32
210	46
660	64
548	52
316	56
250	26
374	42
870	58
220	32
76	28
392	32
602	48
722	52
68	20
528	44
392	48
1372	76
222	40
56	28
360	52
558	46
284	32
42	26
98	30
1242	74
652	50
52	24
206	42
402	46
332	36
66	20
264	36
1008	58
88	36
822	44
112	28
1186	90
1272	88
102	18
160	40
170	42
172	28
794	58
434	46
172	36
236	36
28	24
2570	102
392	52
206	46
424	40
256	36
160	32
108	32
276	36
80	24
464	56
88	28
502	42
1404	76
434	58
306	50
2342	102
190	30
262	34
404	40
922	56
734	78
82	30
226	30
896	56
1840	82
160	36
276	40
1646	90
426	30
618	50
374	32
274	38
1574	76
230	26
282	40
118	30
404	60
234	38
184	36
476	36
1062	62
42	22
494	46
178	14
62	26
448	32
118	30
878	74
1720	96
160	36
2564	108
308	44
1020	72
1272	64
1024	72
52	28
240	32
148	40
70	26
582	38
336	24
78	38
76	28
148	28
1008	84
910	56
870	60
1150	62
390	42
84	16
112	28
2994	110
164	32
618	46
446	34
420	46
44	16
1238	66
668	64
84	24
320	36
88	20
1210	92
484	44
72	28
1096	52
1348	72
38	22
140	28
136	32
636	44
118	26
162	26
40	24
610	58
90	30
402	44
564	52
348	44
2364	74
320	40
268	44
1702	98
44	20
1178	72
346	54
2430	94
482	50
824	60
756	36
768	60
138	34
656	60
506	34
518	62
966	56
420	44
52	28
198	30
204	56
272	44
374	38
1098	64
970	54
42	14
652	64
150	42
734	56
238	38
674	66
174	40
60	28
244	28
2224	98
508	56
462	42
282	44
1624	90
958	50
718	74
338	46
372	40
720	74
504	32
72	24
1108	58
102	22
1050	60
66	18
260	26
312	40
1456	58
44	32
92	24
208	36
450	40
178	38
250	38
116	28
30	22
454	46
462	34
378	50
158	42
302	38
62	26
870	74
334	38
762	74
392	44
428	50
740	60
210	34
42	14
984	80
1182	68
218	22
286	42
528	44
898	58
250	54
248	36
166	38
470	34
140	32
1182	78
398	50
180	28
714	46
288	36
200	28
458	50
152	38
876	62
118	26
736	48
94	34
126	30
1862	86
392	40
242	30
98	38
820	56
284	40
256	36
434	54
706	84
646	54
132	28
385	40
168	28
272	38
276	44
772	60
900	50
66	18
506	46
388	44
46	14
160	36
388	48
168	36
232	28
1762	76
892	60
446	34
1474	88
174	34
1366	86
86	30
122	42
104	28
1024	58
1034	54
160	32
772	52
474	38
382	38
128	32
68	28
76	24
1518	88
956	66
502	42
142	30
114	30
410	34
678	62
78	26
52	28
608	48
96	32
68	24
438	42
168	40
178	34
548	48
402	46
712	76
754	54
950	60
678	74
138	34
226	34
586	54
456	38
166	30
890	70
398	46
74	38
456	44
96	28
566	54
150	38
1688	98
460	52
264	40
90	22
398	46
722	50
906	60
516	38
162	22
78	30
34	34
356	52
100	36
404	52
130	34
98	30
3932	120
452	68
52	28
504	52
176	52
300	32
1276	66
22	22
80	28
48	16
2028	80
1194	70
412	46
590	66
122	38
104	24
398	44
434	50
644	78
42	14
532	56
1196	88
1530	96
2552	108
1744	84
1056	68
548	48
58	22
74	26
86	26
86	26
466	54
214	38
896	56
456	68
238	54
1250	82
284	44
6564	194
492	60
78	18
1192	56
424	48
1946	98
1186	66
424	72
364	36
222	30
284	36
206	54
300	54
228	40
76	36
292	40
164	40
86	24
150	34
102	30
252	38
130	30
736	46
48	32
444	48
540	36
344	52
90	30
332	42
348	56
90	22
230	26
364	48
386	30
554	58
214	38
622	62
84	24
74	26
1276	66
34	14
134	30
90	30
746	54
414	28
1100	66
314	38
314	36
60	24
7424	150
70	18
880	72
728	50
530	58
414	38
344	24
1138	66
2530	98
214	26
76	28
1388	72
1076	64
396	40
96	44
236	38
1172	68
864	58
510	34
266	40
268	44
500	40
236	48
424	56
76	32
946	72
64	28
166	34
476	44
648	44
388	42
66	22
812	70
1112	72
332	32
2046	94
1466	94
404	28
66	26
426	54
558	40
440	48
462	50
66	26
198	38
1424	76
1078	58
250	34
1018	58
222	46
94	26
122	32
516	64
220	32
912	74
274	40
962	46
1120	84
730	54
994	52
474	66
34	26
886	98
228	20
1076	60
1116	64
346	30
832	46
206	50
62	26
384	24
1202	104
26	26
1327	62
298	54
650	70
1166	70
370	42
218	30
144	28
88	20
724	52
253	29
392	44
624	48
606	62
740	64
534	46
724	68
434	38
1048	72
1008	72
858	48
928	72
50	18
314	42
82	34
292	28
226	30
322	42
392	42
354	34
374	40
1104	84
214	28
202	30
512	60
156	36
162	26
694	66
62	22
308	40
672	60
92	28
426	46
270	42
522	58
130	38
156	32
636	68
702	42
592	52
1104	64
76	20
902	66
124	36
168	52
142	34
80	28
1116	74
328	56
1046	58
554	46
292	32
118	34
272	32
200	32
224	44
1558	78
1718	78
622	46
126	34
220	36
674	54
402	38
204	40
48	28
954	74
320	44
466	46
128	40
302	54
76	28
164	28
492	48
580	52
596	52
472	36
252	36
128	28
152	28
220	32
240	28
742	66
352	38
392	40
128	36
270	38
42	26
192	28
474	42
1826	92
224	40
192	44
252	20
586	52
150	34
242	34
168	42
354	50
19	7
204	32
64	32
42	26
260	24
360	44
1220	88
734	48
252	36
120	28
60	28
366	58
258	34
44	16
1260	68
682	38
226	30
114	42
178	42
554	54
458	42
296	32
596	40
436	36
774	58
260	48
238	42
1006	66
528	48
298	38
550	50
50	18
114	34
102	26
54	30
624	48
106	26
346	42
760	70
698	62
108	28
356	40
434	44
832	44
188	40
530	54
1262	78
120	36
288	48
630	50
572	52
424	28
1464	74
752	48
230	30
512	56
144	32
474	38
542	50
108	24
532	36
220	44
146	38
80	36
1324	76
238	36
192	40
102	30
150	22
936	50
126	38
126	36
64	24
302	40
656	60
538	48
474	46
168	32
392	32
560	52
662	46
1516	80
82	26
372	32
366	26
108	36
458	52
1726	70
558	50
730	50
456	40
580	40
106	24
566	50
1882	90
150	36
760	64
124	32
54	26
550	48
70	34
106	34
260	40
736	46
142	26
242	34
1528	96
176	32
26	18
332	60
2714	108
1674	86
94	18
478	44
94	30
242	40
758	48
926	58
558	38
390	42
1304	78
416	62
308	48
960	88
296	40
88	24
282	32
54	22
698	42
692	52
278	26
96	28
524	56
274	30
24	24
232	36
710	48
558	42
796	60
302	32
1962	86
650	42
786	62
1042	58
84	24
838	58
1066	68
150	34
720	56
382	42
184	24
258	30
568	64
314	30
30	14
642	44
3186	128
392	28
616	54
356	32
24	24
264	48
722	54
942	62
300	36
506	46
136	36
422	54
212	32
416	48
112	26
580	52
380	40
142	38
1198	64
38	22
468	40
162	36
262	26
172	24
450	54
206	36
1334	64
698	62
1110	62
484	48
260	36
724	64
1912	100
796	52
510	34
542	46
456	44
502	34
250	36
64	32
790	70
94	34
196	30
126	30
312	36
678	58
334	46
274	38
118	30
178	42
386	38
162	34
630	66
984	64
192	44
684	56
64	20
298	46
468	60
382	58
436	40
166	36
434	38
272	44
486	38
244	40
158	30
1228	64
78	26
508	44
334	38
758	58
536	52
174	34
184	30
270	30
782	50
248	40
528	28
258	44
228	36
146	42
140	28
60	28
980	60
1608	72
990	64
60	28
408	48
256	44
392	36
376	48
392	52
204	24
96	24
402	42
416	36
174	34
520	44
484	52
482	58
568	60
558	38
502	38
52	20
288	42
1110	74
112	28
460	44
60	32
290	34
316	32
240	28
122	42
1300	88
244	40
928	58
326	50
170	34
182	38
2297	94
40	24
176	40
316	40
102	22
302	30
522	54
1224	54
520	44
640	68
732	52
218	30
274	26
736	44
712	56
408	56
978	66
428	32
622	50
334	38
458	52
212	24
210	38
72	28
852	76
1146	66
106	18
562	50
38	14
96	28
70	18
342	50
426	46
334	54
186	34
374	34
1308	74
370	34
62	26
1888	100
654	66
108	24
174	26
1472	72
192	32
66	24
190	34
648	60
68	14
40	12
98	26
1230	62
630	70
440	48
310	30
216	32
336	34
414	50
114	42
60	28
160	40
388	42
266	46
188	36
284	40
198	34
80	32
218	38
62	30
512	44
1070	86
1210	76
346	34
522	44
278	30
1478	82
884	68
340	44
204	40
56	32
724	68
260	44
160	32
110	26
180	28
798	82
4186	136
722	70
302	46
52	28
208	36
1658	82
19	7
214	42
62	30
104	36
658	60
298	42
162	30
814	70
78	30
562	54
874	66
338	46
228	44
1382	78
246	38
460	48
1152	88
510	38
710	70
330	58
590	54
256	28
400	44
512	52
524	56
396	52
288	40
646	42
970	66
448	36
68	28
514	58
194	32
2812	104
172	40
270	30
166	26
80	20
594	42
492	40
142	34
78	34
430	46
934	62
60	24
52	24
360	60
254	42
1460	62
466	54
510	44
202	38
150	34
64	24
202	42
260	52
1438	74
76	28
202	38
208	32
104	28
426	46
538	50
34	26
314	36
164	32
116	28
1248	64
588	72
48	24
70	30
418	42
186	26
368	42
222	26
1714	86
92	24
84	32
202	30
454	42
724	56
98	22
230	30
140	32
272	44
272	24
1334	70
148	22
438	46
584	40
26	22
234	34
396	40
202	46
92	28
72	16
92	28
78	30
384	52
88	28
500	56
480	38
478	66
60	36
98	38
240	28
330	38
120	44
19	7
906	62
66	26
536	48
46	22
544	54
76	28
186	34
198	38
266	36
62	26
334	42
624	56
872	70
1256	76
858	70
456	44
480	44
172	48
104	32
292	28
228	34
154	34
446	42
706	50
928	72
262	34
136	32
200	48
520	44
250	42
240	40
570	44
100	24
350	50
1142	66
572	52
922	58
650	56
272	36
380	56
314	62
19	7
824	48
666	54
538	50
240	36
362	40
602	52
232	28
178	36
146	34
1158	74
216	24
606	54
642	64
464	44
7600	170
1738	86
62	22
470	42
158	30
374	50
348	44
300	32
654	54
430	62
342	42
482	38
410	44
640	60
188	40
698	62
462	42
116	40
942	54
134	22
4454	134
222	58
108	28
234	40
332	48
450	26
104	36
452	52
840	62
916	76
424	52
486	62
146	26
394	30
114	26
182	30
132	28
48	28
956	52
548	56
414	42
350	38
1278	86
1024	72
46	30
19	7
1326	90
44	20
596	36
58	26
186	38
266	30
838	50
88	44
694	50
204	36
622	50
184	40
104	36
738	56
106	30
848	86
76	24
96	32
254	42
292	56
556	52
306	28
402	34
884	56
176	36
88	32
180	36
602	42
496	40
795	68
686	50
374	48
504	28
5407	148
392	44
334	46
238	30
726	56
96	32
86	26
154	42
1924	84
110	30
374	34
286	38
622	46
788	56
260	34
474	42
186	34
164	32
126	22
178	38
296	32
814	50
290	34
926	54
594	46
734	78
19	7
160	36
126	26
74	26
208	20
90	20
680	54
52	24
156	38
664	64
902	50
220	34
124	28
662	62
508	56
110	26
264	40
1070	58
368	46
2236	94
158	50
724	46
346	58
800	56
350	34
188	40
66	26
334	50
108	28
670	78
376	52
124	24
144	36
1740	76
556	60
34	26
270	38
808	56
248	46
286	42
570	62
2534	108
170	30
228	44
334	38
138	30
718	52
1066	74
576	64
954	54
684	60
194	26
138	26
86	34
430	46
388	52
238	26
696	52
232	42
324	32
230	18
1632	84
448	52
518	48
88	24
264	32
776	62
582	62
158	34
664	40
1152	64
306	34
586	62
110	26
82	22
376	40
570	38
168	44
180	32
422	50
1242	66
788	72
534	48
104	24
532	52
228	32
548	50
38	14
598	48
104	24
436	64
380	40
200	28
218	22
336	24
270	30
458	22
334	46
54	14
326	50
154	38
336	56
268	32
560	40
730	54
180	36
198	22
246	54
446	50
234	38
120	28
866	56
1020	64
244	42
196	44
972	64
90	34
1004	74
372	32
214	30
1266	66
258	34
604	72
494	54
386	38
248	28
126	30
356	48
246	38
828	58
48	24
32	24
344	28
792	68
72	40
352	32
240	48
430	44
240	44
374	46
502	38
230	34
214	26
534	38
460	48
78	38
874	62
890	54
822	54
78	26
374	32
354	42
72	20
1976	108
332	40
224	42
290	32
772	58
394	42
282	38
470	40
1316	64
962	60
1058	58
212	40
328	32
102	34
204	36
1200	64
522	48
1166	74
690	46
142	26
914	60
7806	160
280	32
118	38
524	48
194	30
290	42
110	38
818	50
384	36
158	22
98	30
140	32
546	42
282	46
216	40
1548	76
706	58
546	56
222	50
550	62
590	46
108	32
1052	66
32	32
314	34
402	46
88	28
168	32
296	40
72	36
1974	106
518	46
868	52
202	30
228	44
330	34
204	28
599	52
76	40
2786	108
78	22
268	44
942	66
1192	76
962	62
166	34
720	54
192	40
630	46
208	40
70	22
424	44
668	44
480	64
360	64
34	26
114	30
1496	70
202	38
488	56
526	50
92	24
438	44
394	26
48	24
182	38
400	40
46	14
182	38
918	56
752	44
88	28
90	30
1412	72
528	52
692	68
108	32
1032	68
256	36
1718	76
840	52
36	24
168	32
1890	90
2358	84
314	34
436	44
250	50
3968	118
76	24
1434	64
304	32
418	42
98	30
566	52
430	46
186	38
184	36
158	34
584	44
716	48
182	38
192	32
286	38
500	26
70	18
186	30
118	34
50	14
798	46
938	56
2338	102
1376	84
940	68
118	36
56	24
248	38
1184	60
2314	96
60	28
216	36
1238	86
682	62
66	30
300	32
632	64
1468	76
150	34
174	38
644	52
1194	68
468	52
318	42
226	26
122	26
252	40
154	26
516	36
184	36
448	48
588	32
774	46
920	72
464	48
530	42
146	26
590	38
386	46
1450	64
616	44
90	30
250	42
578	48
250	28
302	46
444	40
464	60
2502	102
240	36
278	38
370	22
288	44
82	26
778	46
540	48
216	36
652	60
1034	66
378	34
62	18
56	24
36	28
334	42
438	36
406	38
416	60
628	48
232	28
424	40
140	40
5724	180
46	22
1058	54
96	20
208	42
718	58
486	42
1030	68
564	60
192	28
860	64
662	48
210	30
224	32
158	34
40	24
200	28
1022	76
778	62
134	22
250	38
950	62
330	46
908	56
158	34
384	32
320	48
186	50
90	22
146	32
3140	110
750	70
1298	70
408	56
1522	84
798	58
582	38
700	44
352	24
126	26
226	34
58	26
122	30
98	30
820	68
856	52
518	60
372	36
216	32
62	22
1398	94
604	54
544	46
256	36
408	52
70	26
122	22
1782	94
850	56
468	28
176	28
150	30
664	64
1092	68
154	30
90	30
468	52
1042	62
422	30
200	38
718	62
546	60
786	42
722	58
72	20
238	38
126	38
246	30
184	48
240	40
38	30
1060	52
232	36
322	38
520	40
1086	70
952	68
254	66
268	32
52	20
86	34
82	38
32	24
2586	112
596	48
624	36
34	14
1336	90
862	62
408	56
880	76
974	54
164	32
158	30
260	40
352	36
184	32
1258	86
816	70
288	36
1330	80
1008	72
152	36
508	48
80	24
562	52
102	26
696	52
566	42
632	44
80	28
616	50
40	24
770	78
78	26
1548	80
2812	92
960	68
462	50
295	54
614	46
628	60
60	28
56	24
1258	74
638	54
152	28
198	34
404	40
1510	74
260	48
902	60
572	50
544	38
880	60
1254	88
370	38
528	40
800	60
542	50
242	22
496	46
42	26
386	34
176	32
588	50
288	32
260	36
72	16
2822	106
698	50
216	40
158	26
68	28
216	28
38	26
134	34
96	32
132	28
264	40
608	40
66	18
214	38
166	30
52	24
940	60
150	42
880	48
426	30
86	26
144	26
200	32
612	50
1110	62
412	38
720	58
296	48
180	32
306	62
740	68
478	34
560	54
116	36
1252	88
38	30
186	22
250	30
1316	78
1104	80
236	32
172	28
174	38
3138	96
46	26
5978	174
730	42
262	30
146	22
552	40
688	52
1254	62
702	38
350	48
492	56
516	40
590	38
380	50
182	36
1012	72
1114	72
156	32
40	32
410	40
338	38
670	62
326	34
560	48
146	34
334	46
1714	70
234	22
750	48
246	34
1196	72
284	30
120	40
122	28
150	38
2004	88
480	40
210	42
780	52
630	54
798	56
1236	70
288	40
518	38
548	58
86	34
602	54
204	48
412	48
70	22
606	46
910	62
210	34
332	46
2594	110
71	15
434	50
128	32
158	38
416	44
286	34
294	34
718	50
252	34
714	46
252	36
496	52
516	50
148	32
490	34
140	36
96	28
1082	82
210	30
146	36
78	22
2224	98
269	40
928	50
352	40
600	56
320	42
336	44
1312	80
774	58
238	42
210	30
54	30
374	38
500	58
362	46
302	38
366	44
400	40
420	44
416	38
270	34
56	24
168	32
406	42
782	58
224	52
3476	104
2164	84
234	42
176	32
50	26
772	60
228	36
142	40
246	34
44	32
258	42
346	38
112	28
138	46
1244	82
356	36
492	48
1998	114
148	36
244	36
1338	66
1096	78
64	24
972	48
254	30
154	30
126	34
62	22
174	38
620	76
208	36
790	54
66	26
1010	58
358	34
326	50
442	58
184	34
228	32
158	34
854	54
290	38
876	64
950	76
394	46
74	22
220	40
40	16
900	60
108	28
146	34
350	54
19	7
28	28
992	74
400	44
254	38
3180	132
170	30
326	36
336	24
218	34
2298	84
112	40
488	44
60	28
496	48
644	64
506	42
134	30
326	42
240	28
224	32
970	70
106	34
776	48
910	52
704	44
19	7
262	26
810	60
504	56
96	32
1258	72
462	50
418	34
180	40
214	34
622	44
452	32
464	56
226	30
266	46
442	46
798	78
1318	86
532	52
276	44
618	42
116	24
308	32
1406	66
330	42
554	54
680	46
256	40
46	14
138	22
262	26
90	18
132	40
120	32
210	26
70	18
136	36
456	48
630	42
226	38
182	30
268	44
398	40
520	40
594	46
216	36
166	36
88	44
38	26
442	34
204	36
790	54
612	64
76	28
476	52
1402	74
1014	72
408	46
582	50
300	48
552	64
282	42
438	38
98	30
262	30
95	19
262	38
136	26
202	38
366	46
258	38
710	42
288	44
690	42
408	44
458	48
652	52
548	44
32	20
334	42
1658	70
698	58
492	44
776	54
1014	70
118	36
112	28
872	66
622	50
198	38
50	18
44	12
294	38
576	44
142	38
478	54
752	48
394	34
430	70
172	28
1296	102
106	26
60	24
732	56
182	38
454	40
598	70
78	26
60	28
250	30
7400	160
1032	68
246	42
266	38
182	26
912	50
118	26
332	44
26	14
520	52
334	38
320	40
92	24
558	38
502	46
144	32
340	44
108	28
472	44
316	40
266	34
388	46
1232	84
6368	138
310	38
298	38
218	34
450	50
272	36
138	26
510	26
512	52
204	32
548	56
188	36
492	36
1026	70
132	28
136	32
786	78
132	32
444	48
892	44
164	32
276	46
204	36
1228	60
1938	104
148	28
170	34
250	26
88	20
578	38
578	50
1082	62
46	14
38	26
238	38
430	50
1144	56
772	62
136	24
448	54
470	46
140	32
412	60
622	66
892	68
402	54
90	22
342	30
984	68
130	30
246	32
84	28
146	30
264	56
178	26
270	38
554	50
278	38
840	52
634	54
438	42
300	40
1048	72
712	40
116	28
902	50
60	32
54	22
66	30
820	56
438	44
836	56
148	24
178	26
834	56
242	28
528	44
114	30
580	48
168	24
250	34
198	46
369	34
68	20
164	28
352	46
196	36
230	30
182	34
950	62
598	38
400	44
420	40
74	26
296	48
78	22
292	36
590	54
136	24
292	36
74	26
246	40
166	36
198	38
662	46
1304	62
500	44
226	30
112	32
130	42
68	24
400	62
134	26
150	26
304	48
4202	130
138	30
456	48
578	62
36	12
62	30
166	26
42	14
542	56
160	32
806	62
510	38
1202	68
196	44
436	24
464	28
260	38
442	34
1500	64
166	28
834	58
588	52
636	46
1464	68
264	32
60	16
106	30
198	34
468	40
36	20
160	34
56	24
166	38
1694	82
826	68
42	14
76	28
48	28
258	38
564	48
550	54
514	50
296	44
1200	60
498	38
180	36
872	56
758	58
468	36
858	62
584	56
162	34
612	64
592	44
740	48
404	68
392	48
440	54
78	26
248	48
302	38
82	26
74	22
78	30
104	36
2666	94
746	68
3410	108
1088	60
242	34
434	54
522	50
334	30
216	40
238	26
586	46
482	54
152	32
96	28
208	36
232	24
1174	86
62	26
252	36
266	46
260	36
19	7
248	40
1288	76
388	28
332	40
556	32
850	62
56	32
324	40
284	40
826	60
298	42
690	62
1184	72
1004	78
276	40
298	38
1030	76
1500	88
102	38
626	54
680	68
92	28
168	24
294	30
664	42
148	36
162	34
954	50
404	52
860	44
638	38
1232	74
346	46
338	44
92	24
190	42
384	36
44	30
94	38
386	38
294	26
336	44
1300	76
138	34
450	46
678	42
240	40
392	40
144	40
234	46
552	48
60	28
112	20
745	66
594	74
820	58
1272	58
32	28
138	34
354	30
470	34
220	44
708	40
430	34
574	38
110	28
756	50
968	64
378	38
2588	112
270	34
104	32
134	38
342	44
594	54
224	24
794	42
86	18
1088	64
56	28
584	32
154	26
250	34
48	32
64	28
370	42
200	28
566	46
336	40
248	36
338	38
392	56
112	32
80	20
342	54
124	24
360	48
388	40
344	56
242	28
224	40
180	28
1152	80
1142	74
728	68
814	58
74	30
136	32
480	32
1126	62
252	40
306	30
314	66
200	36
494	44
468	36
800	60
446	34
1774	80
794	52
172	28
72	28
130	22
1234	74
30	22
832	56
884	56
102	30
190	38
576	52
252	44
206	30
396	54
216	32
110	26
62	30
342	42
680	52
228	28
42	30
138	46
2676	106
378	42
1366	78
1398	82
708	56
390	46
412	52
284	42
962	52
84	36
826	50
354	42
456	50
650	50
206	30
102	38
874	50
108	28
104	32
924	52
506	42
356	32
3074	102
454	64
134	30
2634	92
1136	88
19	7
436	40
438	26
406	54
230	34
250	36
1310	80
402	50
332	40
614	54
750	66
68	24
384	32
798	54
382	50
498	46
230	22
932	76
90	38
898	52
1034	74
238	46
1226	58
552	60
454	50
598	54
936	64
576	56
840	60
158	30
146	30
40	28
86	40
84	36
246	38
256	44
58	26
614	50
360	28
432	36
870	58
708	52
558	50
262	38
620	44
232	34
342	30
230	22
474	42
154	50
1054	58
974	72
82	28
36	16
84	32
662	78
44	28
828	52
122	30
312	36
236	48
1082	62
344	32
378	38
1056	68
178	30
116	36
754	54
274	54
206	38
568	44
556	44
76	24
66	22
162	38
210	46
308	38
1108	76
592	40
588	52
1466	74
328	48
92	28
44	28
1288	72
58	14
164	28
206	34
84	28
960	52
514	46
996	68
608	48
254	38
736	48
240	28
1120	80
278	34
442	34
890	48
414	38
80	16
326	38
376	34
388	44
368	48
1570	86
542	46
352	36
776	56
912	76
1006	66
420	34
98	30
190	36
376	52
2968	108
324	48
1536	88
172	36
102	30
542	34
116	36
80	24
374	30
194	22
844	60
2468	100
254	42
30	22
406	38
2672	124
816	64
272	32
348	44
114	30
146	30
356	56
394	46
158	34
124	28
106	30
24	24
570	52
574	38
560	40
90	30
1244	88
146	34
68	24
488	56
762	56
384	44
228	32
788	68
198	46
1496	76
134	38
474	58
604	58
1520	84
268	24
68	16
60	24
162	30
1218	72
424	52
88	28
304	32
122	34
2348	100
250	50
74	26
488	48
428	38
1712	80
294	46
316	40
780	56
74	26
410	50
2972	132
382	34
54	26
870	62
140	32
518	60
210	34
88	28
76	28
498	62
1244	80
3440	104
340	44
432	28
1184	68
530	42
106	30
1546	68
736	46
354	38
122	26
158	38
266	26
132	32
234	26
262	46
1530	82
1252	72
158	38
204	44
40	16
380	44
966	66
310	42
280	36
732	48
370	34
646	42
134	26
104	24
536	68
116	36
382	46
72	32
192	24
92	24
214	38
1364	76
282	42
854	62
664	44
118	26
80	32
372	40
116	28
82	30
508	44
198	30
104	24
486	54
44	28
610	54
504	40
336	36
478	50
700	56
944	72
220	40
166	30
1198	74
262	26
956	60
544	50
340	42
144	32
412	44
80	24
58	26
200	28
84	28
128	40
320	36
1746	82
1004	54
140	32
210	42
1894	106
1106	72
158	38
222	54
476	60
550	42
1154	58
2634	128
652	56
22	10
1886	86
114	38
150	34
746	58
332	48
320	56
32	32
196	32
524	52
112	32
76	28
416	48
910	72
296	48
674	34
390	62
814	74
476	64
252	44
338	38
390	22
214	30
344	36
136	40
86	18
1082	58
368	36
476	52
284	28
504	56
24	24
176	30
3624	120
38	26
176	32
90	34
94	30
220	24
208	32
1066	68
1306	68
1066	66
28	28
296	48
912	56
364	44
126	30
248	36
730	56
164	40
472	48
80	36
120	40
167	40
26	26
734	64
370	30
100	24
534	38
96	32
84	28
510	58
1136	64
682	58
738	74
258	40
352	44
156	28
148	32
628	44
1840	98
176	28
140	36
402	54
488	52
524	56
620	64
126	34
314	42
116	36
596	32
180	28
1084	72
52	20
354	48
956	72
56	20
72	32
50	26
528	48
80	16
226	34
886	38
490	48
248	34
568	58
40	26
90	26
682	60
216	36
378	34
128	36
98	26
166	26
56	24
362	34
156	32
634	66
1868	88
684	38
268	32
4452	134
100	36
252	56
136	32
2680	96
304	32
246	38
940	52
1040	68
88	28
56	20
240	36
288	40
450	38
292	40
1060	72
416	52
148	28
120	40
790	62
302	42
168	48
314	40
196	40
202	36
568	44
130	26
232	28
304	28
502	42
178	30
42	26
492	28
428	36
236	28
424	38
2514	98
506	60
110	34
420	52
398	38
348	40
34	22
274	42
270	50
258	34
434	62
332	60
90	22
736	38
752	70
336	44
1500	98
268	44
104	24
62	30
412	64
184	36
50	18
42	26
126	28
114	32
172	32
56	24
456	48
260	44
376	48
130	30
58	14
394	38
268	28
1014	46
316	32
696	46
70	30
64	32
90	30
130	26
378	58
64	24
586	46
58	30
312	34
1168	52
600	44
100	40
184	32
774	74
64	28
756	56
1484	66
328	52
408	34
918	62
238	30
362	34
376	36
176	28
2368	102
660	60
36	32
320	44
138	24
1038	74
2958	114
336	40
530	62
332	52
218	34
54	26
1634	94
120	32
76	32
564	40
284	36
262	42
416	48
42	18
1338	88
558	58
320	28
350	42
130	26
260	40
4492	122
354	38
348	36
416	40
3070	118
284	56
146	38
320	36
826	66
188	48
98	22
1854	92
191	28
478	62
390	36
126	34
384	30
998	52
86	34
318	38
320	40
154	26
1386	76
560	48
372	44
414	50
214	30
402	42
384	20
244	32
550	38
70	18
458	54
262	50
344	40
54	26
402	34
198	26
448	48
4758	126
48	24
1362	70
560	52
124	24
308	36
440	36
366	34
696	42
1002	62
944	68
92	36
968	82
498	70
1052	76
368	44
104	20
520	48
576	36
266	38
48	24
316	24
326	34
314	42
716	68
744	68
666	64
242	42
152	44
1898	90
188	52
172	56
234	30
368	58
300	44
468	44
682	66
1144	60
372	40
178	50
582	46
940	62
148	32
134	38
152	36
256	32
2446	102
46	14
1156	64
196	26
1044	72
272	52
554	56
1112	76
354	38
722	58
406	58
34	14
124	28
446	46
104	36
108	28
154	38
484	42
658	42
708	44
346	38
46	30
574	42
610	50
88	32
134	38
56	32
726	52
130	30
136	28
354	52
282	30
132	44
308	48
400	44
276	48
62	26
464	52
840	56
632	62
182	34
480	44
134	38
700	44
66	18
162	30
1466	70
434	42
182	42
68	32
328	32
384	44
92	28
236	56
600	56
466	40
622	46
66	26
794	52
482	62
694	48
524	56
48	24
100	20
1830	92
346	34
228	28
812	64
94	26
1290	68
82	18
760	56
242	38
284	32
124	28
898	60
778	58
308	36
1132	84
122	34
26	26
54	22
294	40
30	22
340	32
74	26
256	32
252	36
68	28
84	28
1688	82
236	42
274	38
104	28
144	28
112	44
428	24
838	74
330	38
278	34
72	32
2376	88
168	40
492	52
1722	70
266	38
94	20
200	40
286	34
192	32
178	30
74	22
478	44
122	34
230	50
388	36
154	34
76	28
96	24
1036	72
264	40
92	24
144	36
474	38
502	54
922	56
440	36
400	44
578	42
216	28
378	46
254	38
64	24
232	48
468	48
228	40
634	62
212	36
536	52
1768	92
82	18
878	66
128	28
1604	90
416	56
794	62
62	22
102	26
1066	62
92	20
74	26
74	30
440	52
84	24
40	28
284	44
186	22
312	48
78	30
870	58
690	58
834	60
266	50
22	22
316	28
312	44
428	40
254	42
120	24
394	42
310	34
2252	102
216	36
1030	54
226	30
288	38
102	30
112	28
370	58
390	46
516	38
468	32
34	14
428	46
534	46
216	32
228	50
348	36
364	40
838	74
546	60
778	70
1848	104
104	32
62	30
354	46
412	48
518	50
658	54
648	52
806	60
272	36
1336	66
284	52
280	40
228	36
226	38
528	40
476	50
976	58
3158	114
500	48
810	60
988	56
70	18
170	26
278	30
1280	92
98	18
938	56
88	28
112	28
744	56
1012	60
1140	72
302	34
60	28
270	46
804	76
260	36
386	42
228	42
1240	80
580	48
42	14
170	34
112	32
1730	74
242	46
346	54
600	36
430	50
110	30
324	40
400	52
384	60
520	44
198	40
128	32
776	52
412	44
56	16
268	36
592	40
56	28
110	22
144	40
170	42
568	46
60	24
58	34
64	20
490	50
104	32
926	46
70	14
660	42
108	32
320	52
294	38
664	40
212	32
670	50
348	52
784	70
390	38
46	38
528	52
980	78
96	20
800	62
484	40
722	50
322	46
924	76
124	36
848	72
1044	72
290	48
472	36
76	28
88	32
196	40
2054	96
200	32
136	36
104	32
346	38
668	52
310	38
2800	96
118	34
180	32
94	30
360	52
248	26
182	34
136	28
390	44
218	34
32	24
814	50
786	54
270	34
338	32
800	72
786	66
590	46
74	38
1008	58
150	18
438	38
288	32
78	30
90	26
1022	86
446	46
108	32
794	60
86	22
46	18
378	30
776	44
132	32
472	40
2574	92
310	38
642	68
3354	106
172	28
92	28
422	38
1238	80
1256	68
98	34
128	32
280	52
452	42
200	36
130	42
118	30
1074	74
540	60
178	42
88	28
490	44
66	22
84	24
476	44
1054	54
34	26
252	38
282	34
376	44
38	14
290	38
452	40
1148	76
172	40
366	30
282	30
470	30
172	32
38	26
38	22
854	42
134	34
348	32
76	20
648	46
750	70
322	38
388	38
790	78
3578	144
102	38
190	54
302	42
92	40
240	48
62	14
422	44
248	36
246	42
676	52
76	32
842	66
1452	68
326	38
310	36
348	44
19	7
1566	72
19	7
164	32
348	40
494	46
234	38
546	58
19	7
804	60
576	54
468	44
618	52
1588	64
768	52
40	24
272	32
374	34
418	30
372	40
498	38
1342	74
246	46
66	26
1658	68
8290	170
458	46
108	36
70	22
768	64
552	48
660	52
30	14
94	26
160	44
128	36
90	22
812	52
402	54
486	42
518	62
28	20
300	36
122	38
540	60
72	20
778	78
968	72
2976	116
908	76
34	26
82	26
524	44
596	56
104	32
64	16
192	42
348	52
130	38
570	50
294	38
170	34
144	36
716	68
952	72
236	28
966	82
630	46
408	48
708	52
340	40
910	62
19	7
368	44
558	58
100	32
478	54
342	44
1196	68
294	34
216	32
1324	88
676	52
1176	68
208	24
290	34
170	46
308	40
204	28
88	32
378	34
252	24
244	44
778	48
322	50
710	70
166	28
19	7
534	42
476	40
19	7
330	38
110	30
410	38
948	84
144	32
826	70
544	48
640	64
552	48
352	32
86	30
368	52
242	38
72	24
424	32
392	40
76	34
116	32
712	40
342	54
1438	88
1612	80
422	50
286	46
2270	102
672	44
134	30
494	42
394	54
168	32
274	42
902	58
118	26
84	24
1670	70
116	32
438	46
228	38
178	36
282	30
766	50
1710	80
350	38
300	32
434	30
944	56
42	34
76	24
430	24
390	56
384	40
266	46
190	38
958	66
60	20
412	52
586	54
2734	88
418	42
50	18
458	38
158	38
414	34
92	28
114	28
226	34
62	30
72	32
1332	76
394	34
174	36
60	28
122	34
150	30
424	44
1128	88
334	50
492	64
756	76
498	32
1222	74
194	34
1408	74
164	34
1578	70
1134	62
246	26
162	26
582	46
298	34
1030	86
498	36
76	28
414	40
482	62
330	46
204	40
220	28
82	18
938	66
98	34
916	58
206	34
550	42
110	30
38	26
262	22
826	60
230	22
62	22
192	28
3352	112
172	46
548	36
152	32
900	54
728	48
694	62
580	56
1134	62
212	38
980	76
190	34
1972	112
94	26
234	38
1084	82
460	66
340	48
144	28
242	34
2008	108
446	58
4938	148
1700	80
972	60
614	58
308	44
340	42
86	34
60	24
316	32
244	32
942	58
274	34
200	28
2236	88
592	52
206	30
562	58
134	26
1422	62
226	26
284	48
344	32
56	32
128	44
2238	96
852	60
228	36
200	36
3022	110
258	30
140	36
100	32
1280	72
372	40
376	52
550	38
440	38
348	40
130	42
828	84
712	54
1044	64
514	46
128	32
24	24
54	14
534	54
668	52
90	30
278	30
314	30
1170	80
704	64
1218	64
84	28
192	24
19	7
178	38
100	22
304	46
720	52
190	34
358	46
786	68
270	34
78	22
376	36
218	42
356	36
386	54
210	30
19	7
942	66
226	22
330	42
164	36
938	58
218	42
240	32
19	7
232	40
414	42
260	28
314	42
52	28
212	36
676	60
80	28
712	60
708	56
772	60
212	32
2470	102
266	42
602	70
438	50
94	26
154	30
388	44
232	48
138	26
334	42
132	28
48	16
78	22
408	52
1842	78
436	46
254	46
822	58
240	24
1414	74
642	60
640	60
26	26
1652	80
828	64
964	64
390	46
348	32
256	36
500	50
402	34
110	26
372	36
322	38
850	70
656	52
122	26
338	30
508	52
992	72
152	36
2100	80
3202	104
150	30
1016	60
658	46
264	28
196	28
686	62
474	34
558	38
128	40
226	38
168	32
54	22
822	70
96	48
290	38
276	32
2012	86
64	28
94	30
432	40
228	28
336	42
322	64
442	42
502	42
240	36
348	36
132	28
900	44
994	56
110	38
36	28
506	44
410	30
886	62
1322	72
672	44
316	32
806	54
456	44
462	34
154	42
214	34
274	40
196	30
532	52
2524	108
2182	82
272	36
148	36
988	52
182	34
424	44
610	66
384	30
204	44
40	24
380	44
134	34
388	44
674	44
744	64
260	44
206	34
36	28
1676	96
286	34
192	40
588	44
198	26
70	26
78	26
184	52
688	60
612	56
298	42
432	52
274	46
138	30
164	44
140	28
192	36
940	72
202	38
1458	72
184	36
458	48
520	54
262	42
100	32
346	30
184	46
410	46
1590	80
240	32
890	64
470	46
506	58
546	62
94	22
392	52
266	38
508	48
436	32
136	36
1058	82
616	44
490	34
608	54
286	46
472	32
806	52
74	26
314	46
930	66
88	24
384	36
1174	62
492	44
1046	62
288	36
860	72
492	44
1010	58
328	40
360	36
116	36
584	44
524	34
302	62
496	40
232	48
458	46
542	42
1980	100
32	32
688	56
574	62
322	26
388	40
454	70
56	28
54	26
370	30
552	44
194	34
526	54
84	28
780	64
654	70
600	40
474	50
86	22
174	38
24	24
198	34
728	56
480	48
400	40
538	38
390	46
344	44
302	50
74	22
574	50
756	64
1094	78
1186	78
1232	76
612	40
276	40
28	20
224	24
246	38
30	18
320	36
528	68
1224	78
72	28
334	54
524	60
566	38
36	20
642	42
210	34
3608	130
412	40
72	32
646	54
626	50
880	68
136	36
208	32
566	46
92	36
88	32
2280	106
334	32
646	42
320	36
38	14
314	50
1128	56
304	36
58	26
316	28
186	30
156	40
554	66
94	46
348	24
818	74
134	38
190	26
120	40
178	30
860	64
478	44
266	38
460	36
252	36
204	32
444	42
610	50
378	46
658	48
110	34
70	22
234	34
1102	62
232	40
368	40
122	42
1116	48
486	58
1292	56
604	56
46	30
168	48
402	50
1170	82
60	20
96	24
124	36
872	72
1526	72
722	68
170	42
36	28
888	68
1332	68
626	58
547	64
386	38
216	48
224	40
146	34
428	28
136	32
244	28
178	28
192	32
246	30
94	30
110	26
86	30
124	32
42	34
40	28
346	38
70	34
568	44
378	50
390	42
88	28
250	46
406	38
244	36
118	46
246	34
262	38
910	74
776	72
186	42
798	66
404	44
1322	82
28	24
978	58
158	34
206	36
576	52
216	40
462	50
94	30
524	54
274	34
508	44
326	34
1358	94
976	80
92	36
474	38
66	26
364	36
398	24
2996	120
1518	82
368	38
740	52
206	34
174	38
114	34
22	22
1272	66
132	36
268	44
194	34
3382	118
210	38
714	62
806	58
54	30
386	48
378	34
310	42
196	36
446	38
808	64
66	22
538	52
294	46
3536	128
198	38
450	42
34	26
190	30
262	50
222	42
434	58
386	40
136	36
2722	102
520	52
652	66
852	74
346	38
484	52
808	46
1214	62
376	56
410	38
638	62
224	52
1908	72
74	26
82	30
546	40
466	38
19	7
868	54
1752	82
122	30
412	40
702	52
268	40
140	28
226	26
830	58
158	30
712	52
150	30
86	26
430	54
646	62
694	62
172	36
54	18
126	22
452	60
110	38
560	32
292	36
398	30
64	24
582	54
124	26
148	40
84	40
284	26
1612	80
110	34
286	58
78	26
152	32
520	32
984	76
1680	92
548	48
598	58
496	48
1240	88
166	34
292	44
1434	92
212	44
46	30
510	34
158	34
704	56
468	52
498	50
62	30
304	32
1506	58
560	44
424	44
578	50
420	48
356	36
9656	186
340	44
156	44
542	50
104	36
242	58
66	34
1032	60
400	48
148	36
548	40
752	50
596	44
328	60
304	28
632	44
2056	110
210	38
620	44
1012	70
270	34
284	36
216	36
842	62
400	44
550	62
120	40
782	46
526	40
846	64
86	34
244	40
160	44
19	7
1186	74
54	22
178	34
698	40
498	54
56	20
388	44
138	32
426	38
74	34
390	46
984	64
458	36
554	62
254	34
270	34
1012	76
146	38
1466	98
84	28
354	22
76	28
272	40
1062	68
666	48
858	58
152	34
354	38
116	44
698	62
922	70
130	34
92	20
854	70
270	34
50	18
1838	84
456	48
590	62
580	60
244	40
688	52
406	46
58	18
3366	120
252	30
192	20
194	38
80	24
970	54
520	38
19	7
1144	66
184	28
106	22
156	32
376	32
844	64
610	46
566	62
358	46
940	68
144	36
224	32
504	46
284	44
132	34
556	52
348	52
72	24
696	50
90	26
1004	60
532	60
204	36
940	48
1076	50
1078	78
336	36
814	74
616	56
574	50
314	42
192	32
194	34
538	34
126	46
46	14
102	30
104	40
738	50
816	56
84	24
84	24
590	54
1658	82
824	52
348	32
180	36
58	22
466	42
556	40
797	60
684	56
312	40
206	30
182	34
360	42
326	38
42	26
176	36
218	26
500	44
650	54
540	46
1346	74
3038	114
832	56
314	38
1116	58
676	60
498	46
112	44
176	40
382	38
678	78
648	64
1050	66
234	30
228	36
4804	142
726	56
594	46
1860	96
620	60
172	32
1320	68
340	56
802	70
438	40
54	26
542	38
696	56
312	32
38	14
188	28
678	58
832	60
260	32
3596	122
150	30
128	32
96	32
162	34
354	60
276	28
766	54
114	42
482	42
104	40
648	52
168	36
92	32
410	26
320	44
48	32
624	44
606	62
430	46
442	58
288	42
1200	92
66	34
294	30
298	58
34	22
326	42
96	36
792	52
64	40
726	58
340	40
538	58
176	28
1020	70
300	32
450	42
1550	62
600	60
3588	106
438	54
428	38
250	50
350	34
982	60
288	36
64	24
346	34
120	32
264	40
144	44
352	36
64	36
142	34
246	50
68	24
120	36
354	42
2074	118
142	34
304	44
160	32
112	24
202	38
2496	108
1362	80
886	50
748	40
282	32
324	36
382	30
1008	60
594	44
50	22
658	46
76	24
36	20
378	30
60	36
64	32
64	32
526	42
136	36
56	28
876	70
174	32
246	30
758	54
508	56
58	26
70	26
262	50
1362	66
116	36
762	46
276	40
280	40
1096	68
300	36
112	28
506	48
160	28
92	32
682	42
730	66
350	50
1056	60
110	36
1054	54
392	58
642	34
196	24
292	38
316	48
78	26
602	34
270	46
410	42
368	40
1004	68
1274	70
162	34
304	46
176	32
1368	82
340	32
1304	52
54	30
708	52
452	48
2476	92
308	36
244	36
290	26
216	32
778	42
314	42
522	44
478	58
276	32
114	30
588	56
338	26
372	44
434	34
1104	64
102	34
418	54
2092	88
196	40
1218	62
524	46
442	46
342	38
122	24
636	56
644	68
718	54
82	26
4186	142
19	7
1058	82
338	58
168	32
50	26
220	36
632	56
272	32
594	56
146	34
118	26
194	30
242	26
264	40
288	52
754	62
86	26
560	52
678	62
544	44
1300	80
290	22
238	38
784	58
596	52
152	28
92	20
396	46
572	56
98	30
136	26
300	48
948	64
292	44
19	7
80	22
286	30
830	50
208	36
346	40
58	26
988	60
1778	102
1880	92
82	34
162	30
168	32
654	54
1564	84
19	7
538	42
450	46
170	38
422	38
2118	102
550	38
128	32
336	52
1120	84
112	28
216	40
254	34
564	44
1072	66
766	66
26	26
550	50
628	68
282	42
450	34
92	24
560	40
362	52
70	26
240	28
624	40
50	18
536	44
548	60
296	32
90	42
246	46
306	38
76	28
206	34
618	46
150	32
1086	64
452	52
598	70
258	30
144	28
1098	90
140	32
706	66
544	44
4456	122
790	68
174	26
7382	148
1068	68
270	38
398	58
1156	68
52	24
302	42
186	30
560	52
474	54
92	28
614	42
440	44
210	38
344	52
306	38
272	32
180	38
754	46
230	40
230	30
266	42
606	42
704	62
358	42
82	34
166	34
64	20
720	60
492	40
266	38
534	44
916	64
416	52
618	38
1730	112
492	48
364	46
266	30
590	46
544	36
648	56
200	36
830	64
526	38
204	36
408	32
46	38
648	48
244	36
36	20
294	42
346	46
44	16
1208	66
394	66
712	56
2714	126
158	26
640	44
170	42
754	54
1074	64
1268	70
596	56
292	46
202	50
958	56
70	22
172	40
1100	80
548	48
352	32
260	48
298	28
104	32
742	46
848	56
454	42
860	48
980	60
1620	76
302	42
196	16
360	32
228	52
312	32
536	44
70	30
488	26
1300	86
628	36
1736	78
732	60
488	44
238	26
798	56
88	28
348	32
576	58
434	36
284	40
80	32
416	48
82	30
1366	74
96	28
340	36
430	66
3490	130
122	24
254	38
242	30
276	40
232	40
230	30
298	30
106	34
538	54
994	54
1108	64
42	18
344	24
274	38
326	50
748	50
790	38
424	52
192	36
174	38
716	52
334	38
192	28
410	42
314	30
19	7
256	32
1054	62
504	40
540	44
552	40
2750	94
856	60
260	48
672	52
854	50
22	14
376	56
598	42
682	46
432	48
734	56
164	40
664	40
824	56
214	40
386	46
358	40
144	36
52	20
134	34
962	68
486	52
816	76
3708	120
392	48
240	40
1114	68
336	44
98	18
454	38
744	50
736	52
2250	100
160	40
446	46
442	54
514	46
132	32
246	30
396	52
174	46
434	62
2178	90
58	30
602	30
30	30
294	32
586	38
688	36
342	46
260	40
2194	98
990	74
1550	74
744	68
170	26
1168	78
440	48
746	50
88	28
44	24
788	66
388	32
362	42
732	48
346	22
746	54
1994	94
498	54
506	48
322	42
64	32
44	12
118	30
382	24
1078	62
1700	88
326	30
76	24
360	36
110	38
1118	82
284	40
244	48
836	64
320	40
510	36
146	38
190	34
464	52
154	28
324	48
72	20
382	44
920	42
760	60
372	32
26	26
614	58
236	32
164	32
780	58
400	44
334	50
140	32
94	22
908	76
442	40
488	52
488	50
506	42
736	56
76	36
136	32
386	26
654	26
484	40
32	24
412	48
170	38
518	54
62	30
562	60
60	36
222	42
92	26
76	28
192	36
164	32
72	32
648	36
238	46
84	24
724	56
122	34
1020	60
594	64
206	34
390	54
412	48
250	36
134	30
662	66
298	38
612	60
38	30
1204	84
688	66
800	64
382	50
166	22
628	52
848	60
536	44
88	28
104	28
932	64
442	34
1266	78
328	36
78	22
540	52
170	38
158	34
106	24
46	30
86	22
1186	82
104	30
124	44
222	46
610	38
1510	104
76	28
682	54
496	44
276	28
1408	84
3176	102
1122	76
772	58
328	28
1228	76
308	36
226	46
110	30
408	42
70	22
148	32
756	52
216	40
316	32
1080	56
198	30
1448	76
1090	68
102	30
346	30
294	34
412	44
858	66
84	22
570	50
296	28
398	22
374	34
86	22
126	30
822	58
88	26
78	22
296	32
560	52
254	50
19	7
828	80
140	32
92	28
589	62
604	36
920	76
2174	98
370	38
2156	112
228	36
776	60
286	38
822	58
916	64
62	18
118	38
1144	64
94	26
408	44
650	42
320	32
498	52
174	42
672	54
668	60
68	32
234	30
696	56
356	48
482	46
364	40
1580	108
96	24
614	66
542	44
438	50
926	62
890	54
224	32
988	68
460	36
378	42
248	36
240	44
390	46
218	42
66	22
108	36
404	50
282	34
426	34
230	42
880	72
536	44
224	36
844	68
160	32
1590	86
268	28
250	38
390	46
276	28
730	42
302	46
352	48
308	56
830	54
502	44
404	36
200	32
1132	72
652	48
54	18
240	24
342	38
748	62
190	38
638	58
442	34
290	30
408	40
448	48
1682	78
414	46
54	30
610	66
1948	96
634	46
176	44
30	30
278	34
678	50
434	52
464	46
488	52
606	42
2382	90
398	42
206	30
366	42
506	42
1046	54
170	38
346	34
92	28
1086	56
242	38
1824	82
308	36
22	22
478	50
254	30
534	46
1496	62
700	56
402	42
444	40
242	46
418	38
218	30
50	18
442	50
1136	70
212	36
724	56
536	36
2630	98
166	26
322	38
362	34
160	28
568	40
998	54
574	52
112	32
376	34
186	34
812	70
178	14
200	44
336	48
660	44
64	20
98	30
1300	60
110	20
258	30
78	30
422	46
204	40
810	44
92	20
286	62
410	44
1164	64
94	34
224	44
414	62
154	26
588	58
86	26
100	28
502	50
208	24
302	36
422	36
48	30
720	62
2176	108
872	76
112	28
120	32
638	62
710	44
72	24
292	48
166	30
2576	96
112	40
126	34
762	48
490	62
46	22
790	62
162	30
240	36
668	60
952	70
450	42
694	50
938	58
876	60
866	62
486	58
392	28
520	48
288	40
1826	88
958	74
454	28
166	30
92	20
92	20
718	38
108	28
684	52
70	18
1030	64
1016	70
926	48
880	76
710	54
258	42
604	52
190	34
210	34
656	48
578	38
114	42
160	32
870	54
908	60
86	18
38	22
522	50
256	40
286	38
576	56
236	32
370	34
248	32
410	38
338	34
246	50
290	42
70	22
146	34
620	46
1066	80
108	24
176	36
742	50
79	15
112	32
344	40
46	34
2266	108
76	36
390	30
246	30
144	32
112	32
524	52
208	48
352	48
378	46
346	50
232	40
120	32
38	30
432	52
2724	110
326	42
1246	58
488	40
196	40
580	44
68	24
284	48
126	26
406	46
678	78
644	44
78	40
64	32
388	38
898	58
76	28
54	14
340	36
1036	60
98	34
118	22
1240	88
168	28
190	30
990	58
922	62
1100	60
772	80
148	42
2912	112
436	42
248	36
152	28
464	46
286	42
294	36
48	16
306	46
422	46
832	68
286	48
376	48
58	24
608	44
278	36
2448	96
34	26
1884	84
452	36
398	38
446	58
728	48
1288	72
900	48
24	24
550	46
24	24
690	66
3052	96
304	36
182	34
74	26
262	42
610	60
750	50
34	26
164	36
98	34
438	46
782	42
90	26
52	28
42	14
496	52
388	40
320	40
728	46
250	42
128	28
228	28
496	48
1098	74
660	48
56	24
1532	76
736	60
130	36
112	24
222	26
376	36
328	42
632	58
302	36
510	46
378	42
276	30
376	36
1072	70
3846	106
46	30
670	72
1012	48
404	40
338	36
436	48
490	58
256	26
168	32
518	46
768	52
414	42
1700	86
156	36
66	22
150	30
624	60
306	34
382	34
470	46
332	52
426	54
7204	190
314	36
654	76
286	42
64	24
426	60
800	40
340	36
478	54
1014	86
120	32
356	64
50	38
652	48
418	66
870	62
1558	80
434	46
154	40
1134	58
1104	80
1038	54
134	34
176	36
208	28
366	50
130	34
2544	112
302	30
504	56
126	34
132	36
1054	66
604	52
256	40
60	16
719	56
1032	106
612	40
80	24
194	38
404	32
382	46
418	36
116	28
710	52
262	38
832	40
338	40
1706	68
786	62
270	38
284	36
266	30
428	76
2820	96
488	40
70	34
390	38
1220	64
752	48
242	38
474	38
176	44
572	56
504	40
46	30
1500	92
2476	104
420	36
168	28
760	58
468	56
144	28
292	32
390	46
102	38
360	32
522	44
416	32
1048	60
636	52
1296	78
634	66
364	56
164	32
436	48
304	44
744	48
1310	80
232	40
226	26
82	34
698	50
402	44
962	46
546	54
88	26
562	46
292	32
88	32
420	46
326	42
2308	96
1008	60
258	38
248	40
314	44
1644	92
318	30
220	32
238	44
184	32
1220	76
666	42
276	44
298	50
174	34
464	52
642	44
294	42
94	22
694	50
422	50
452	52
54	22
176	28
1446	72
220	26
72	28
262	30
544	54
478	42
352	32
506	54
354	44
1040	72
1274	66
448	44
1148	92
252	44
122	28
1926	96
1038	64
316	42
4276	108
696	56
736	56
530	50
126	38
136	28
508	60
204	40
270	46
74	34
1350	70
808	58
52	24
108	28
356	44
236	36
520	60
3848	116
276	40
534	44
2184	112
284	48
434	58
796	60
344	50
162	30
234	38
1018	58
70	18
224	44
584	40
268	26
374	54
494	52
1546	78
104	32
202	38
376	38
454	42
220	28
644	48
276	40
66	26
88	24
812	64
690	60
80	24
578	50
456	56
1140	74
396	56
1254	70
1336	72
150	26
326	54
140	32
52	28
638	62
250	34
126	30
732	56
474	42
474	54
92	28
19	7
176	40
472	48
436	36
3042	92
248	40
198	38
364	48
120	28
1070	58
568	44
830	60
436	52
160	32
216	32
402	54
1156	52
178	22
194	22
784	60
258	26
544	44
930	70
974	78
130	24
174	26
202	22
666	60
440	50
180	24
630	60
182	38
66	18
64	24
1386	78
3112	108
532	40
442	34
432	36
2232	94
138	26
42	26
192	48
184	40
346	50
668	60
942	64
414	34
214	34
308	44
984	60
212	44
848	60
266	34
690	58
46	14
796	56
46	18
648	60
240	28
160	40
218	34
54	22
228	36
134	22
82	18
458	38
304	48
90	38
1362	78
232	32
278	46
504	40
50	18
422	42
530	48
456	40
46	30
74	22
80	28
60	32
272	34
54	18
118	34
176	36
674	44
326	46
66	22
818	50
1140	72
264	28
174	38
630	76
150	30
558	44
430	46
330	38
80	18
166	32
2000	100
408	38
548	52
972	64
478	50
968	66
676	44
126	38
350	46
396	52
74	22
184	32
60	24
300	32
1196	76
148	32
226	42
934	66
756	62
812	64
292	30
2522	94
42	30
154	34
86	26
36	12
452	44
822	66
880	72
586	42
216	44
332	28
2290	96
524	60
502	42
1058	50
430	30
132	40
32	24
422	56
228	40
454	50
48	32
302	38
488	46
70	22
36	24
1254	58
628	44
1814	88
492	52
216	36
206	42
472	60
926	54
370	42
156	24
120	32
168	26
760	60
326	34
906	62
2000	82
236	36
330	40
252	44
194	34
274	46
48	24
678	58
356	52
1248	72
310	38
62	22
666	58
654	44
66	26
98	38
82	26
506	30
250	34
580	52
290	38
1368	74
668	46
300	36
82	22
332	36
848	62
338	32
468	40
128	32
128	32
170	34
106	26
594	48
214	42
234	40
770	78
138	30
102	30
512	42
344	40
634	58
552	56
458	58
262	38
160	32
170	34
428	50
548	50
474	54
2150	82
316	40
294	38
406	36
100	24
262	38
736	56
76	28
476	40
490	38
468	40
44	28
616	60
106	30
1570	74
122	30
282	40
704	54
196	40
1266	82
612	54
840	52
76	24
1242	74
200	40
316	36
466	42
28	28
480	46
514	42
482	42
104	24
310	34
294	38
292	44
600	48
94	26
292	48
244	32
376	32
472	56
500	54
874	62
104	32
584	42
94	22
570	42
118	30
1176	56
238	34
296	40
542	56
34	22
128	36
1106	62
558	42
188	28
596	48
54	18
1416	60
172	36
770	50
520	32
264	32
216	24
204	36
290	42
714	50
92	24
1058	66
404	48
828	56
114	26
262	52
36	28
294	42
154	34
96	28
320	36
568	32
730	60
116	28
906	74
232	24
420	64
878	64
274	26
1042	60
356	44
94	30
184	36
346	54
522	50
288	38
356	32
454	38
192	48
34	14
204	24
94	26
118	26
652	48
86	26
220	44
276	32
632	48
330	54
418	46
76	28
132	28
950	82
252	48
382	40
58	30
446	58
410	58
610	66
1428	80
770	42
340	40
50	18
202	42
136	28
394	42
408	40
383	36
2668	92
812	58
278	38
1128	84
660	72
320	36
484	40
296	44
1256	60
480	36
634	54
1514	74
46	30
266	42
246	46
820	52
446	46
540	52
66	34
62	18
68	28
724	40
884	56
774	66
358	42
314	30
92	24
286	46
602	44
512	42
214	46
716	36
226	26
1010	74
594	44
154	22
378	42
912	60
246	42
522	46
212	42
340	32
870	48
296	36
48	24
460	44
1890	78
132	32
188	34
936	72
340	44
488	48
326	30
1008	64
76	28
276	32
208	38
242	34
1062	84
222	26
688	68
108	36
440	32
518	62
460	38
428	32
1384	82
2592	92
116	24
156	36
1180	80
526	42
354	42
404	40
688	52
878	70
426	46
412	52
228	32
1388	72
342	44
310	30
198	30
340	52
452	36
240	36
254	42
224	48
260	44
128	40
104	24
272	28
1096	76
798	46
350	50
616	48
138	22
178	14
214	38
478	44
284	40
1234	82
204	40
518	46
486	46
276	40
628	60
354	46
1398	74
804	52
2924	96
272	32
232	28
476	50
462	62
58	26
342	38
130	26
412	32
76	36
128	32
370	38
284	38
104	24
486	58
154	42
1414	70
42	14
284	36
154	46
220	32
68	36
286	50
86	18
84	36
294	46
224	32
168	36
122	18
630	54
96	28
174	46
1678	102
184	32
1316	84
1146	80
422	44
602	52
548	58
268	28
784	70
318	42
210	30
396	44
556	48
1074	66
248	40
268	40
210	50
158	36
266	42
726	46
192	36
384	34
688	56
74	30
180	36
1122	82
791	62
140	36
190	34
862	72
90	22
724	56
108	32
396	36
144	26
780	56
396	52
118	34
106	26
812	50
104	32
104	56
106	30
436	34
654	38
312	40
656	48
592	48
336	30
1422	82
1372	84
544	52
404	36
290	42
600	48
242	42
344	40
158	34
200	48
326	54
392	40
92	32
134	40
272	40
592	58
86	30
506	38
190	42
646	60
236	30
386	46
174	34
1108	56
3312	122
224	32
1454	66
278	28
184	34
96	24
478	42
368	56
124	32
204	24
88	32
530	78
92	24
120	24
886	60
1084	48
486	34
168	36
218	38
396	32
178	38
630	58
1460	76
88	16
904	84
1156	88
668	56
276	32
376	44
912	64
874	62
206	38
430	42
354	44
664	64
842	58
242	30
650	52
602	34
98	38
298	32
576	48
398	62
752	56
352	48
266	46
590	50
134	30
630	50
224	32
198	26
160	40
190	38
510	42
521	50
746	50
266	46
918	50
1128	76
90	30
812	44
116	32
762	46
232	36
726	50
388	36
772	68
128	32
382	42
258	38
524	44
114	26
100	36
164	32
668	44
252	32
322	38
810	70
312	40
48	28
1384	68
536	50
476	40
1164	68
118	38
286	38
94	26
436	64
408	32
780	68
766	50
676	40
522	38
2558	110
554	54
94	30
130	26
216	40
234	34
150	22
19	7
230	42
120	20
200	32
250	42
94	34
300	40
112	36
244	40
44	28
354	50
242	34
428	32
196	28
448	36
238	42
1602	98
346	34
926	68
2148	92
780	58
228	30
348	32
622	48
150	34
148	32
112	24
298	34
158	26
130	30
654	40
710	68
118	24
760	52
560	68
342	38
422	50
266	42
274	44
172	28
26	26
456	52
1060	70
258	38
560	32
268	40
344	38
982	50
778	56
150	38
360	48
1008	50
736	44
190	38
164	34
19	7
150	26
726	50
426	46
160	40
176	36
812	72
314	40
90	30
268	44
288	36
68	28
360	44
282	34
244	32
1340	80
480	46
444	54
432	40
134	34
280	44
318	38
200	32
214	42
596	60
490	56
408	36
394	34
134	22
1676	68
172	44
370	46
452	48
56	24
446	50
1326	58
212	24
1054	58
148	28
112	46
1030	82
494	46
132	36
492	56
308	48
960	72
678	66
544	36
192	24
320	44
286	38
458	44
94	30
158	30
1218	76
280	40
86	26
500	52
648	60
404	48
460	48
272	28
252	28
228	36
662	62
160	28
394	46
810	50
214	38
352	52
202	26
1714	80
1300	76
302	42
540	50
782	62
204	40
1078	72
544	62
382	46
230	38
1486	80
80	24
138	34
36	28
42	18
224	28
1074	78
256	40
848	72
652	40
708	56
72	24
466	54
178	46
214	26
540	36
70	14
152	28
92	28
562	42
1248	96
442	50
54	30
38	22
556	52
350	34
658	58
660	64
1088	68
600	48
38	38
360	36
558	50
104	24
1446	84
74	30
104	40
326	38
68	28
1134	72
932	56
608	48
146	30
1158	78
386	30
130	38
386	46
1892	104
556	36
266	26
244	40
264	42
66	30
644	52
1654	74
228	28
80	28
586	44
404	46
108	34
76	32
372	48
142	34
60	24
716	40
222	38
84	28
390	30
294	38
622	38
566	42
30	14
720	52
146	30
94	26
974	68
54	22
452	24
1056	58
62	26
470	34
308	28
320	32
262	32
898	50
538	66
1318	94
414	50
274	36
214	42
1038	74
1342	82
124	44
286	38
150	30
136	32
60	20
114	30
684	80
194	34
404	32
172	28
1688	80
128	40
856	52
60	24
1154	90
392	44
780	56
232	40
314	38
524	44
36	36
156	36
174	34
324	32
2436	108
474	42
772	52
124	28
614	48
334	34
228	36
452	52
338	34
350	34
272	40
166	34
1120	52
706	34
246	38
604	48
670	58
204	36
140	44
148	36
258	50
118	26
1206	74
326	46
538	50
522	34
266	50
240	44
802	58
100	24
400	44
1538	80
638	54
178	30
450	30
200	32
334	50
418	30
84	26
204	36
124	28
292	44
212	20
554	40
1798	114
46	22
384	56
152	36
486	50
1086	78
472	44
296	28
186	34
26	22
332	36
354	34
248	32
388	40
978	70
70	34
116	32
654	58
836	78
508	48
470	46
104	28
558	42
300	32
734	42
1058	74
478	38
156	52
128	32
1216	56
444	44
146	38
94	36
324	24
832	62
214	22
330	46
274	28
100	28
110	30
288	36
866	52
438	48
482	58
64	40
1112	60
598	48
186	30
1270	88
22	22
374	46
68	28
406	42
214	38
770	66
3094	130
446	48
282	34
172	28
1546	114
90	18
834	60
434	42
306	38
152	32
258	38
666	66
19	7
192	32
512	52
72	24
470	46
264	32
24	24
696	60
514	46
212	44
162	34
824	72
172	28
1156	76
534	58
462	36
208	36
54	26
64	32
1008	64
1228	68
294	38
310	42
362	52
146	30
86	22
106	30
94	30
820	56
586	58
860	56
624	52
602	46
280	36
250	42
86	26
162	38
518	46
116	32
94	22
96	24
352	48
98	30
352	44
172	52
472	48
3492	134
116	32
374	34
382	46
884	52
644	40
456	64
588	44
704	68
76	24
768	76
382	38
750	46
716	56
852	60
328	44
170	34
1656	100
160	28
1188	80
374	38
96	24
1230	62
416	44
384	24
630	58
118	30
926	66
882	50
652	52
532	48
68	20
88	32
94	26
84	24
344	48
84	16
100	28
550	62
694	34
2526	102
754	50
496	44
420	44
654	42
594	46
264	32
344	36
52	24
982	66
230	26
572	40
48	28
316	38
54	18
650	46
1324	66
42	14
934	66
340	46
488	48
1262	78
960	48
496	28
100	28
42	14
300	32
568	36
136	36
1304	64
382	22
70	26
182	30
164	36
884	70
332	36
228	40
388	42
274	42
536	52
480	68
154	26
352	48
388	48
178	36
42	14
604	48
156	30
92	24
548	48
54	26
252	32
110	30
766	46
158	34
124	32
166	34
372	32
572	48
934	66
618	50
3358	102
1034	64
364	32
956	62
1090	60
19	7
152	38
82	26
216	36
540	60
194	42
464	36
250	34
100	20
312	52
1096	56
116	32
1202	70
76	28
516	48
454	56
296	40
1132	72
160	40
228	44
168	36
96	28
112	32
1194	76
428	28
118	34
378	44
248	24
1658	72
422	42
96	32
362	54
374	42
42	18
240	36
802	56
264	32
924	80
184	32
202	42
986	58
250	38
134	28
90	30
426	42
570	58
2386	94
244	40
310	42
416	40
704	52
300	44
506	54
64	32
164	32
654	50
94	18
1144	68
452	36
152	36
64	28
328	56
226	40
74	30
248	40
382	34
450	50
120	28
568	52
1028	96
440	32
352	32
34	18
516	32
440	36
124	40
120	30
686	48
46	18
550	58
146	38
284	40
422	30
1238	76
354	50
58	18
430	46
656	48
166	38
192	28
94	34
160	24
584	46
1820	68
200	44
1646	76
482	50
1028	64
148	26
498	28
190	38
534	38
284	48
516	42
108	32
166	30
204	32
692	42
120	32
168	34
278	38
984	56
406	62
2796	106
198	46
500	40
1168	76
280	40
282	42
150	38
690	46
292	36
260	28
302	54
336	48
102	30
210	38
702	66
796	44
134	30
262	32
148	32
44	32
2342	90
832	64
84	32
30	22
460	28
8669	180
1046	56
306	46
194	32
86	26
122	26
806	56
362	34
226	30
546	46
226	38
1288	76
728	50
322	46
764	66
202	30
862	66
98	22
3952	110
600	52
398	40
464	44
102	26
308	56
286	38
238	54
414	50
336	36
280	34
286	30
1046	78
550	72
220	38
996	52
824	54
216	28
188	24
166	34
622	38
162	50
318	30
1812	80
182	42
798	54
226	38
102	30
194	34
648	44
2048	84
132	36
450	42
316	48
132	32
318	30
456	60
1104	92
728	40
196	24
160	36
744	62
70	26
1162	90
398	30
886	54
100	36
366	42
178	30
360	60
264	32
408	48
426	38
292	48
190	34
564	56
376	48
70	30
918	50
482	38
466	54
988	64
110	34
84	24
2722	114
486	46
422	50
404	44
646	46
128	40
1274	60
128	56
690	38
176	28
406	34
124	24
550	42
610	50
98	18
86	26
236	24
858	50
308	24
260	28
178	38
2032	78
426	46
19956	246
624	52
166	30
592	64
296	36
382	46
228	32
518	50
158	34
290	50
1126	66
134	32
590	58
146	30
328	46
172	36
298	42
100	24
376	32
178	42
348	48
166	34
78	34
216	36
1216	72
320	40
278	26
238	36
244	48
198	28
134	34
148	36
462	44
816	54
100	28
906	62
1004	76
248	32
250	34
82	34
52	24
2900	100
88	36
1018	66
462	54
436	64
248	44
628	44
104	32
434	46
280	40
106	30
114	34
408	44
164	48
32	24
198	14
384	32
106	30
92	44
84	28
726	54
148	24
620	50
428	40
150	42
174	26
56	24
638	62
2206	92
1714	90
106	46
360	40
184	40
148	36
916	56
494	58
362	30
880	64
356	36
760	56
170	46
544	48
152	36
194	38
1130	70
140	36
1504	80
408	50
66	34
854	54
500	44
214	46
528	66
778	54
308	44
696	70
88	28
772	68
514	42
156	40
344	44
1330	70
214	22
876	60
752	48
836	52
316	40
558	46
778	54
116	28
374	42
396	40
742	54
82	22
396	48
400	40
642	38
184	30
160	32
790	46
574	62
800	48
216	24
70	30
440	48
346	62
1046	66
2322	88
180	40
2128	92
232	32
194	34
1090	52
312	56
704	36
134	34
1548	72
1052	100
550	38
966	52
278	42
480	48
232	48
578	58
940	46
700	52
192	40
300	36
36	28
1868	94
1884	100
94	38
694	58
428	60
100	36
146	26
1938	84
1738	74
394	30
1108	64
164	24
242	22
864	50
108	24
476	60
664	60
74	22
650	50
1812	98
76	28
876	56
202	22
88	28
268	36
436	28
410	46
220	34
300	36
440	42
178	56
810	66
102	34
218	38
366	46
208	32
190	34
158	34
358	46
500	68
1128	60
822	68
132	32
258	34
694	66
60	28
364	36
58	22
72	28
174	38
138	26
914	52
386	58
302	34
100	36
1448	76
292	36
364	40
298	34
164	40
402	26
230	38
428	36
218	26
120	40
496	40
472	40
312	40
138	34
392	24
74	20
268	44
320	36
554	46
482	46
1608	80
1900	86
738	58
200	36
262	50
858	62
178	34
96	32
174	34
722	62
372	40
138	50
224	36
1694	76
1272	68
168	20
698	42
294	34
420	52
496	28
366	38
1022	58
78	30
448	44
132	28
388	44
1128	58
236	32
366	38
374	34
248	42
1330	70
640	52
1152	68
1188	78
680	44
294	38
544	60
140	44
1858	96
926	70
126	38
2220	96
650	58
296	44
196	32
286	46
2390	82
384	40
38	22
490	50
174	46
640	60
704	68
1154	58
704	52
644	68
692	62
72	24
710	64
124	32
38	14
1394	78
1028	80
430	48
284	32
306	62
252	44
304	40
474	34
270	50
284	42
1492	88
32	24
338	34
282	38
480	48
846	58
328	36
114	34
374	50
60	24
40	24
144	28
254	34
136	32
122	30
320	36
102	22
19	7
158	50
540	52
388	40
274	42
1816	104
192	40
1104	64
1058	46
26	26
548	52
540	32
168	36
274	30
800	52
318	42
436	56
1388	88
72	44
278	34
1274	58
132	32
200	24
614	56
432	48
160	32
80	28
30	30
572	54
248	28
364	56
178	42
320	44
358	46
374	54
526	58
1207	64
498	54
556	48
622	52
52	24
220	24
542	42
530	38
772	40
460	36
1138	78
56	32
548	28
334	34
630	42
530	38
150	26
162	38
48	28
94	22
402	42
392	32
724	54
248	40
1262	90
508	72
196	40
898	66
322	34
392	58
170	38
398	38
1010	62
134	26
102	30
776	46
650	58
242	26
1454	62
478	46
262	34
106	22
1246	66
452	28
168	40
2278	86
92	20
128	32
936	56
350	42
922	74
654	64
66	26
146	26
330	48
280	40
344	48
94	26
284	40
606	50
108	36
208	44
696	68
506	46
494	44
416	40
292	32
860	64
1030	62
368	44
72	32
222	34
188	44
594	52
352	48
1146	54
602	58
386	48
474	36
314	38
172	36
418	46
302	56
600	44
256	36
568	58
316	48
28	28
350	38
772	68
346	22
862	70
256	38
1236	92
468	56
94	26
624	60
122	34
276	52
58	22
70	30
1384	92
104	34
430	48
34	22
186	34
528	60
1074	72
272	28
1804	78
390	42
1322	68
374	50
728	32
64	24
204	32
54	34
64	16
76	28
1784	78
436	60
1032	52
328	30
1504	64
330	46
616	44
478	42
490	42
66	26
68	28
202	22
2268	90
224	36
458	42
264	40
1222	62
1720	88
762	44
976	60
60	16
394	34
360	28
42	18
496	50
164	36
258	34
132	48
400	44
644	44
600	54
216	28
568	48
282	46
120	32
84	20
600	52
300	40
132	24
90	26
618	46
154	38
104	28
1084	76
368	56
858	66
26	26
554	54
60	36
522	38
30	22
160	36
332	52
100	24
1082	78
764	68
306	38
1082	74
1146	68
1008	80
142	34
402	42
19	7
272	48
146	38
174	42
852	60
116	32
808	64
760	50
134	26
128	48
216	36
246	38
130	34
308	40
548	40
586	34
464	40
854	54
264	36
1300	70
456	38
66	22
790	54
3046	126
178	14
254	22
912	76
950	70
470	38
1096	74
774	52
554	54
254	26
116	36
316	36
242	38
414	30
64	24
198	30
1142	62
484	44
222	42
1777	76
19	7
94	22
74	26
32	24
202	26
118	38
228	44
1348	76
1058	64
1274	68
392	36
92	28
58	26
66	22
414	46
376	40
104	42
326	50
1080	64
134	26
40	32
608	52
140	36
356	46
196	32
318	34
622	52
418	50
258	42
658	50
188	32
140	32
432	48
36	20
130	34
2022	90
234	38
262	42
442	42
192	40
184	28
240	34
946	50
132	36
1022	62
514	34
600	58
846	68
374	34
518	54
50	26
306	44
232	38
192	24
272	28
336	40
208	32
830	62
50	32
338	42
494	58
154	30
878	62
2016	94
116	36
838	50
126	34
686	56
162	34
900	58
872	68
218	34
334	46
368	36
184	32
240	46
1016	66
118	30
334	36
1224	74
726	50
470	46
234	34
140	28
774	58
570	46
102	46
226	34
374	42
184	36
940	64
922	58
104	28
68	28
1112	68
158	26
1070	58
602	46
148	28
136	36
136	24
128	32
146	54
230	30
106	30
536	56
50	26
1000	56
54	22
782	54
832	58
176	40
758	58
444	56
492	52
896	66
688	60
928	64
852	60
164	36
260	28
280	44
996	76
186	42
584	56
1284	80
98	26
802	54
164	44
394	42
1590	70
748	52
612	48
90	26
214	26
1438	92
318	32
466	46
366	36
365	30
1266	62
374	22
254	36
572	44
794	54
530	50
424	30
436	34
802	54
1126	74
108	28
354	44
176	28
54	14
894	56
400	44
372	48
70	26
276	36
440	38
216	42
226	46
470	38
1110	84
76	36
1336	84
98	30
1482	80
366	46
106	32
480	36
496	36
200	44
232	36
202	46
60	28
130	28
350	30
366	36
1024	64
42	26
768	40
362	46
1322	72
488	44
216	40
96	32
204	36
200	30
172	24
622	46
102	32
330	38
66	22
676	40
430	42
1530	70
72	24
82	24
462	42
198	26
296	48
602	54
364	52
704	48
322	46
1096	72
400	50
80	32
496	40
218	50
206	34
96	20
1172	78
776	64
156	32
622	50
214	42
110	26
244	44
338	30
622	56
402	38
136	36
448	46
1091	68
170	36
732	54
92	20
614	50
216	44
44	16
762	74
68	28
136	32
152	40
492	44
608	52
200	36
1308	72
882	64
2776	102
810	54
974	90
204	28
164	36
596	40
36	28
136	40
62	30
110	34
2094	96
146	38
996	48
896	66
71	15
88	34
300	32
210	42
134	26
538	42
326	26
490	34
168	48
384	52
368	62
508	38
532	56
44	16
740	56
110	26
48	24
146	20
162	30
774	64
580	48
240	36
62	18
62	34
714	54
252	32
316	44
252	32
134	34
974	62
52	16
574	46
762	50
64	32
326	42
198	46
2096	80
178	30
776	52
942	74
804	56
542	54
60	24
680	52
162	36
172	34
1804	84
348	56
518	40
94	22
1618	78
446	50
378	46
334	38
804	52
336	64
7138	174
434	30
280	40
740	52
304	48
734	74
306	42
78	34
322	30
140	32
66	30
98	28
830	50
272	36
46	30
1044	76
806	70
1312	88
118	30
540	52
1168	76
224	44
196	28
238	34
264	40
594	58
942	74
422	42
432	48
322	42
454	30
466	54
214	36
418	52
446	38
400	44
820	60
96	32
210	34
158	30
140	28
58	26
826	70
916	72
226	30
638	50
592	60
376	28
334	38
94	22
1948	106
600	44
320	52
1064	48
66	26
526	26
412	44
616	48
566	38
340	24
518	44
1630	94
356	22
964	76
516	56
180	32
78	34
506	46
1270	86
138	34
42	14
486	58
1178	72
62	30
442	42
398	50
1428	78
80	32
238	34
280	32
582	62
210	42
150	30
22	22
284	28
744	60
292	32
148	32
440	54
44	16
232	28
252	32
352	34
982	54
346	50
50	26
192	42
164	28
806	76
46	38
3230	104
266	30
764	72
206	34
694	58
76	24
3692	122
80	28
236	32
84	28
544	48
1278	74
408	40
450	62
448	40
646	50
72	32
506	50
508	44
398	50
288	48
40	16
416	36
268	40
254	54
1174	74
558	38
60	16
698	50
186	26
516	38
100	24
420	40
172	36
52	28
96	26
1388	66
1020	64
52	16
628	40
406	34
206	46
266	30
92	28
160	32
58	30
596	36
282	38
976	60
386	34
74	26
562	54
362	50
356	48
102	38
150	38
686	42
308	44
1272	60
342	46
158	38
1258	82
122	30
128	28
198	38
326	38
70	30
1056	70
262	42
1526	94
256	36
1884	88
298	42
96	20
116	32
330	38
504	48
886	46
636	32
358	42
98	34
262	30
252	24
196	40
58	26
172	36
1346	74
472	40
292	32
1628	78
260	32
1398	74
152	34
66	18
778	60
1060	68
578	48
1270	62
714	70
220	44
1446	70
204	36
646	50
1164	80
4136	112
178	14
518	40
522	58
23	9
118	38
122	30
754	54
348	40
654	64
390	58
840	44
44	16
596	38
84	28
86	18
376	36
522	62
590	56
862	58
340	38
148	32
394	30
276	40
1134	66
78	26
770	50
364	48
720	54
76	32
858	68
756	40
488	40
1126	68
698	72
202	34
148	44
644	60
2172	104
2252	104
162	34
178	38
1472	84
406	42
870	58
630	50
1048	72
982	58
6184	148
66	30
572	40
70	26
166	38
98	30
2278	94
226	34
600	52
68	28
116	28
886	54
308	44
602	54
310	42
122	30
4088	118
530	46
302	42
94	28
668	50
337	15
168	40
1404	86
798	54
552	56
778	58
68	20
478	46
338	40
166	38
100	36
742	50
274	38
54	30
742	42
510	46
620	52
754	50
306	26
3210	104
490	42
670	56
138	30
194	30
192	36
168	20
422	38
1278	74
316	44
306	38
902	70
1420	80
372	32
2228	98
318	30
246	26
528	68
868	60
382	44
644	58
202	26
460	44
286	38
326	22
254	36
500	60
1132	64
4144	146
270	48
312	40
288	44
96	32
376	52
494	42
548	34
342	40
2150	100
902	64
138	38
1312	80
296	40
260	24
308	38
522	58
968	76
314	56
256	40
198	26
830	54
2522	102
268	44
144	32
1816	78
132	32
116	24
234	30
2780	110
492	46
414	30
80	30
512	40
232	36
368	38
394	54
1038	72
234	44
302	38
736	60
276	44
212	44
256	26
88	24
506	46
1736	86
284	48
572	44
452	36
526	46
1762	96
524	52
274	50
2472	108
76	28
334	46
106	20
412	48
1768	84
56	20
52	32
19	7
172	26
206	42
118	34
86	30
420	32
294	46
624	48
820	60
244	40
352	32
130	30
162	36
198	38
126	34
1934	86
138	34
180	24
160	28
484	56
218	34
292	44
486	62
562	54
236	40
116	36
1416	82
384	44
792	60
180	28
78	26
218	30
538	50
70	18
116	34
308	60
268	44
1952	98
874	62
492	32
442	42
342	38
