Score	Length
2576174	2776
2741002	2785
2658883	2865
3816893	3354
887485	1763
1007357	1959
1841986	2287
12725889	5434
412544	1456
2488455	2641
1547689	2193
17563509	6177
5730761	3913
14516144	5699
3257455	3050
1258075	2100
566876	1636
1231801	2116
2652178	2858
822949	1792
1369501	2171
14066405	5391
24931634	7055
1265185	2028
8901101	4784
3178043	2903
3903950	3235
960565	1839
1837781	2341
2974751	2926
9396875	4595
3950475	3227
547282	1618
3270536	2935
1380777	2075
22277865	7060
617826	1467
6413634	4076
13276683	5536
2525582	2796
9271502	4601
13861370	5493
10199565	4951
7309543	4237
2302406	2732
2820479	2880
2381668	2653
11093803	5109
1076409	1931
10143456	4813
5759236	3786
8082651	4558
288548	1080
6646327	4216
2228673	2791
13226711	5550
1271219	2152
8365169	4654
424789	1355
18128705	6412
1116740	2096
1894928	2566
1205371	1919
3956419	3314
5464824	3715
227406	1116
29588020	7735
3538757	3176
10193546	4777
15525756	5852
847636	1800
5946805	3967
2414559	2779
24201296	7095
2466756	2796
5294524	3796
6289723	4120
2729531	2886
2628490	2870
3127707	2861
5875748	3948
4557623	3479
37686229	8533
6523591	4110
7155628	3957
4454800	3614
30274542	7927
2114489	2577
1086334	1964
8283532	4311
2044627	2385
3358060	3228
702832	1680
2188025	2672
287017	1088
6682564	4298
1866674	2382
3445463	3058
25262631	7361
8314443	4333
1958944	2554
1648071	2352
