Score	Length
548	40
116	28
478	34
472	56
132	28
1060	70
422	50
130	30
832	52
60	16
136	40
310	32
56	24
386	44
220	28
782	46
358	52
902	70
70	26
266	48
740	64
200	32
392	32
240	46
110	42
110	34
148	28
488	56
148	44
38	22
550	38
28	28
66	26
82	22
498	50
592	48
1242	74
390	34
2306	98
1590	76
3258	104
180	36
576	46
512	36
256	36
258	34
110	30
1638	84
644	60
694	56
276	40
772	56
256	44
268	32
282	34
132	36
90	30
430	42
844	60
170	22
128	32
704	44
1206	66
762	54
852	48
70	22
252	30
370	38
102	20
1006	82
622	42
214	38
156	32
896	86
358	38
872	62
208	32
344	46
136	24
832	48
936	52
1308	72
116	36
122	34
446	34
248	34
430	54
2968	116
580	44
266	42
410	62
204	44
1274	78
296	44
50	18
182	38
1130	66
584	44
212	36
1630	80
94	34
454	44
274	30
354	38
142	34
158	34
306	38
98	34
210	30
80	20
396	36
200	38
318	34
162	38
54	30
250	36
300	44
222	30
292	36
78	22
132	32
338	22
110	26
76	28
250	46
112	36
120	28
392	40
528	44
966	68
624	52
478	40
206	26
764	48
66	30
424	34
590	58
252	40
3362	132
320	28
162	58
524	50
1162	72
300	52
866	66
1180	68
528	48
322	34
704	70
426	52
192	32
86	22
466	46
246	36
240	40
596	56
890	70
318	38
138	26
108	28
184	26
286	26
714	58
332	40
344	40
162	34
116	28
1278	70
62	18
72	36
74	30
94	28
518	52
782	58
558	38
3024	132
762	58
528	36
474	62
56	20
946	70
752	52
1218	78
544	56
1013	68
72	28
554	70
238	38
480	52
92	20
1168	70
1290	64
648	64
296	48
154	38
782	38
114	30
142	30
2204	86
426	54
300	40
94	26
712	62
268	44
908	72
126	26
270	42
78	26
108	32
624	58
78	34
250	30
216	32
344	40
1378	80
306	34
420	44
386	38
498	58
358	42
336	56
196	32
3434	124
656	58
58	26
458	46
40	24
166	42
118	34
768	56
472	36
144	28
1410	66
38	14
78	22
2782	120
198	38
662	38
138	34
362	46
404	44
672	48
1046	70
2200	92
142	38
158	28
184	28
182	28
258	46
172	40
424	40
190	34
562	58
72	24
178	34
188	40
442	46
128	28
204	32
270	50
54	30
772	68
156	34
1026	54
608	52
2666	124
346	50
428	56
1010	70
706	50
1336	70
1128	54
130	34
988	60
446	56
84	28
664	36
1194	70
150	38
588	36
1494	62
68	32
2470	106
646	46
126	22
1164	52
360	40
138	26
778	58
118	38
1016	60
2414	102
118	38
518	50
462	48
36	20
142	26
464	36
108	24
42	24
420	40
936	80
506	22
1586	76
800	52
210	30
1042	66
202	30
62	18
864	56
216	36
144	24
360	52
276	48
230	18
144	44
398	46
922	70
304	48
430	42
184	34
950	68
292	40
770	50
472	44
90	22
726	52
154	18
292	38
800	44
652	52
120	36
1618	100
50	14
92	24
616	56
432	60
334	46
296	32
192	28
722	50
468	36
406	38
110	30
330	38
328	48
484	32
188	36
452	56
794	58
368	32
1652	94
2180	104
1172	60
250	26
100	32
280	32
854	56
446	40
214	46
248	38
110	30
770	54
390	66
662	42
250	46
136	28
694	54
296	36
222	30
182	42
42	26
298	46
236	32
472	60
592	48
170	22
154	30
174	38
58	34
204	32
146	30
176	28
190	22
408	44
286	50
136	42
2522	106
258	46
180	36
488	36
874	64
402	48
118	28
508	36
622	54
530	52
952	72
432	28
420	28
3040	120
284	32
272	28
528	64
246	38
478	38
36	16
112	36
224	40
166	34
86	26
202	34
42	18
448	50
994	82
292	36
1330	86
772	64
430	38
446	58
1657	80
238	46
362	38
534	38
658	60
82	30
284	72
1004	72
58	30
736	70
470	44
292	52
716	56
338	38
204	36
1200	76
76	28
324	44
68	28
42	22
610	42
154	30
346	42
84	44
482	38
692	52
116	40
156	32
504	40
522	42
216	24
872	60
504	44
150	22
508	40
430	30
250	30
632	56
404	52
914	52
406	56
320	48
430	50
350	30
4186	126
172	44
46	22
98	30
362	26
812	64
58	22
406	58
76	30
372	56
112	44
232	40
436	40
160	28
19	7
284	44
392	48
542	54
194	34
426	50
214	42
854	60
274	38
92	40
692	62
36	28
392	32
130	34
238	34
62	22
118	30
682	54
158	30
602	48
28	20
68	24
484	56
652	50
1706	88
568	44
312	36
526	46
1546	88
550	38
548	60
62	14
256	40
356	44
280	28
298	34
644	44
46	26
100	28
94	30
388	48
574	66
228	44
1610	86
226	42
410	38
130	34
280	28
806	46
124	28
192	44
240	34
78	38
588	60
520	48
3558	118
372	44
34	26
270	30
226	46
154	38
100	36
408	42
450	58
284	48
734	54
296	40
456	40
638	46
1216	68
1136	64
210	38
458	46
2568	108
436	40
1004	80
76	28
152	36
1154	66
710	62
196	46
368	52
220	36
194	34
788	60
96	32
468	50
750	50
1264	54
356	40
320	44
258	34
1322	90
48	32
22	10
230	38
710	76
236	40
304	48
218	42
326	42
922	72
100	32
48	28
214	38
86	26
272	48
2348	80
562	38
178	26
126	30
110	22
198	28
696	60
166	38
206	38
664	48
210	42
1090	58
416	48
238	38
196	28
106	26
1062	60
540	48
1742	78
840	64
480	52
350	34
330	34
192	32
574	46
172	32
298	30
172	36
450	46
284	48
106	34
160	26
1598	98
298	46
62	26
100	28
970	66
1332	80
496	44
86	38
338	38
356	34
2552	100
408	36
332	40
518	50
226	34
138	30
298	26
1938	76
106	46
188	28
138	46
182	30
438	58
218	50
116	36
130	30
598	52
516	50
148	36
70	30
104	32
988	68
1170	66
272	36
696	64
438	38
106	32
212	28
308	32
586	66
98	30
588	60
128	24
312	52
598	34
38	30
144	36
72	36
500	44
148	32
98	34
412	48
178	54
178	34
470	42
196	24
452	52
992	58
78	34
230	42
1770	66
72	24
92	24
760	48
768	70
54	14
424	54
180	24
576	52
188	34
154	26
212	44
486	42
124	36
140	40
574	70
164	24
80	28
236	36
156	36
268	40
538	46
376	48
1116	80
1006	44
572	48
448	40
442	34
488	44
488	60
1004	66
254	26
632	60
30	22
866	76
244	36
502	50
168	28
440	52
532	80
468	48
544	40
474	46
438	54
174	26
232	40
266	34
168	36
84	36
318	34
448	32
160	36
54	22
92	32
172	40
54	14
748	56
786	58
64	20
232	48
398	46
420	36
312	46
100	28
66	22
52	16
322	42
82	34
544	56
104	28
704	64
1058	78
960	72
188	60
496	52
400	36
168	36
670	54
98	26
280	40
594	46
354	46
628	40
684	70
814	52
40	28
150	42
420	44
1206	80
224	36
668	54
1760	102
528	52
160	40
262	46
146	48
74	26
1746	92
460	40
352	44
416	32
156	40
568	60
164	32
652	48
790	50
82	22
68	28
130	38
1414	84
530	42
608	44
750	54
688	50
466	42
392	34
404	40
236	32
294	30
508	48
160	32
92	36
818	60
780	64
82	22
1026	50
80	24
370	48
690	66
98	30
100	32
346	46
208	34
806	54
68	28
1672	82
76	24
812	64
274	46
526	38
148	52
3416	114
636	52
214	34
276	42
268	28
528	32
780	58
184	36
432	48
350	46
1082	54
112	32
776	70
242	42
670	42
746	62
1348	64
396	48
50	14
1286	58
84	40
86	26
538	46
270	38
166	42
216	36
168	32
230	26
970	58
656	52
328	52
950	66
170	38
104	32
442	38
466	50
708	80
74	26
388	40
444	44
2976	124
336	32
396	44
592	52
682	58
46	38
122	30
166	30
264	28
248	56
482	34
762	46
988	72
508	52
418	48
264	36
1508	84
1250	84
272	32
110	30
224	60
88	40
644	40
2944	98
24	24
996	76
452	36
266	34
174	26
1294	82
264	48
58	34
278	30
324	46
100	28
150	30
542	42
962	56
378	34
496	40
176	32
582	50
234	42
120	40
120	36
414	42
1376	76
300	40
106	24
1090	74
172	40
1510	96
196	34
84	32
134	32
100	24
398	34
266	34
542	50
398	46
120	36
1198	54
172	28
370	42
102	30
756	50
258	54
60	20
334	30
122	26
1478	70
19	7
1084	68
58	26
976	68
214	42
506	46
264	40
90	30
1652	72
260	28
354	34
782	34
270	54
228	30
418	50
416	48
284	28
112	28
276	36
268	32
336	28
102	26
408	36
618	46
612	46
76	28
226	30
286	30
420	42
758	62
52	32
176	36
192	36
122	34
456	40
110	30
84	32
296	28
160	28
100	32
376	32
928	46
74	24
520	48
1664	80
24	24
320	32
708	52
582	58
310	54
1052	80
1216	76
859	40
42	28
382	42
238	38
102	26
354	38
324	32
722	42
96	28
1688	86
732	40
34	30
714	50
682	38
404	38
1072	54
82	18
76	28
78	38
526	34
212	28
80	32
318	42
124	20
214	46
530	46
936	70
746	42
132	32
246	42
228	36
284	40
272	44
1276	80
254	22
608	48
1672	80
290	42
420	32
428	40
140	36
154	34
192	32
38	30
42	14
148	32
1510	88
228	32
1132	80
11994	202
856	64
620	38
74	26
2258	106
394	44
474	38
56	32
976	56
460	64
816	56
384	36
250	34
240	44
782	50
792	54
158	32
134	34
762	58
474	42
226	36
3572	110
286	54
146	30
80	24
762	62
540	54
94	26
62	34
112	32
132	32
486	54
202	34
60	32
336	56
610	62
810	58
132	36
830	62
538	44
178	26
1020	70
172	24
96	32
330	38
706	42
88	22
352	44
82	26
506	42
250	34
132	36
46	30
1590	66
1100	66
952	88
208	32
312	44
310	48
410	40
1004	68
958	66
80	34
552	40
920	52
164	44
1002	74
226	26
32	24
848	60
352	44
330	46
554	50
446	54
158	26
186	38
778	60
158	34
604	60
36	28
504	46
266	38
1384	98
138	30
822	70
438	46
544	48
110	30
578	54
526	46
450	34
2718	88
892	80
246	34
752	56
268	44
186	30
134	38
228	28
510	42
470	66
54	30
738	46
388	44
122	26
3242	128
574	46
178	34
1166	66
70	38
268	36
308	36
1031	48
754	66
780	64
234	30
40	16
82	34
310	50
340	44
426	54
178	34
634	62
426	32
402	42
834	70
84	28
226	30
268	46
568	76
274	62
198	14
290	50
924	62
110	30
50	18
126	34
210	30
148	24
70	30
290	58
378	42
200	40
230	38
70	26
208	36
782	76
354	40
80	28
270	30
112	32
304	44
208	38
560	56
332	44
394	24
3394	126
1186	66
676	56
786	66
446	46
68	16
464	40
1308	88
552	42
312	38
520	40
1412	78
114	26
170	30
244	32
690	58
968	64
1054	70
184	48
2006	94
342	50
224	40
212	32
118	30
2030	84
854	74
160	32
23	9
76	28
688	62
342	38
1750	86
862	76
1530	70
200	36
268	32
230	34
120	36
566	50
932	52
208	36
320	46
144	32
668	56
920	60
190	38
78	22
582	54
26	26
860	68
284	40
236	36
1514	68
192	36
312	32
416	36
92	24
304	32
866	68
130	30
126	28
42	26
34	22
84	24
200	28
120	20
48	16
84	28
1294	88
1708	92
330	38
240	32
334	44
98	34
754	62
314	38
362	34
504	40
428	42
120	36
1226	70
544	68
964	68
704	44
3196	100
1084	84
464	36
796	66
1392	84
1382	68
606	46
466	50
754	52
568	56
670	40
320	38
138	24
528	48
320	36
398	50
306	58
168	34
276	28
288	38
224	36
514	58
372	50
68	28
126	22
72	20
386	54
340	32
54	22
44	36
122	30
628	48
652	52
416	52
216	36
598	58
1954	88
794	50
438	54
452	32
918	70
82	22
254	26
1378	92
180	36
2074	88
102	34
656	64
832	64
490	58
158	28
472	52
214	42
120	44
362	50
216	32
520	52
392	40
670	62
198	30
19	7
764	40
832	82
1696	96
656	52
260	36
1858	90
100	24
74	16
672	60
332	44
602	62
502	54
258	46
84	28
1226	70
896	74
22	22
200	36
618	56
122	30
54	14
1290	74
490	54
360	44
250	46
586	42
576	36
362	50
400	40
574	50
236	32
1250	74
684	60
602	50
38	26
332	40
60	16
36	16
286	42
282	38
1492	70
476	58
842	54
404	40
284	44
532	52
250	54
104	32
280	48
570	48
1926	102
798	42
1560	78
370	40
126	26
338	48
1066	86
92	28
274	30
450	42
212	40
158	30
196	24
252	34
670	54
160	28
298	42
104	48
708	48
520	60
468	52
206	34
242	26
434	34
74	34
898	50
38	26
624	48
294	34
410	42
40	16
322	46
498	34
1258	80
186	38
952	72
358	38
776	64
228	40
702	62
686	46
24	24
252	32
138	38
314	30
2204	88
146	26
308	36
128	28
184	28
1518	74
1798	94
54	14
376	36
748	60
250	34
228	44
68	32
58	26
162	34
488	44
578	62
1312	76
382	42
148	36
108	32
1108	66
56	40
352	48
46	22
42	22
110	30
2196	96
498	66
390	58
808	64
110	30
300	44
316	44
302	42
398	38
524	44
658	62
2864	100
276	44
96	24
508	50
1114	70
782	50
328	36
182	42
344	36
482	42
404	56
72	16
104	30
226	30
226	34
88	28
478	46
522	42
198	42
194	34
938	54
284	44
886	58
202	34
90	30
86	30
318	44
180	48
188	40
302	58
258	34
1892	90
316	36
90	22
244	40
220	36
396	56
508	56
146	30
94	38
176	36
996	60
654	58
378	34
344	48
404	40
1736	84
3808	136
274	44
1122	78
156	32
184	32
106	22
230	50
90	22
60	24
3008	130
372	58
396	36
278	42
264	56
5262	146
704	64
474	46
726	50
238	54
19	7
696	52
320	48
408	36
96	32
582	46
1296	64
284	42
94	30
460	44
1028	56
320	36
320	36
340	32
128	28
1084	60
278	34
126	34
446	50
46	14
398	30
260	40
758	38
2308	100
718	46
274	34
390	42
114	26
158	46
280	36
160	40
774	64
32	32
560	48
328	40
304	52
1040	76
104	24
316	48
122	36
188	36
154	30
576	48
136	24
1128	84
558	52
1818	90
190	26
96	40
688	50
96	28
628	48
532	46
58	26
142	34
374	46
916	76
156	40
902	74
134	38
474	38
42	42
52	24
148	36
508	56
192	40
476	48
998	66
276	32
196	40
570	46
218	34
68	28
1856	92
234	34
614	58
88	24
36	28
834	50
588	44
606	56
120	32
82	26
126	30
54	30
714	46
240	32
694	58
148	28
718	54
222	54
64	16
322	42
210	26
60	20
1236	80
292	52
968	76
336	36
90	34
418	62
978	58
464	36
586	50
250	42
384	72
598	46
382	56
578	62
100	34
138	30
584	60
9042	148
7208	150
480	46
202	42
534	58
220	32
122	30
444	48
68	36
944	72
2268	84
312	36
816	50
224	36
116	32
78	18
110	44
256	32
152	36
396	52
160	32
154	38
2580	98
628	60
266	30
386	54
30	30
510	54
390	34
160	44
386	42
924	64
80	28
526	46
234	46
212	28
166	32
2272	112
274	44
166	30
442	42
388	44
694	58
468	36
612	48
470	54
330	42
1836	88
198	30
204	28
416	48
762	70
200	32
98	30
68	28
268	36
188	40
194	46
590	62
332	44
2302	96
250	38
776	72
360	32
784	48
1652	76
292	40
374	34
202	34
108	36
448	40
174	38
56	32
1056	80
428	52
628	44
80	20
744	56
410	34
80	24
226	34
544	48
248	36
614	62
2062	86
452	48
484	50
178	38
1214	78
1588	84
810	58
470	54
78	30
646	58
92	32
92	36
466	34
76	28
674	62
754	58
286	34
128	32
286	34
1542	98
396	32
1116	60
242	50
736	40
682	42
260	40
250	42
1086	70
64	24
96	28
756	56
354	50
358	46
504	44
104	32
142	34
270	32
66	26
468	52
680	56
878	52
58	38
264	30
198	26
466	46
118	26
178	40
174	34
328	28
2094	96
98	34
466	50
484	54
166	38
396	56
154	38
154	26
494	50
1424	96
156	32
436	44
248	50
68	20
1796	82
560	38
688	52
402	46
146	32
102	26
142	42
170	42
312	44
164	32
98	34
126	30
432	50
774	50
396	36
556	24
310	42
336	40
70	22
346	30
156	40
1318	70
4184	132
280	32
376	52
690	78
300	32
900	64
556	64
176	48
1352	62
100	32
926	54
320	48
382	42
34	18
534	46
706	46
74	30
316	56
3096	122
244	40
208	40
490	30
162	38
478	54
294	50
430	50
72	20
426	50
174	34
1454	88
394	44
570	44
116	44
136	32
182	14
1534	76
322	46
442	38
492	30
1270	64
118	30
210	30
444	32
360	36
144	34
120	28
144	32
80	40
598	44
540	58
324	28
480	46
198	36
500	40
1502	70
128	24
418	42
386	30
250	42
902	54
146	36
222	22
104	32
900	64
54	14
186	30
198	30
1102	58
26	26
126	30
172	32
264	36
236	34
128	40
386	42
344	56
128	32
104	32
996	80
1272	78
540	36
324	52
422	30
1398	62
414	42
142	34
356	44
438	58
62	22
212	24
944	44
1022	60
1078	70
636	52
1282	80
392	44
340	48
1982	100
804	60
460	36
180	34
938	64
388	38
78	22
444	56
230	50
2990	110
456	40
6080	162
422	30
244	44
92	28
1274	66
48	24
250	30
286	40
56	16
104	32
1056	80
336	40
258	50
126	42
342	34
76	36
72	26
606	46
902	66
52	28
104	24
326	34
142	30
196	44
264	40
238	30
264	40
928	56
230	30
340	36
764	48
1062	54
22	14
174	30
26	22
610	50
1000	72
306	30
84	28
1164	60
2602	104
102	30
1278	72
382	38
776	58
530	54
520	32
1080	76
868	62
1730	92
210	30
798	70
580	52
96	24
128	28
220	24
206	18
952	62
1008	76
174	36
182	34
96	30
198	42
464	44
336	58
56	32
528	46
116	32
482	44
1438	78
364	32
218	30
268	44
1780	86
92	28
1194	68
806	50
446	46
182	38
576	64
918	78
68	16
504	52
108	28
2086	96
496	46
252	52
446	46
346	42
276	32
880	72
816	76
166	26
220	40
814	66
740	56
220	28
2508	104
450	46
304	44
428	40
348	36
578	50
130	38
58	34
42	18
420	56
562	34
582	38
1416	80
688	68
518	46
296	32
4938	122
388	48
30	22
270	34
1606	94
124	24
242	30
270	44
128	32
814	52
150	30
210	34
346	54
450	42
222	34
364	36
704	52
838	60
248	32
698	52
118	34
420	48
182	30
432	32
146	34
840	72
108	32
320	48
426	50
364	28
94	30
138	50
114	38
308	56
360	20
158	36
86	22
734	54
658	48
94	30
264	40
364	36
578	50
398	52
142	30
74	22
198	42
290	50
126	30
106	38
86	30
210	38
58	34
1484	82
622	60
124	28
240	40
234	42
1084	80
294	34
378	58
350	38
148	34
358	42
964	64
552	62
324	44
334	46
420	56
910	68
498	40
2160	110
380	48
406	58
1578	84
178	14
356	40
792	64
606	44
468	44
190	34
342	42
2050	96
184	32
3776	136
168	32
170	34
568	44
98	30
86	22
676	52
420	32
1348	80
230	44
868	52
582	56
610	54
1248	56
450	54
506	46
210	30
402	38
152	32
518	42
782	54
158	38
1390	66
174	34
268	50
78	26
760	68
560	48
176	40
336	36
250	30
690	54
40	16
474	50
330	54
140	44
428	32
340	32
160	44
436	28
100	32
328	44
778	64
528	40
216	32
222	40
214	30
256	32
494	42
210	26
1354	62
278	50
484	40
554	58
538	38
312	28
1202	62
152	26
306	36
504	44
596	64
280	36
212	44
832	60
3434	102
150	34
290	46
414	62
362	46
202	34
402	46
66	30
1332	84
330	44
1192	80
124	24
258	54
656	60
658	42
566	50
364	36
513	52
86	26
250	38
366	42
312	40
372	60
586	42
262	30
1910	92
136	24
1244	74
604	52
432	42
720	48
228	32
492	34
578	50
86	38
1528	84
928	64
252	40
1704	78
1474	78
224	36
310	42
510	54
166	26
632	60
618	62
308	40
658	62
340	36
652	44
196	32
158	30
124	32
136	48
214	30
512	52
66	26
120	32
202	42
126	26
128	40
374	54
644	38
190	48
616	40
172	32
186	34
188	32
104	36
338	52
422	34
556	54
568	56
574	50
526	46
114	30
68	22
19	7
30	22
342	58
170	26
198	30
210	26
52	24
418	62
672	60
350	42
938	66
586	58
70	30
662	54
96	32
82	38
104	32
382	46
132	36
230	38
654	62
116	24
260	40
1052	72
732	46
894	38
136	32
46	14
120	26
352	32
182	46
618	42
206	44
134	30
54	22
188	32
966	62
670	56
76	20
290	30
112	32
120	40
410	38
836	50
292	32
336	36
550	42
80	24
474	46
552	52
1180	58
82	22
578	60
376	40
888	48
102	34
598	48
360	42
76	22
148	36
226	42
116	24
302	36
840	58
514	32
60	28
180	30
70	30
546	42
122	34
234	34
96	20
480	40
304	36
368	36
340	44
84	28
206	38
258	38
566	46
88	24
220	40
1588	88
680	54
358	54
844	62
260	40
922	68
714	48
524	38
612	48
52	28
234	38
2103	96
106	30
238	42
138	36
30	22
152	40
72	40
256	28
78	22
126	26
370	46
408	56
868	68
558	54
956	74
1728	78
602	46
752	72
238	38
540	44
2862	102
360	36
816	74
336	40
46	14
104	24
392	36
538	74
186	26
34	14
88	26
60	26
870	54
82	42
42	26
658	62
316	52
1020	52
926	56
1454	90
590	52
694	58
178	26
370	50
294	30
90	28
1366	82
38	26
1244	88
508	52
440	40
700	44
148	32
446	48
36	28
176	32
126	38
136	32
812	56
336	44
880	52
822	72
98	34
896	64
142	30
600	40
152	32
66	26
292	28
550	42
44	20
114	30
1324	78
280	38
558	42
1176	70
390	46
1238	78
1170	90
852	62
1032	64
238	26
98	30
188	30
804	56
596	60
938	64
360	38
684	48
296	52
696	54
184	28
618	46
790	58
446	46
364	48
218	30
198	26
160	32
316	52
566	48
1052	76
212	36
482	34
424	44
98	22
368	40
148	32
1196	86
730	66
96	28
595	50
170	26
90	22
392	32
54	18
548	60
650	54
594	46
1702	78
652	44
126	38
498	50
576	64
158	34
50	26
634	42
122	30
276	48
100	24
482	34
318	54
188	24
644	48
72	24
464	38
770	56
346	36
260	36
436	44
140	40
382	34
552	52
374	50
196	48
746	58
314	44
1308	72
290	34
198	30
112	24
430	58
330	42
520	56
130	30
1958	108
114	30
958	58
620	56
368	46
1720	88
702	52
476	52
802	70
274	46
678	62
40	24
142	34
52	24
4268	146
152	26
112	40
412	40
632	40
446	46
66	34
42	14
342	40
116	24
512	36
64	24
788	54
2754	106
220	24
728	66
534	36
318	46
1206	74
632	48
198	30
296	44
426	42
114	42
314	38
322	38
588	44
306	30
400	52
212	36
34	30
532	48
246	52
646	58
58	26
522	54
130	34
378	30
50	26
414	48
230	26
398	30
448	40
674	46
698	58
1234	78
698	50
100	32
228	40
168	32
704	52
94	36
712	66
336	48
412	44
104	36
106	20
50	22
68	22
328	40
1014	70
256	28
130	26
272	36
48	28
240	36
238	42
208	40
212	32
368	36
118	30
1278	72
70	26
126	30
208	36
198	38
366	36
228	36
64	32
236	44
40	24
166	30
502	52
446	58
1262	98
80	28
144	24
324	40
392	56
146	34
346	22
1600	80
340	44
3576	116
660	48
472	36
126	30
296	48
86	30
258	38
148	36
354	34
896	60
174	38
1076	56
898	42
160	36
146	34
554	42
718	46
190	38
246	30
328	40
266	38
68	16
490	50
594	34
176	32
150	46
62	24
670	54
338	34
592	44
208	40
88	40
208	40
626	46
118	30
906	42
1120	72
28	20
1044	56
630	46
564	44
2280	104
572	44
318	34
1008	68
26	26
56	24
1060	80
140	28
646	34
52	16
106	30
576	56
304	32
504	36
86	26
302	34
670	62
684	60
1302	70
1450	78
392	36
1636	86
362	38
1136	54
682	54
146	34
1258	76
648	58
110	22
42	26
354	38
174	38
208	28
392	36
168	36
38	22
522	46
266	46
298	40
246	34
608	60
422	38
86	30
1742	86
704	48
246	40
72	24
852	76
248	40
70	30
74	30
332	40
678	50
564	48
464	36
484	48
386	50
2426	100
288	40
532	44
52	24
772	68
154	30
496	48
360	32
1026	66
926	58
124	32
386	46
1434	98
220	36
784	54
644	54
154	34
372	60
170	38
274	30
66	30
130	38
114	46
416	46
1392	70
538	36
552	40
1438	66
68	28
638	46
70	30
1038	54
1828	90
128	40
628	40
414	38
120	36
900	56
92	24
94	30
440	38
210	42
1066	54
580	52
272	40
458	46
40	32
254	38
84	28
60	20
310	42
90	18
612	44
1088	72
34	26
188	36
34	18
768	56
682	46
82	30
592	42
426	38
176	32
1270	90
758	38
374	34
1116	68
462	50
1220	68
370	50
120	36
240	36
44	28
376	52
542	46
1348	72
1282	62
146	26
416	38
54	26
428	52
764	52
438	50
438	38
1204	68
292	60
1708	82
200	40
60	28
766	46
911	74
204	32
358	38
180	40
272	44
408	60
258	42
244	28
362	48
280	32
404	56
508	48
82	26
252	30
352	40
434	42
340	44
1314	74
582	50
58	26
258	34
304	32
118	38
310	42
358	42
196	32
380	40
468	50
248	32
438	42
268	44
246	30
656	52
84	36
106	30
318	44
66	26
68	24
188	40
26	26
208	36
312	40
680	40
226	42
366	38
64	24
294	50
230	24
136	40
602	46
442	46
370	58
320	48
882	64
76	24
274	46
336	66
324	48
272	40
1388	72
140	32
1048	64
182	40
210	34
254	28
998	78
561	58
342	46
372	42
280	44
120	32
814	54
1072	66
547	66
394	50
156	44
254	34
908	66
384	40
194	34
298	38
248	40
180	16
240	44
734	50
48	28
264	36
70	30
258	38
576	46
824	72
570	46
656	60
284	32
368	40
370	38
82	26
846	44
504	40
484	52
666	44
148	40
144	36
292	44
182	36
926	54
3424	108
40	16
1072	72
1422	56
138	34
494	46
610	60
276	32
444	40
38	26
434	34
388	52
1150	76
296	48
298	26
230	54
152	32
658	50
152	32
1338	84
342	38
966	58
440	40
206	18
210	30
1194	86
672	72
44	16
594	46
400	36
486	42
722	48
824	64
238	26
1034	78
310	58
550	52
1326	66
19	7
516	28
32	24
62	34
484	48
350	38
320	36
114	34
492	32
550	46
284	34
1796	86
724	54
190	30
44	24
1414	66
588	64
652	44
442	58
80	28
58	22
596	48
98	22
402	34
102	36
234	26
334	42
826	54
806	62
308	50
670	54
282	46
120	40
40	28
264	40
1108	64
958	68
256	36
144	36
120	36
646	74
300	44
718	62
102	30
372	36
392	52
126	30
86	30
1026	46
72	24
392	40
370	50
200	32
298	26
236	44
626	70
4156	126
662	64
208	32
576	64
604	60
632	56
310	34
408	48
174	46
1186	66
46	26
2494	106
502	54
252	44
1038	58
19	7
196	52
916	62
590	56
770	62
740	56
276	32
1076	80
576	44
228	44
462	60
382	46
798	58
68	20
750	66
218	22
74	26
362	30
652	48
416	44
578	50
590	42
530	50
458	46
126	38
268	36
86	26
206	18
348	40
96	28
370	46
516	42
740	54
48	24
68	32
2113	90
232	40
564	44
468	48
68	24
52	20
110	32
262	38
8020	182
3102	114
42	22
624	52
960	68
120	40
1064	72
600	46
86	26
928	60
52	36
492	52
674	74
106	30
64	16
376	52
1008	64
3840	132
276	40
358	38
124	36
414	42
122	34
1532	92
448	40
198	18
390	44
466	50
474	50
578	46
938	50
158	34
166	38
76	28
1252	62
54	30
606	58
302	38
142	30
156	32
292	36
346	42
268	32
106	26
540	48
140	36
23	9
40	28
216	44
28	28
676	48
2104	92
198	50
1840	86
120	28
710	62
120	32
1156	56
964	72
86	30
266	30
774	58
210	34
280	34
1340	68
508	40
652	76
624	48
1296	84
640	52
19	7
166	30
78	30
324	40
636	72
236	36
282	50
696	56
686	42
1642	110
38	26
904	72
252	48
332	36
1190	76
1046	52
134	34
184	36
650	38
48	20
510	50
1984	96
314	34
188	28
160	36
282	42
398	42
502	34
196	32
326	38
326	30
364	40
142	38
110	26
130	30
46	18
560	72
1230	66
494	52
464	52
202	30
618	54
128	30
194	26
1072	74
442	46
154	42
428	40
516	60
660	48
134	34
726	46
112	28
488	60
912	56
656	48
426	42
500	56
1170	62
560	36
288	56
734	46
734	58
222	26
1184	66
794	66
364	40
128	34
552	48
524	40
1300	74
3210	128
790	48
19	7
132	34
796	48
174	38
2568	120
104	32
2970	112
520	48
810	54
352	32
264	32
1120	60
74	22
322	22
404	44
124	32
142	26
292	36
102	30
476	50
330	38
496	32
118	30
90	22
1710	90
1886	98
548	36
452	48
660	56
410	38
122	34
1042	74
462	46
1394	76
1730	100
1416	68
330	46
24	24
196	42
892	48
102	34
948	58
434	36
178	30
228	40
164	28
68	28
126	34
212	36
356	24
156	40
6618	146
538	38
794	50
376	38
1522	110
228	36
166	38
264	30
500	48
252	32
802	54
204	44
192	30
858	66
980	48
690	52
510	42
696	44
200	40
224	32
102	26
138	38
756	52
1406	74
1044	60
410	50
830	78
606	54
238	46
1098	72
236	28
506	50
82	30
1584	88
1440	82
432	40
170	30
1074	66
528	52
674	50
556	56
292	40
720	48
674	52
202	14
374	30
106	30
1318	88
2122	80
600	48
314	46
36	20
36	16
240	28
1424	84
858	46
604	48
834	70
376	32
460	48
426	26
32	24
62	22
22	14
2188	100
146	30
524	44
554	46
642	62
404	48
1178	82
906	56
750	54
272	40
162	34
512	56
396	40
304	28
1122	78
706	62
794	74
312	36
674	50
508	36
534	50
724	48
138	42
546	50
114	30
40	16
258	26
708	60
194	34
294	50
52	20
648	68
568	30
19	7
398	34
36	20
534	60
54	30
82	26
148	40
890	70
128	32
66	18
362	30
88	32
322	42
290	46
824	54
372	32
378	50
1310	66
144	36
2252	98
198	34
154	28
102	26
168	36
122	34
212	44
1140	80
96	28
796	56
146	26
1460	72
464	48
222	34
1132	84
1274	72
40	24
502	62
388	60
640	52
510	54
118	22
234	34
304	36
238	42
258	30
152	28
834	58
78	30
612	52
38	26
220	36
268	28
114	34
2210	100
236	32
1288	72
334	34
1272	90
42	26
98	34
874	58
22	22
358	34
74	34
1008	80
496	40
42	26
56	20
140	28
22	22
394	46
520	72
1366	78
1710	98
138	30
248	40
264	32
648	72
74	26
656	64
204	24
140	34
114	26
784	76
660	60
752	64
160	44
914	78
460	46
150	38
210	30
348	44
458	54
86	30
184	36
30	14
592	48
686	42
736	54
818	62
218	22
76	24
110	30
1014	76
676	72
256	28
36	28
1198	54
884	62
132	40
274	46
144	32
354	44
218	32
102	30
718	60
294	30
488	38
346	30
952	52
1804	96
332	52
426	42
860	68
172	28
424	48
472	44
218	44
354	56
900	54
312	36
708	34
1274	84
82	18
108	32
446	42
46	18
272	32
102	38
512	44
238	46
844	56
230	28
1170	70
564	56
404	44
348	48
106	30
152	32
150	34
54	18
408	58
50	34
300	48
602	50
1212	68
870	58
916	48
28	28
38	26
244	28
3464	128
254	42
458	26
214	26
242	26
348	24
428	40
462	50
76	20
656	62
136	36
176	28
194	28
540	52
716	52
314	34
440	44
590	38
106	26
68	20
1000	60
478	42
1150	74
464	56
222	42
1148	60
286	42
108	34
624	48
344	48
70	26
96	28
128	32
2704	122
74	26
382	38
398	62
3810	128
316	32
312	40
446	48
542	38
792	60
1602	86
294	58
216	40
472	44
108	30
494	30
314	42
362	44
208	28
124	28
1510	72
172	44
58	14
36	20
146	30
132	28
688	54
142	26
934	54
190	42
760	48
896	66
96	40
212	44
160	36
678	50
44	24
38	26
44	20
146	38
380	36
454	38
3799	114
136	28
872	72
410	38
176	36
1004	66
324	48
242	34
40	28
320	32
170	38
692	40
80	24
52	28
418	34
58	26
86	38
166	30
512	32
168	44
418	44
420	40
2982	104
360	44
34	22
524	44
260	44
906	66
1918	96
142	38
320	46
270	38
550	66
1698	72
48	20
2094	106
434	50
302	42
278	50
624	48
19	7
38	30
296	44
54	26
146	30
158	34
46	14
1058	64
2688	100
166	26
518	62
348	52
542	58
518	58
112	44
588	44
392	36
250	34
124	36
92	32
1266	78
232	32
128	28
362	32
22	22
748	54
512	52
456	60
602	48
466	52
292	36
70	14
326	38
270	38
590	46
660	52
650	50
434	38
130	38
436	36
422	26
484	56
660	56
348	28
1412	88
102	42
19	7
84	20
606	42
738	66
466	50
368	56
244	32
402	42
146	26
1478	78
298	38
58	14
354	50
766	74
74	26
210	42
240	42
86	30
1122	76
38	22
164	36
612	40
152	32
52	16
1098	54
206	42
1116	76
1792	84
344	32
56	24
386	56
536	68
976	64
628	40
74	22
584	64
178	34
1390	62
458	34
358	42
432	44
150	42
570	54
1186	86
612	60
414	38
142	34
156	28
2048	84
578	54
308	40
492	36
482	42
82	18
300	38
350	46
226	46
196	36
588	44
880	56
74	26
52	28
844	84
506	42
302	50
474	38
204	36
132	40
668	56
3294	112
132	32
236	42
22	22
960	60
250	30
94	26
406	50
722	46
226	28
548	38
230	38
456	52
148	24
148	36
386	48
72	18
196	36
360	34
102	30
332	44
462	30
2066	86
388	44
248	48
294	34
1632	88
118	26
194	42
238	30
516	52
354	42
1988	82
194	46
162	30
100	28
332	38
332	36
86	38
238	34
378	32
214	46
458	38
928	52
346	46
92	28
230	54
136	24
324	46
1504	58
110	22
202	34
2490	102
92	24
486	38
132	28
1116	66
466	42
642	52
696	72
312	36
86	22
4096	120
126	36
526	50
360	52
40	20
90	18
1054	62
492	42
212	52
154	38
264	40
116	32
658	50
746	54
72	20
1056	56
1162	68
104	20
88	26
94	26
140	32
584	66
212	44
24	24
2028	100
2012	84
810	50
694	58
100	28
390	54
470	38
636	40
1116	64
568	56
540	52
188	32
276	28
308	28
250	50
1138	60
1030	62
498	50
108	44
186	34
520	56
138	24
264	52
126	26
90	32
1496	72
634	42
108	40
160	40
250	38
526	54
906	78
192	28
242	26
194	40
424	44
256	44
1536	70
706	50
798	50
146	30
464	50
214	46
570	48
98	30
132	28
1614	76
1114	60
576	40
264	30
142	34
30	14
160	36
204	28
154	34
892	62
150	38
1208	76
704	68
430	44
104	32
810	64
908	64
1894	88
530	62
48	16
218	30
532	40
744	56
1164	74
134	46
286	42
484	44
90	26
1192	68
220	52
400	44
314	38
706	74
186	34
24	12
704	52
758	62
240	38
1118	74
264	42
506	46
842	66
446	38
48	12
386	50
402	50
132	32
254	36
370	52
258	34
186	34
1092	44
170	30
344	44
546	46
654	90
1006	68
90	30
184	22
402	34
178	26
402	54
138	28
216	40
1060	76
244	32
698	54
134	34
134	30
34	26
1326	62
160	32
296	42
256	24
420	40
258	22
398	54
420	52
442	46
728	60
286	34
1700	72
1710	78
110	22
826	54
276	56
262	30
330	34
868	60
496	48
1312	64
336	40
226	38
46	26
1208	64
744	52
558	50
2828	112
972	60
272	28
96	28
322	46
224	32
248	32
348	40
294	30
590	60
424	28
374	42
608	48
186	34
100	32
19	7
150	34
272	34
214	46
498	40
102	30
440	48
130	34
146	38
234	30
492	34
114	20
412	36
272	24
54	18
150	38
166	46
1130	58
374	42
150	30
458	46
778	46
458	38
272	36
312	40
136	32
188	24
318	34
11530	206
62	30
170	38
332	40
266	38
100	28
1338	84
150	32
620	52
520	48
2092	84
466	46
174	30
200	44
366	46
66	26
188	48
350	46
1228	76
2376	112
100	36
1738	92
230	28
156	32
502	58
510	44
912	50
330	34
64	32
666	64
656	40
80	32
658	34
730	46
48	24
120	40
38	14
486	38
302	42
376	36
1066	70
228	36
416	48
1120	40
450	46
450	42
1268	64
240	24
30	14
220	20
88	32
38	26
798	72
294	38
754	62
254	30
208	24
36	12
164	32
362	42
526	46
244	36
68	32
136	28
80	32
124	36
230	34
826	46
382	34
104	32
640	44
1956	68
660	48
512	48
438	46
366	50
218	42
78	30
900	68
204	32
64	32
174	26
98	38
226	38
190	36
130	30
200	32
638	46
158	30
48	24
126	38
416	46
298	26
266	50
540	54
550	54
354	38
196	28
270	38
86	30
1250	82
840	66
120	38
450	34
890	62
1016	82
1980	82
632	60
194	22
302	34
232	38
3308	98
242	46
324	46
294	38
752	56
202	34
302	46
166	38
368	36
548	48
1588	80
536	40
206	38
240	34
726	48
358	54
206	30
1022	76
620	56
516	64
226	42
58	22
212	40
696	48
80	20
72	36
110	30
346	40
222	26
572	68
392	44
390	50
546	26
142	36
1076	64
62	14
370	40
334	50
120	28
214	30
140	36
130	26
362	50
332	36
900	60
160	44
662	58
484	52
484	48
116	28
96	28
970	42
528	60
518	58
892	56
130	30
72	24
76	28
56	24
30	22
330	42
246	34
5150	124
78	26
192	28
198	26
438	50
94	38
156	36
632	56
592	60
234	34
22	22
1032	70
496	60
772	68
48	12
466	46
322	22
1190	68
458	30
292	36
792	52
1150	62
2036	92
260	32
272	40
342	38
434	46
242	24
198	46
652	56
252	48
682	50
240	32
1436	78
560	52
780	52
188	36
162	42
254	36
288	48
116	32
394	34
414	46
492	52
274	34
98	22
120	24
700	48
1134	62
358	58
404	52
344	52
86	38
578	42
104	38
1144	72
334	38
672	54
440	36
556	52
216	24
1826	84
118	34
594	34
182	28
686	48
108	24
278	38
396	48
554	50
1490	82
300	44
120	26
30	22
142	30
316	44
254	46
356	42
19	7
318	38
802	58
334	34
578	42
300	32
502	54
428	44
182	22
626	42
1110	86
152	24
500	40
472	60
238	30
78	38
70	26
1078	68
536	40
556	56
66	26
1326	68
754	66
1536	78
216	28
252	56
88	28
1048	72
62	18
732	58
126	30
202	30
96	32
880	52
320	44
46	30
694	60
880	56
688	64
1416	80
30	14
634	58
184	32
52	24
94	26
150	34
74	34
230	38
98	26
98	30
130	30
3636	122
146	26
396	30
78	18
572	56
814	66
64	28
234	46
168	32
809	50
630	62
286	42
986	82
188	32
282	38
120	32
712	56
328	48
128	34
2300	104
294	50
322	36
594	46
1248	52
46	14
90	34
78	30
317	32
518	44
442	40
250	30
92	36
286	38
74	38
234	42
240	28
96	30
240	50
176	36
1388	80
44	16
572	44
650	52
278	38
50	18
484	54
1180	76
262	26
292	36
1012	66
156	28
482	44
92	36
36	20
840	72
348	40
470	46
558	54
578	54
64	40
858	50
110	26
130	30
248	38
102	30
718	54
240	36
160	26
24	12
236	44
364	40
388	56
452	40
832	62
332	40
178	38
316	52
598	46
600	52
114	42
830	58
72	20
476	56
886	46
2068	96
270	42
326	38
112	28
696	64
298	40
170	38
154	34
312	52
300	32
74	26
284	44
716	60
246	42
538	58
54	26
1122	62
750	42
286	50
194	42
1146	78
216	36
2420	104
68	40
38	14
704	72
378	38
442	58
188	40
72	28
550	54
206	30
116	36
1026	78
240	40
124	28
1602	76
186	38
242	26
372	42
424	44
90	22
150	26
164	36
420	40
986	54
204	48
56	24
240	28
560	40
136	28
1352	88
236	48
538	50
150	30
142	34
398	50
310	30
290	34
32	24
334	50
130	30
562	70
178	30
662	46
658	46
192	36
772	56
238	54
2770	100
100	32
424	44
420	56
56	28
1670	82
246	34
346	34
482	40
98	38
258	42
456	48
50	14
732	64
648	56
578	46
700	48
1570	78
222	26
628	52
1244	76
538	42
1526	90
198	38
96	32
548	52
692	56
314	38
88	40
1698	70
602	66
236	34
260	36
1042	58
834	54
1070	74
238	54
922	64
174	50
270	46
66	26
536	56
122	30
740	48
1382	72
122	26
1038	50
156	36
58	26
216	32
332	48
742	50
182	28
260	28
42	26
132	28
840	82
986	64
446	58
360	36
630	56
556	48
30	22
86	30
174	34
846	58
262	38
186	22
312	56
44	28
152	36
334	34
1094	80
804	62
598	54
586	62
264	42
500	56
840	56
606	50
62	22
1134	70
606	58
1050	62
46	14
860	64
384	48
156	36
2322	100
160	32
1966	90
324	40
750	68
200	40
384	36
818	64
100	24
1198	90
388	56
278	38
2508	98
176	28
414	38
964	64
712	52
542	46
640	48
100	28
692	68
98	30
1280	80
108	24
64	24
778	64
494	52
940	78
92	24
546	62
2312	84
148	40
458	38
222	26
984	84
180	40
530	54
354	42
1454	86
60	28
126	30
72	24
1196	88
110	30
712	52
182	46
848	44
840	62
1236	80
434	40
386	40
658	52
1380	76
434	38
280	34
404	52
364	48
82	22
204	28
26	26
502	48
2300	86
124	30
402	34
534	78
1886	86
110	44
128	36
622	48
872	72
110	26
176	36
224	32
282	54
1376	64
626	42
76	20
118	30
1332	96
1292	76
1056	70
714	68
714	66
206	38
788	72
714	46
316	44
742	50
354	34
682	66
420	36
140	28
126	34
536	60
116	24
804	58
200	44
170	34
1304	74
722	58
282	34
210	34
7614	150
2144	92
1342	92
492	32
80	28
72	36
288	34
112	28
120	32
102	30
1032	66
62	22
40	24
180	44
270	34
286	46
622	62
198	26
2682	94
658	58
90	34
80	28
950	70
46	38
382	38
186	46
124	28
730	64
38	30
382	54
442	42
368	36
136	40
350	38
1088	74
5768	122
90	34
180	40
1340	60
276	44
1596	72
318	42
306	34
106	26
1150	66
274	34
238	30
44	24
406	42
428	52
1366	70
1122	64
54	30
192	40
1208	78
178	28
240	32
188	36
434	42
1368	68
134	34
646	46
166	34
78	30
46	14
202	30
416	52
38	26
174	30
300	44
196	34
150	34
690	54
308	44
98	32
1162	56
516	48
516	40
662	64
2004	74
138	30
182	30
666	60
344	40
1124	66
114	30
484	40
268	40
652	62
230	54
832	60
916	72
88	24
6168	158
952	76
350	34
102	30
680	60
1120	64
116	40
250	34
40	24
138	38
216	34
490	46
460	36
304	48
378	38
764	52
88	20
346	34
32	32
86	30
738	70
212	52
108	24
484	48
106	26
192	36
294	38
1072	80
366	44
116	36
366	46
244	36
128	32
244	36
300	36
714	50
568	66
170	34
1724	90
152	32
582	62
628	56
566	48
994	48
752	54
370	46
58	26
354	42
530	54
280	44
246	30
270	38
1706	78
204	34
724	54
86	26
56	32
148	28
1390	100
116	20
1388	76
164	30
414	38
654	64
154	30
72	32
180	44
474	42
912	62
430	46
302	38
98	22
412	56
370	38
452	36
186	48
678	54
152	36
48	36
246	30
610	72
106	34
250	26
486	50
710	74
384	44
1560	62
388	56
520	48
488	52
700	46
144	36
294	46
956	76
416	36
1056	76
756	52
402	34
70	30
560	44
368	28
996	66
194	38
1224	88
732	54
34	22
184	32
328	44
178	30
1222	74
854	42
664	44
438	46
348	36
438	48
782	46
346	54
1370	76
3016	112
804	40
150	38
54	26
288	32
574	46
76	24
386	26
448	48
788	48
226	26
448	48
160	30
302	42
732	38
418	38
592	40
78	26
116	32
1260	72
56	28
324	48
200	28
82	26
694	66
1212	68
958	66
902	62
1062	70
794	58
378	42
40	16
354	50
1702	80
504	60
142	34
210	42
106	26
1476	72
936	72
62	14
632	52
66	22
402	42
332	40
962	62
300	36
462	38
272	28
586	44
68	28
326	38
34	22
60	16
510	46
392	38
1132	76
524	40
1260	60
412	64
764	58
48	24
104	28
198	30
19	7
1532	72
152	42
384	36
502	54
108	36
484	48
1528	80
199	38
590	58
50	26
400	42
786	50
744	44
130	30
140	32
272	26
48	24
86	30
422	46
290	38
82	30
140	36
88	28
460	58
160	24
544	52
216	32
264	44
142	26
378	38
582	50
1146	60
808	56
400	40
2256	92
94	26
76	24
200	40
98	26
496	52
2080	106
262	38
400	28
408	32
276	36
196	36
386	50
306	26
536	36
468	32
558	46
722	70
64	28
184	28
418	44
606	58
160	40
346	36
106	28
564	48
1250	86
28	28
176	52
448	40
1616	88
710	66
56	24
90	22
1182	70
336	44
972	76
166	34
98	42
336	36
360	40
612	66
396	40
120	36
342	46
916	72
160	44
68	16
926	82
274	42
150	42
592	48
736	40
758	56
108	32
688	56
1080	66
262	30
914	86
272	44
378	60
1046	70
386	34
420	66
1780	82
840	48
578	42
366	42
328	48
512	60
492	72
70	26
278	42
214	38
3402	114
158	34
1792	84
174	30
108	32
796	40
452	40
116	28
402	30
382	36
3606	98
324	44
198	38
22	14
818	58
886	74
64	28
84	28
112	28
1026	62
274	38
68	24
162	26
78	30
100	20
78	38
344	24
512	40
19	7
272	44
132	24
440	58
956	44
1752	94
204	24
904	72
684	48
734	54
1230	66
180	36
204	32
258	46
960	68
614	42
84	32
122	42
2202	106
750	50
1744	108
1474	64
166	30
424	40
1490	86
146	26
378	54
446	52
176	56
96	28
104	28
186	34
424	60
314	50
398	46
72	32
684	48
802	54
682	50
408	44
248	48
148	32
450	46
1962	102
602	38
266	42
1450	78
1070	70
450	52
360	56
992	60
356	36
178	34
96	28
256	32
238	46
1916	82
568	48
600	36
342	58
1264	68
72	32
770	50
394	42
528	44
330	42
938	62
290	34
358	30
102	30
360	48
1904	108
496	44
694	56
304	36
1354	78
604	56
116	24
94	38
552	40
1392	60
294	30
46	14
38	22
512	40
140	30
534	38
2420	102
180	24
494	62
298	26
144	28
110	22
222	56
762	54
284	32
180	40
690	58
570	50
1580	84
398	38
352	24
248	36
208	36
234	50
120	32
98	26
150	30
452	44
1602	78
186	46
78	30
190	36
58	14
364	48
308	32
238	46
166	34
128	36
176	40
288	44
256	28
964	52
106	30
278	50
588	44
694	58
520	36
402	48
528	48
774	58
716	60
66	34
500	44
1216	68
3208	98
1334	78
644	60
294	50
506	38
74	34
564	48
250	30
130	38
370	42
654	50
318	50
592	48
610	66
540	48
252	32
560	40
642	54
492	44
1982	80
244	36
266	38
150	38
48	16
282	30
72	30
356	36
154	34
322	38
1912	78
472	72
966	66
1008	60
832	64
608	44
462	42
386	42
714	54
114	26
256	40
628	52
84	36
402	38
636	72
256	42
654	42
874	66
420	44
196	28
320	48
118	30
420	40
594	46
178	42
54	26
460	48
648	48
212	40
308	44
276	44
430	48
476	44
334	30
208	32
400	40
644	48
976	56
78	22
72	20
504	46
458	34
158	34
218	34
86	26
480	52
294	44
246	38
106	22
210	34
798	58
460	44
202	30
550	58
728	48
476	60
794	58
132	32
50	14
94	26
448	48
2242	94
748	60
602	42
1228	76
274	38
350	30
268	32
534	42
884	60
148	32
1394	78
788	64
78	38
340	44
362	42
792	72
376	44
626	46
148	28
1004	60
160	38
342	42
288	40
600	44
434	62
470	70
52	28
182	30
150	46
762	58
286	48
496	52
546	36
540	52
164	32
1742	102
641	58
236	42
78	20
496	40
138	30
800	62
404	52
630	54
186	34
270	34
104	34
1068	84
1148	68
406	36
582	62
1566	98
144	32
582	54
416	32
258	54
420	40
144	28
116	32
452	28
908	52
1620	70
240	38
136	24
104	40
94	34
120	40
1812	82
262	38
100	36
1214	70
466	34
1072	60
344	52
548	56
690	42
744	56
434	42
806	74
766	50
1600	76
118	30
532	50
108	32
162	34
200	32
2474	112
438	50
99	22
68	36
886	54
170	38
548	44
538	46
338	34
436	36
212	32
64	32
200	32
940	52
228	40
212	40
154	26
84	36
396	40
162	42
132	32
864	68
58	14
502	66
1224	52
212	32
176	28
234	34
290	46
386	54
30	22
38	14
230	18
158	34
462	50
288	32
86	18
374	26
362	50
360	40
720	64
122	30
172	32
180	32
426	46
102	22
320	48
224	36
684	44
162	34
452	54
96	44
1450	74
352	40
246	30
98	38
536	48
654	58
958	70
204	34
60	24
88	28
168	48
226	30
270	62
1144	68
200	36
132	44
96	28
634	54
112	26
104	32
436	40
76	22
90	30
1740	86
286	38
136	32
648	44
600	48
522	54
408	36
1808	86
40	32
106	30
304	48
160	28
1374	66
384	24
438	42
1277	82
1000	64
406	50
78	22
80	24
564	44
206	34
380	52
526	54
334	44
178	34
502	66
1214	54
50	18
136	32
1010	66
94	26
1120	68
152	36
148	40
66	30
796	60
550	58
390	30
228	50
94	26
50	26
104	28
472	50
544	48
120	32
260	44
64	16
576	44
80	20
1168	72
332	36
1150	70
238	34
206	34
1014	46
19	7
514	58
202	14
232	20
238	54
78	26
390	46
208	32
48	32
510	46
1236	58
280	40
814	62
294	42
42	26
488	44
532	52
322	34
114	30
1444	60
86	38
1148	80
80	28
334	22
166	30
210	38
78	30
420	44
406	66
144	36
556	54
372	34
988	60
630	50
170	38
66	26
158	34
1204	64
610	52
514	42
190	30
2362	100
398	40
138	30
228	40
2654	102
444	48
526	38
240	44
234	38
848	54
38	14
106	22
122	30
188	36
114	24
56	32
88	24
826	50
94	20
226	38
256	46
19	7
642	62
336	40
104	30
556	46
308	40
704	74
174	34
70	30
320	28
50	30
142	38
78	30
272	36
444	44
46	34
192	20
280	40
42	22
1558	80
132	30
1116	92
256	28
638	62
4484	142
678	46
214	34
144	32
100	44
554	64
150	34
88	24
406	46
208	36
134	30
168	40
342	38
474	46
962	70
354	42
276	44
126	34
154	34
178	38
326	42
176	32
74	30
704	56
408	46
46	14
710	46
142	30
552	40
152	28
34	26
634	50
70	14
970	76
192	40
580	48
158	34
42	26
140	28
392	48
232	60
752	56
76	28
86	26
700	40
622	42
404	36
812	72
124	28
112	24
246	26
256	40
580	40
1024	64
94	26
1066	62
868	68
938	78
120	32
482	38
958	58
228	44
1170	82
1930	76
346	40
662	54
72	32
190	34
1170	62
978	44
850	68
476	56
398	38
140	30
1094	58
190	34
78	22
368	40
464	48
132	44
310	38
1396	100
192	32
200	36
592	54
520	48
1840	88
1596	72
732	68
356	44
536	36
1028	58
458	54
422	42
166	38
736	58
376	52
784	52
784	62
332	44
70	22
536	48
216	36
402	48
168	48
182	26
264	40
568	48
332	52
1008	58
108	36
688	48
534	46
268	48
238	42
952	58
200	32
102	22
184	28
4897	132
248	48
132	32
186	38
718	46
1080	56
504	44
42	26
148	30
662	50
1222	82
1770	84
166	30
136	36
652	42
74	26
234	22
132	36
104	26
742	40
556	42
296	62
474	42
708	40
128	36
860	62
752	56
156	28
62	30
176	44
204	32
178	34
1116	72
274	46
604	52
522	62
704	44
480	60
172	40
200	36
1612	70
100	24
580	72
340	60
380	24
2388	90
398	48
592	62
562	50
220	56
174	30
356	32
288	48
602	50
592	44
406	50
272	48
440	32
112	24
270	46
126	32
498	44
1060	58
54	18
430	46
104	28
106	30
530	50
330	30
84	28
1034	64
194	34
208	30
244	44
600	54
354	42
376	32
434	54
390	38
486	42
1624	88
1376	66
100	32
84	24
566	54
560	30
340	40
276	40
364	44
746	50
276	32
764	46
304	44
246	34
52	24
564	36
102	34
974	68
176	24
1244	64
256	32
360	36
618	50
800	68
174	30
244	40
534	52
164	28
402	46
238	42
942	64
96	20
854	50
1212	60
1036	68
198	26
3376	122
490	44
198	38
1394	84
734	46
706	40
878	56
1096	68
512	52
366	44
1216	78
2282	98
1206	90
410	58
184	36
386	30
224	28
532	54
252	40
470	34
520	44
356	32
862	50
380	44
54	26
184	48
92	32
68	24
1814	76
94	34
1366	68
72	24
258	46
156	36
136	32
130	22
1216	60
470	46
342	48
688	56
112	28
2072	92
758	46
68	24
60	16
678	70
568	58
184	28
1100	60
508	44
130	26
742	70
1752	82
200	44
2654	120
1848	88
238	42
978	58
376	50
1096	72
1372	74
144	34
42	14
258	30
362	34
302	46
606	42
322	50
116	32
432	52
264	34
608	54
312	36
1718	86
314	34
880	58
232	26
1108	82
198	38
190	26
196	36
251	34
82	22
868	54
592	46
82	26
330	38
142	34
792	50
884	44
512	48
172	32
126	36
1502	80
876	62
552	44
556	48
498	38
70	40
280	48
78	24
590	46
78	26
210	42
142	38
104	20
368	42
774	54
710	54
36	28
70	22
1163	43
206	22
490	46
430	42
64	24
478	50
110	30
478	42
72	24
552	56
886	62
188	36
702	52
194	26
1300	64
206	42
470	38
502	42
786	74
122	30
440	52
382	50
454	52
164	40
240	32
606	52
304	48
362	46
358	50
386	50
274	42
366	54
190	42
808	48
142	34
600	52
214	38
872	76
338	42
300	44
226	42
320	40
190	30
490	38
5210	140
1170	62
366	34
134	34
812	62
318	34
326	42
90	30
140	28
610	58
158	30
60	28
134	38
320	32
1266	70
178	42
1084	80
244	40
84	32
272	42
546	42
180	32
474	62
3506	132
898	58
388	40
322	40
402	38
454	34
38	26
80	32
1708	96
408	60
150	34
816	62
192	28
328	48
330	42
36	24
262	30
44	24
400	34
122	30
288	40
418	56
834	62
126	34
2116	94
80	28
558	54
814	78
32	32
238	26
112	36
514	50
312	46
3546	114
130	46
220	28
46	14
172	44
338	46
318	38
802	66
1038	46
196	44
290	30
142	38
668	44
170	42
142	26
1650	82
620	52
638	62
86	30
256	48
884	50
846	66
78	30
548	50
458	54
578	50
124	28
234	50
280	44
850	64
552	52
560	52
638	50
402	50
196	24
274	42
68	28
298	34
58	26
966	70
302	42
748	44
278	58
68	36
98	22
1918	90
1312	66
1036	52
732	44
2336	80
98	38
672	44
960	70
248	28
696	74
518	46
796	72
168	28
198	34
120	36
110	18
68	24
116	32
262	32
126	30
236	24
578	54
36	24
2044	96
222	46
634	42
438	46
146	38
598	40
86	26
420	40
174	30
328	28
248	28
690	46
1262	76
770	60
736	64
242	46
308	36
82	26
2556	84
672	58
704	68
152	24
632	40
52	28
186	38
466	46
116	20
50	26
150	26
548	52
2324	94
546	38
1106	70
1358	64
122	34
1726	80
430	34
156	32
310	38
576	64
530	46
1204	72
360	32
568	56
46	22
226	58
420	48
38	22
458	46
844	50
174	32
312	30
588	48
1254	74
1040	76
54	30
1124	54
226	18
344	52
110	34
1274	78
320	20
48	24
312	44
1032	72
230	34
160	40
826	46
19	7
672	52
442	50
1735	76
210	42
538	42
352	32
1056	76
426	52
792	72
132	36
114	34
288	48
612	52
304	40
1410	96
324	50
190	30
126	30
174	30
436	52
874	48
96	32
1204	62
170	38
436	48
74	26
384	34
508	34
248	24
470	42
134	26
1442	100
170	30
284	32
776	60
200	36
964	68
274	38
76	20
72	20
300	48
86	22
60	24
64	24
140	32
106	30
718	78
286	42
92	32
506	26
446	46
84	30
544	52
2596	86
320	40
868	56
630	40
316	28
968	68
658	54
314	42
80	24
26	26
194	34
654	62
112	48
398	60
106	30
58	14
474	54
514	38
498	52
148	32
104	28
600	40
36	12
1016	60
96	20
1106	62
358	46
210	42
106	22
306	38
138	26
74	30
1556	80
110	34
1118	76
482	34
282	30
162	30
534	62
206	22
19	7
594	62
130	38
410	62
1136	84
846	54
470	48
324	56
400	36
396	52
316	40
170	50
286	46
578	50
1466	82
1414	84
138	30
178	14
430	28
38	30
342	66
436	40
70	26
140	32
78	26
1056	72
158	50
620	64
514	46
550	54
674	48
128	28
72	28
578	38
72	32
1428	96
130	30
758	50
116	32
214	42
244	40
320	48
46	30
106	34
278	42
762	54
150	30
1116	88
46	30
722	54
98	30
368	32
324	36
176	40
186	22
380	36
290	42
164	40
392	48
324	48
606	42
962	58
884	58
570	46
3032	92
1752	92
758	48
84	24
412	36
128	28
254	30
438	62
4760	156
766	62
408	44
264	28
374	38
670	54
134	34
244	40
476	28
106	26
30	22
132	28
130	26
46	22
600	58
272	44
150	38
256	36
748	58
378	34
236	36
698	42
198	38
194	38
298	42
190	22
610	58
638	54
1188	72
354	38
476	54
358	34
410	42
656	50
630	56
1242	78
440	40
604	52
370	30
580	64
170	30
50	30
38	22
512	48
518	38
648	40
342	54
888	76
400	48
174	34
330	40
368	60
254	50
252	52
860	72
102	26
230	26
120	28
44	28
94	30
404	46
416	40
160	34
78	26
882	48
194	34
750	42
610	62
362	40
326	38
508	52
484	48
52	24
358	50
52	32
62	26
2620	102
436	36
74	26
412	56
50	26
216	28
112	32
306	42
356	32
870	58
552	46
252	36
432	30
692	48
508	44
466	38
1122	58
322	38
166	30
970	66
398	46
316	40
60	28
426	40
88	40
434	38
568	44
124	32
550	58
212	40
126	30
318	42
766	66
306	42
446	58
914	60
440	52
698	54
474	54
28	28
416	50
464	32
490	42
1616	84
118	22
60	16
356	40
502	38
562	30
168	32
104	36
1420	80
360	40
288	50
508	52
4664	128
400	32
152	28
78	26
266	42
190	26
840	64
84	28
578	42
158	38
226	30
96	28
1106	78
612	48
742	50
544	72
102	22
338	50
416	36
444	40
1366	74
464	48
150	26
836	66
350	34
442	42
24	24
72	20
286	30
720	52
86	30
380	32
100	32
150	26
2146	104
596	40
188	40
392	36
110	30
408	40
142	26
402	42
428	44
132	28
874	52
1230	64
2054	96
78	26
378	42
360	28
298	40
590	58
212	40
362	42
302	38
168	32
124	28
1234	66
192	28
672	56
278	34
26	22
1284	66
90	26
252	44
462	56
158	34
224	32
392	36
222	30
240	48
388	36
82	30
372	48
40	24
494	50
510	50
818	54
622	58
146	30
58	22
1690	78
320	44
562	54
226	30
362	42
146	34
1412	74
492	36
280	36
980	56
496	36
866	66
276	36
1418	70
200	32
40	16
3078	104
278	46
370	38
636	40
938	70
350	36
1238	44
164	36
440	48
324	44
160	40
176	32
286	30
102	34
464	44
1252	62
1008	54
184	40
152	32
514	50
204	40
1058	66
286	34
148	40
240	40
502	54
718	58
1028	52
142	46
192	40
524	36
94	30
144	36
286	38
596	48
210	38
138	50
730	66
78	30
736	40
626	62
334	46
832	52
562	54
544	50
64	32
522	58
386	40
626	46
464	42
132	32
576	36
19	7
94	42
748	56
62	26
40	16
332	56
260	36
140	26
224	44
404	40
1442	88
1746	94
866	58
330	40
248	40
240	48
220	28
318	40
98	30
716	52
580	44
78	18
652	56
552	48
494	46
626	54
748	48
1754	78
216	24
450	50
662	54
1452	86
174	28
542	42
406	46
70	30
154	30
180	20
948	56
734	50
358	42
70	30
644	68
458	48
162	34
386	46
170	38
590	46
1248	74
842	56
422	50
56	32
690	50
118	30
70	26
646	74
396	30
450	30
536	40
1146	62
1078	64
252	48
152	28
382	42
420	40
842	50
1028	66
94	30
266	34
268	36
92	24
100	24
962	48
1600	66
388	36
690	54
616	32
350	26
568	36
224	24
296	56
580	44
28	24
1084	64
50	18
92	24
218	30
4194	124
314	38
160	32
1444	96
760	50
392	28
298	46
1860	88
904	60
82	26
194	46
296	44
198	28
824	64
528	48
220	28
886	62
174	30
650	50
214	38
388	36
354	38
78	34
62	22
662	52
682	56
734	48
138	32
1152	60
502	38
200	32
504	54
558	54
5950	150
424	36
238	26
328	40
120	34
1004	68
314	38
784	68
806	58
70	30
1140	84
940	48
224	26
424	56
834	46
168	28
972	68
102	38
340	32
972	76
1074	70
748	48
1792	78
316	20
274	38
444	48
196	24
56	26
86	34
562	50
114	36
338	50
1220	70
32	32
272	48
1422	74
684	56
284	48
624	44
1000	72
296	40
40	28
260	34
178	42
60	16
1664	100
228	36
1468	84
56	24
258	46
2568	110
628	48
1188	56
258	30
102	22
200	40
118	38
508	44
668	52
780	44
906	78
2512	106
46	26
380	24
556	44
884	56
860	68
890	74
276	52
118	30
366	44
216	40
646	42
492	44
184	38
890	60
514	34
52	24
184	36
120	32
1060	68
114	34
114	30
102	26
172	28
1064	68
1492	78
910	48
300	32
734	70
214	34
100	40
248	28
24	24
1050	74
86	34
390	42
1106	78
218	40
1428	72
478	38
802	54
704	44
452	50
882	66
720	68
564	52
234	54
2350	90
154	18
876	64
1344	64
1154	90
240	40
450	58
24	24
708	68
396	40
1858	102
886	46
118	26
912	56
120	28
912	78
1366	78
98	42
396	46
460	44
850	74
382	54
162	32
314	42
138	34
170	34
340	48
246	38
372	36
564	46
628	68
126	30
260	36
224	50
150	34
1206	82
288	42
226	46
190	42
162	38
388	48
1364	92
416	48
364	56
342	50
322	40
174	34
864	64
482	30
140	20
118	34
4590	128
236	52
70	42
520	48
532	68
496	44
286	38
240	38
176	44
344	36
456	62
438	26
892	52
80	20
1182	84
866	70
246	42
76	36
1824	84
196	44
132	30
362	38
1184	64
1238	76
270	28
388	32
1642	82
756	56
106	26
822	74
438	34
42	14
812	60
278	34
166	46
1378	68
668	76
956	64
32	28
198	32
218	38
528	54
1278	66
182	30
190	34
212	36
448	44
466	40
470	58
118	32
126	34
452	40
422	38
138	50
542	50
136	40
796	52
210	34
646	62
336	40
312	36
276	44
274	26
484	46
298	46
100	32
418	30
364	32
100	32
226	38
240	32
492	40
474	46
756	50
34	26
104	28
626	54
956	56
792	56
66	26
122	30
848	62
220	40
40	16
2646	106
354	50
738	68
3852	140
191	32
68	20
110	34
248	40
268	36
432	50
242	34
514	34
1346	74
886	50
3414	122
732	46
190	30
64	16
66	22
414	38
390	38
200	32
128	28
828	48
160	30
482	46
516	52
76	28
520	46
1572	80
926	62
2120	108
170	34
422	46
662	62
222	38
218	30
1420	92
92	24
52	28
222	34
74	22
354	30
362	54
336	56
86	30
56	24
152	36
1660	84
78	30
350	38
1052	68
1742	90
464	56
850	66
330	50
1574	66
66	18
108	36
654	54
50	26
470	48
318	48
716	60
846	66
1140	64
416	48
1280	84
262	34
332	36
262	34
364	32
336	28
720	48
114	30
340	40
76	24
770	74
410	58
76	24
250	38
1184	56
66	22
762	44
684	48
376	54
228	40
114	26
382	34
256	36
180	36
66	16
834	74
42	34
62	26
556	44
274	46
76	32
36	28
380	40
72	32
766	50
40	24
654	38
70	26
50	26
78	18
306	38
430	34
46	22
368	50
120	34
604	60
274	34
80	36
998	58
1226	86
62	26
868	64
224	30
50	14
150	38
550	38
570	68
64	20
136	40
994	90
164	32
342	42
624	64
270	42
332	56
378	46
216	36
56	24
764	54
712	56
98	30
3546	114
68	28
138	26
30	22
58	34
182	42
506	38
562	44
300	48
292	32
98	38
1712	84
66	30
34	14
350	36
72	24
650	48
576	52
452	44
890	82
174	34
796	56
172	40
490	46
582	40
344	44
752	64
302	42
1056	68
522	46
740	38
1438	70
40	24
102	30
562	50
716	50
522	62
106	30
518	26
444	44
178	34
58	26
330	30
66	42
1476	92
172	32
42	26
116	32
1726	98
172	32
442	54
72	32
598	46
132	28
694	58
1422	90
416	44
1206	78
170	34
88	30
1108	74
1092	56
46	22
416	40
316	40
1194	74
164	34
1018	74
1726	106
576	50
1334	90
100	32
104	32
208	20
1794	88
912	72
68	16
350	50
512	40
1010	78
224	24
284	42
332	40
294	38
300	32
950	66
1868	108
342	38
100	24
248	50
96	30
630	62
162	30
864	72
1394	58
386	26
288	56
438	44
66	34
2114	92
152	16
464	44
1496	70
798	62
84	24
412	48
274	42
170	34
796	56
230	50
136	40
1630	70
2062	86
142	34
1200	60
32	12
634	74
152	30
384	52
836	52
128	34
216	32
288	40
200	40
380	34
228	52
632	52
96	32
386	60
200	28
1442	78
240	40
318	34
40	28
1548	78
110	42
310	42
412	56
470	46
318	34
232	32
70	30
250	38
218	26
356	40
382	46
366	34
526	50
1984	96
768	46
86	28
200	36
2358	104
404	48
74	34
934	78
194	34
852	66
224	24
116	32
744	52
310	58
416	40
360	46
212	36
426	34
42	22
88	42
274	44
292	44
204	34
556	48
1174	70
24	24
256	32
78	30
826	50
214	38
38	14
346	42
328	48
926	68
1048	66
578	34
302	38
36	28
86	22
716	44
408	44
416	40
378	52
758	60
206	42
46	22
1064	80
814	60
764	64
94	26
98	26
4107	136
86	26
802	46
864	54
526	38
1102	70
42	14
778	52
404	52
42	22
118	34
66	18
38	22
342	38
54	26
696	56
66	26
164	32
466	54
166	38
488	50
646	62
58	30
240	36
230	48
242	34
278	26
1484	88
402	70
212	24
474	38
742	62
200	36
206	42
534	34
30	22
542	34
478	42
134	34
164	28
1198	66
874	78
802	50
372	40
312	48
82	26
60	24
394	42
256	32
710	66
44	20
398	34
428	34
1032	76
304	32
562	54
124	28
110	22
832	58
874	72
700	40
346	46
70	30
110	34
84	20
168	28
468	46
280	40
116	24
134	34
440	44
158	30
616	52
220	40
290	42
702	74
350	38
54	14
1922	96
34	26
426	40
54	26
474	42
220	36
256	44
134	30
182	38
382	50
278	34
504	48
378	22
500	56
174	34
284	48
402	38
574	58
74	30
72	24
412	56
258	42
600	62
200	28
874	88
42	30
102	30
2118	112
118	38
394	42
1108	60
58	18
470	38
806	62
682	68
404	36
590	50
510	46
110	38
300	44
322	42
58	18
36	20
1178	62
1392	88
616	36
88	28
1052	80
110	30
116	32
494	38
506	56
754	70
108	36
64	32
166	26
846	42
1336	58
402	38
322	22
358	42
788	60
1362	82
216	40
1308	72
368	44
678	62
286	30
108	32
422	42
22	22
112	36
402	46
432	56
52	36
290	34
952	48
438	48
92	28
320	44
256	36
540	42
608	36
1562	82
850	58
122	30
338	44
96	28
776	64
982	78
334	54
310	42
378	38
166	34
50	30
468	44
492	40
50	18
54	30
988	80
1514	76
428	40
604	48
528	40
1170	74
290	58
284	40
248	36
114	30
380	44
206	38
170	30
406	34
194	34
276	40
212	36
1088	60
498	50
416	40
406	30
732	60
184	32
388	46
200	28
198	34
370	58
258	42
388	36
1100	54
366	42
56	24
1038	54
256	32
714	54
60	20
370	38
534	62
220	40
74	34
368	44
412	32
698	62
706	42
54	14
266	30
174	34
1578	80
714	46
1200	58
226	38
200	36
1018	68
584	48
146	26
506	50
596	48
1326	84
1084	48
606	50
96	32
718	66
144	32
512	36
156	40
430	58
528	52
1890	84
44	20
176	32
364	40
128	28
748	56
308	32
650	58
29692	280
338	34
618	38
308	36
320	40
660	48
1050	50
718	58
434	34
936	92
240	36
680	40
136	24
312	36
518	48
970	58
722	42
474	56
124	30
572	42
362	46
68	28
1482	72
464	44
90	30
108	36
288	32
64	28
756	48
86	30
524	72
74	22
322	42
186	36
708	52
244	36
116	32
388	48
358	38
1348	60
80	20
634	42
596	48
260	52
900	38
60	20
302	30
920	52
1390	94
102	26
528	44
528	42
158	30
222	30
614	68
288	48
162	34
662	54
356	48
328	48
42	18
1420	70
130	34
990	62
100	24
484	56
308	28
356	42
902	46
88	24
404	40
494	50
112	32
392	28
286	46
186	34
300	36
2052	88
550	54
394	50
76	32
848	60
586	46
19	7
194	46
800	48
320	36
19	7
728	52
326	36
224	32
188	52
224	44
320	32
384	52
948	54
218	30
214	22
290	34
52	28
226	38
786	52
536	34
410	66
3156	102
480	40
784	66
78	26
488	48
62	30
386	42
110	26
40	16
700	54
392	28
188	32
118	32
660	44
1950	94
536	40
410	38
268	36
42	30
444	48
178	34
162	30
282	40
766	66
774	52
546	52
226	34
96	24
504	60
622	54
416	56
872	58
252	32
58	34
494	34
354	34
224	52
108	28
1576	82
1138	70
94	30
188	44
918	46
834	58
514	52
180	40
602	50
86	46
602	42
232	36
522	36
566	60
568	36
256	44
248	44
426	38
2034	80
82	34
290	42
690	66
68	20
106	30
296	44
236	44
1232	72
493	44
48	24
426	62
76	24
584	36
154	26
542	42
258	30
508	52
152	32
108	38
334	34
534	40
410	50
1138	76
60	32
690	62
612	52
146	30
304	34
330	42
408	60
466	40
1710	100
650	54
456	52
122	30
1338	74
902	54
308	32
354	46
122	34
162	34
84	28
388	24
312	48
244	32
78	34
76	36
104	22
520	68
896	64
954	54
484	60
800	52
72	24
238	34
576	44
376	64
948	64
188	28
464	52
142	50
206	38
124	32
318	48
250	38
250	38
330	46
88	24
660	54
856	52
218	30
492	52
484	36
162	34
62	22
394	34
148	36
492	48
800	36
202	36
422	46
96	32
120	36
196	36
100	32
218	30
104	36
278	50
252	40
356	40
144	28
102	34
1178	74
128	36
116	24
546	58
238	30
430	42
540	60
174	30
464	48
410	42
346	54
928	70
328	36
324	48
342	42
74	30
124	32
766	54
312	40
22	22
338	38
368	36
92	24
366	42
680	60
290	38
652	76
1338	62
160	36
240	36
704	50
158	32
296	36
1794	72
136	36
1168	70
22	22
494	56
260	36
970	70
728	46
170	38
68	26
318	30
216	40
520	44
712	72
876	56
348	24
432	36
270	32
690	66
170	42
244	20
176	28
1532	108
256	44
198	26
560	52
910	66
1320	80
462	56
114	34
74	34
100	24
230	34
44	24
1007	70
248	28
160	44
220	40
198	34
226	42
802	54
2922	96
2232	120
466	54
372	64
72	32
310	30
86	30
986	72
454	42
164	36
196	36
408	38
266	42
3766	128
38	26
240	40
352	44
740	40
792	44
288	44
168	32
46	14
130	22
192	36
230	38
606	50
110	26
168	36
616	36
138	26
582	38
248	32
686	62
158	36
214	50
128	32
220	48
22	22
56	20
848	46
878	54
914	50
438	38
670	66
260	38
84	40
366	54
454	38
36	16
586	54
200	48
412	68
356	40
392	52
2816	106
19	7
346	38
346	42
750	70
3202	106
558	54
348	48
116	28
278	42
1428	78
740	56
72	32
132	36
2896	108
132	20
238	38
392	48
452	56
944	56
72	32
74	30
188	34
574	66
246	38
46	22
444	52
782	66
80	32
684	60
738	62
650	46
30	30
1816	60
624	28
440	40
126	34
280	44
224	32
1208	84
378	32
182	34
386	38
38	18
100	32
1182	74
208	52
252	44
740	56
904	72
90	22
388	40
186	36
768	60
48	24
612	56
150	42
390	44
1436	84
132	40
1178	70
268	44
396	44
430	42
1610	74
804	66
1578	84
732	68
1442	94
692	44
154	42
140	36
234	34
1570	74
296	56
194	38
162	50
226	30
174	38
270	32
36	28
344	36
812	46
372	30
214	38
96	40
938	60
480	52
546	34
246	42
132	28
980	68
118	30
858	64
290	42
674	64
786	58
1230	82
82	34
486	50
344	32
264	26
1060	84
98	18
590	54
358	42
28	28
60	20
132	36
536	52
402	44
560	64
116	48
220	28
206	34
952	68
260	44
428	44
724	72
66	26
166	26
658	38
134	28
352	48
572	48
76	36
178	14
910	94
458	34
892	60
238	34
200	44
1088	68
406	46
354	42
140	36
508	58
3226	114
446	56
246	40
94	30
976	56
394	58
274	38
932	64
86	30
248	44
648	64
166	38
236	36
3686	114
664	56
214	30
94	30
268	28
578	46
518	54
1174	78
892	60
608	52
434	52
216	40
332	36
88	28
1388	76
260	28
974	62
724	56
412	36
240	32
19	7
46	30
570	58
1276	88
210	26
758	54
210	26
604	52
136	20
192	28
102	34
362	46
280	36
132	40
26	26
280	60
92	20
226	30
1020	64
606	74
394	34
172	32
416	40
358	36
358	50
94	18
480	48
592	40
422	48
350	34
472	36
202	34
86	38
412	36
838	86
308	28
378	38
1386	74
86	30
1004	64
290	50
24	24
2192	96
530	56
276	40
666	60
228	36
288	30
192	28
202	38
644	48
446	36
92	32
398	34
212	30
204	20
134	30
258	54
1022	86
174	30
158	22
252	48
1304	64
360	56
584	44
444	52
580	48
72	28
304	48
1314	72
236	40
554	34
54	22
334	46
378	34
336	44
470	50
248	44
218	42
160	28
630	66
7096	148
74	26
2570	98
222	34
38	30
356	28
668	46
916	84
328	28
122	34
236	40
96	20
212	32
86	26
320	44
498	62
124	36
244	48
88	24
302	50
418	42
152	28
134	30
3304	126
876	72
560	48
904	68
1736	78
4712	124
634	54
244	24
466	52
118	34
114	28
126	30
1266	74
54	22
478	50
190	38
262	34
310	42
550	38
2600	104
212	32
68	20
852	52
1638	94
128	28
334	44
524	40
160	40
1138	54
600	46
726	60
1288	80
230	46
476	56
948	60
306	48
102	30
736	48
352	44
262	26
420	36
324	36
886	82
526	62
344	28
696	52
58	14
72	32
386	54
756	86
702	46
568	48
552	52
118	30
2022	94
2516	124
110	30
2458	98
72	20
150	50
486	58
526	46
198	38
66	38
192	56
380	36
90	26
846	34
100	32
300	48
170	46
410	46
86	22
1216	64
570	42
26	26
166	50
296	32
64	20
170	26
118	34
730	58
86	18
426	40
128	36
118	34
334	46
748	54
232	48
348	52
268	40
308	36
420	60
800	60
510	42
460	60
116	28
642	58
182	30
130	24
142	34
3062	90
98	26
468	52
106	30
388	42
296	48
242	38
470	50
272	44
450	42
406	42
142	38
74	30
816	56
1502	66
716	62
340	40
524	44
114	28
412	56
94	22
250	46
396	32
276	40
62	34
138	30
134	42
1176	68
268	28
252	32
2198	82
166	34
350	50
582	46
140	16
272	42
52	20
152	28
180	36
866	48
614	58
392	32
184	44
166	38
398	42
400	44
664	72
1488	76
410	38
212	32
342	30
38	22
572	48
100	24
316	52
104	20
62	26
328	36
448	56
184	28
326	38
2062	118
330	34
182	34
654	42
376	52
26	26
122	18
1462	90
590	54
124	32
950	54
68	24
86	34
416	44
154	28
1026	62
1426	70
190	36
322	34
152	44
776	52
132	36
368	32
74	30
1960	88
1068	68
592	44
268	36
208	28
96	28
990	86
902	56
416	68
144	28
380	68
332	32
150	34
384	32
1230	98
310	48
58	14
462	42
212	32
60	24
328	36
3120	136
526	44
180	48
974	54
344	40
208	32
218	46
160	32
224	40
346	42
800	48
100	32
6840	148
592	62
558	62
414	30
200	36
304	40
746	50
776	64
1214	66
1318	90
22	22
96	44
108	32
458	42
548	60
54	30
450	34
450	46
998	74
416	48
124	40
556	64
508	60
54	14
208	32
416	44
208	36
708	60
226	46
262	38
756	80
1272	78
276	28
602	54
82	42
548	44
772	58
54	22
426	34
798	56
220	38
328	44
436	36
584	40
148	32
1396	72
134	34
492	40
278	30
62	22
266	42
390	42
898	54
552	48
1296	84
754	68
406	50
224	32
446	36
1610	72
232	40
816	76
178	38
62	30
158	26
600	48
30	14
390	54
300	40
82	38
1230	74
1056	56
336	56
400	36
56	24
76	28
728	60
416	40
830	50
126	32
528	56
2038	92
84	36
558	50
210	42
250	38
272	36
196	28
2558	122
888	76
64	24
304	36
294	42
54	30
496	50
1108	84
1712	70
146	34
1008	76
690	54
286	26
1044	56
792	64
24	24
308	40
634	62
474	38
156	40
386	38
176	32
100	36
562	38
228	44
434	34
1308	84
172	28
148	36
290	42
300	36
270	40
552	56
194	22
802	66
1452	92
400	40
626	64
426	38
96	40
398	54
358	34
656	52
166	42
536	58
474	46
322	36
586	64
86	26
326	38
342	26
512	44
162	38
164	32
1016	72
778	76
254	42
126	22
944	64
344	52
90	42
160	32
48	28
354	54
126	30
1938	118
690	42
628	64
690	50
178	34
418	34
144	28
42	14
464	44
328	48
98	24
64	24
246	30
60	28
38	26
398	34
260	52
1332	88
168	36
798	62
120	40
410	50
1048	72
980	52
960	56
262	42
232	36
64	20
96	32
252	36
186	22
114	34
124	28
108	28
102	30
90	26
190	30
1612	80
310	38
410	46
434	38
104	24
7200	152
260	32
158	34
744	68
80	20
156	36
152	40
354	50
658	38
758	54
94	48
858	70
40	32
394	36
566	54
282	42
316	36
574	42
208	36
1404	90
440	40
40	24
758	50
1088	60
132	32
184	40
292	36
36	32
218	38
478	38
442	26
844	60
1016	82
76	36
336	36
516	52
682	54
1016	56
70	30
132	36
796	60
348	52
50	18
458	46
560	60
408	48
400	32
1876	96
270	36
1062	70
54	18
340	40
1508	94
36	16
64	24
676	64
1822	92
82	26
94	34
372	48
886	52
56	32
688	56
744	52
212	32
1838	86
208	36
228	28
642	68
314	42
202	38
378	34
512	54
468	44
568	36
778	78
300	36
320	52
106	30
182	28
102	30
1612	68
86	34
302	34
570	62
272	44
60	20
112	28
328	44
216	28
472	64
1504	88
568	56
238	38
728	64
532	48
416	52
210	34
204	52
1192	88
578	54
426	60
502	44
464	32
76	36
686	50
566	56
212	40
784	74
180	36
156	36
400	52
502	54
318	42
502	42
54	22
52	24
30	14
56	14
448	40
1352	80
2530	106
82	22
72	16
748	48
278	42
1700	92
226	32
1268	66
250	38
40	24
450	56
972	52
276	28
174	26
290	34
294	42
986	82
976	72
316	40
64	32
458	30
236	24
848	60
342	46
490	42
276	40
286	40
86	30
1184	84
174	30
384	48
286	46
840	60
660	48
362	38
274	50
98	34
92	36
228	32
302	38
470	38
568	44
730	50
362	42
830	54
306	38
48	36
672	56
56	20
748	66
552	52
526	46
454	38
106	28
140	36
116	28
288	32
870	58
60	24
256	52
530	66
142	30
484	48
716	52
560	48
236	36
380	52
154	42
602	42
204	48
106	30
214	38
48	16
520	50
618	42
2414	86
2010	92
278	38
288	32
282	46
758	58
610	58
310	30
224	28
166	38
246	38
960	80
362	46
128	32
2578	112
242	46
118	26
712	32
752	56
104	32
236	32
56	36
132	36
146	42
1560	100
434	50
352	20
864	72
366	54
44	28
246	46
438	34
1186	70
356	40
1032	74
292	48
296	40
310	40
168	32
478	40
222	46
174	34
1806	84
420	48
316	36
412	40
66	26
118	30
466	50
740	56
220	36
54	18
812	56
912	78
316	36
240	36
154	26
792	62
310	46
566	58
812	70
616	68
504	52
426	42
82	26
386	38
100	24
312	36
986	62
166	18
142	34
400	44
746	42
330	38
236	32
282	36
188	24
256	32
740	48
2108	72
256	36
234	34
606	58
144	36
414	50
182	30
110	26
270	38
530	30
1598	80
238	42
2418	110
306	42
112	32
90	26
280	36
1506	62
196	52
720	52
114	22
92	28
812	64
286	38
1040	68
128	28
826	68
550	54
1054	66
480	36
424	32
282	42
4270	132
226	34
276	28
550	60
210	34
2120	98
322	42
104	20
104	24
56	24
1174	66
708	60
526	54
472	48
1010	76
244	32
516	52
360	64
1196	70
212	36
72	24
268	48
380	60
2118	98
350	38
1588	64
388	28
416	48
220	42
1466	72
548	44
366	30
282	30
336	40
64	24
682	34
126	30
286	46
576	44
278	26
260	44
90	38
842	66
708	44
150	30
400	28
402	26
34	26
274	42
386	46
434	44
150	36
230	30
410	46
1090	78
610	42
420	40
90	22
252	48
568	34
736	64
1126	66
178	30
144	28
506	54
128	32
276	30
552	48
184	36
534	42
84	36
228	40
162	28
194	32
240	48
282	48
384	36
232	44
46	22
1764	74
440	52
618	30
642	50
388	72
70	26
494	50
422	50
392	36
304	44
164	48
488	64
208	32
1978	94
734	58
168	28
1728	100
2676	106
580	44
338	52
1664	96
46	22
868	68
682	60
158	34
190	34
430	46
708	54
1678	78
150	30
494	50
306	44
52	24
598	64
262	30
136	28
56	24
278	30
222	30
204	24
176	32
386	22
618	46
238	34
1078	62
294	42
1276	70
252	44
506	66
346	54
118	30
514	50
976	74
1416	76
1014	62
510	50
650	42
682	54
834	46
82	34
486	36
652	44
374	26
170	26
470	34
700	48
614	50
574	54
412	28
532	48
510	38
284	32
646	42
458	36
202	34
558	50
1022	58
508	40
300	40
912	74
740	52
200	38
510	42
322	54
162	38
400	28
282	38
102	42
566	58
70	30
1306	72
1808	108
730	52
174	34
68	16
2336	80
346	50
64	28
240	40
2792	108
710	62
42	26
142	30
676	52
222	50
472	42
52	28
512	44
148	32
666	62
1098	66
56	20
676	40
1102	64
80	28
1014	76
136	26
284	40
206	30
302	34
182	28
104	30
378	42
210	42
70	30
64	32
160	30
328	36
86	26
474	34
444	40
882	56
610	54
290	46
268	28
218	34
42	18
576	36
170	26
192	36
198	34
920	64
160	30
528	52
440	40
102	26
132	28
526	46
1492	88
116	32
964	54
416	44
19	7
1277	64
244	36
428	32
64	32
136	38
830	78
712	60
720	62
270	38
304	32
368	66
50	26
474	58
100	24
222	30
104	32
584	56
1160	72
296	40
150	46
654	42
752	54
342	34
206	34
544	52
210	46
644	48
542	54
282	54
600	50
202	34
654	70
70	18
294	46
176	32
318	46
768	62
236	32
990	74
1262	92
504	44
550	46
228	28
206	30
228	36
242	34
474	54
784	56
90	30
220	24
454	50
112	32
40	16
172	40
108	36
158	30
506	50
1434	62
414	52
1086	58
534	54
170	34
1348	74
564	36
282	30
232	40
202	26
350	26
744	54
174	26
338	58
548	50
312	36
596	40
456	48
1098	86
1212	68
172	40
294	32
2306	90
1516	84
236	44
54	30
610	62
116	28
156	44
736	52
340	44
296	32
622	36
54	26
1238	70
444	32
1334	78
742	50
456	44
944	68
190	38
1198	62
182	34
102	30
506	38
494	50
408	40
2780	94
878	58
258	46
272	40
498	50
56	20
702	70
422	42
862	68
112	34
486	38
536	48
1254	98
538	54
306	38
152	28
3886	164
444	48
280	40
222	38
512	42
528	68
934	62
740	46
542	50
338	40
56	16
416	40
328	40
308	40
998	62
392	52
120	36
212	40
594	42
610	64
474	42
542	58
524	52
566	46
400	48
206	22
46	22
92	24
886	68
60	32
132	32
34	14
486	50
216	32
76	28
108	40
1546	96
48	20
650	58
218	30
590	62
404	28
1230	98
360	50
242	26
2974	102
92	28
486	38
1890	78
936	46
774	60
122	30
516	56
202	26
296	44
42	14
290	32
2688	88
132	32
96	28
706	62
794	56
198	34
1360	74
692	70
292	44
664	60
364	44
114	34
640	56
1378	72
216	32
200	36
306	42
1632	104
576	40
114	42
146	34
198	38
104	36
126	38
160	44
398	50
800	46
778	42
308	44
1052	60
132	36
1214	86
206	46
88	36
2614	106
248	36
480	48
122	30
2982	122
520	54
460	36
676	40
360	40
102	26
852	64
260	56
116	26
324	36
19	7
620	52
934	84
202	28
180	32
248	32
1860	92
602	54
542	50
306	34
72	28
656	68
308	40
150	34
172	40
228	40
894	58
520	54
312	34
304	36
1278	68
22	14
154	18
640	48
290	26
762	60
98	26
280	36
398	40
482	38
346	40
72	24
58	14
612	68
384	40
908	58
1398	78
406	54
596	60
84	28
278	42
210	48
822	54
554	58
408	56
846	46
206	32
422	42
510	48
908	56
970	58
1108	74
436	56
6250	172
158	26
280	40
808	52
380	24
234	34
554	54
954	78
928	56
742	38
300	40
92	24
644	56
218	26
344	48
66	34
320	48
228	32
2842	108
882	62
1210	74
244	44
282	46
52	28
30	18
200	28
324	32
94	34
362	42
68	24
320	36
22	22
216	36
336	36
168	44
140	44
1004	72
308	32
628	60
1204	56
238	42
1160	80
440	48
478	46
660	44
212	36
206	30
110	26
3062	92
110	26
1764	92
438	58
1482	66
128	24
32	32
646	46
834	58
234	34
184	40
820	60
652	60
28	28
966	66
242	26
222	42
156	32
2210	88
3180	132
140	32
218	32
1270	66
2484	104
742	44
2760	112
2114	132
220	36
1286	68
412	56
246	42
58	26
500	48
218	34
442	46
468	56
980	60
148	28
58	18
26	26
304	44
168	44
264	52
1158	62
176	32
134	30
428	48
272	36
608	38
854	62
78	22
206	42
1862	92
432	36
340	44
148	32
76	32
288	36
772	60
642	66
616	40
1174	76
936	56
202	30
740	52
264	56
950	84
280	40
326	34
92	28
390	34
368	42
418	42
152	36
174	26
1018	60
234	38
626	50
182	30
236	28
552	56
166	30
518	52
1088	70
70	26
690	46
906	74
2248	96
336	36
530	54
306	56
772	52
502	42
530	30
1512	76
558	50
412	46
152	36
482	42
292	40
164	36
188	36
232	38
170	34
66	34
1676	108
140	36
98	30
84	28
490	54
390	42
196	28
282	34
350	38
1256	76
632	50
112	44
1216	58
90	30
780	40
326	54
350	46
238	34
324	40
642	44
43	11
518	58
98	26
466	46
498	42
150	38
19	7
168	36
344	36
288	44
58	26
76	20
216	28
188	36
220	36
22	14
600	46
366	46
246	30
672	56
80	32
578	58
168	40
866	58
669	37
1048	60
328	32
644	32
674	68
504	52
166	38
164	28
22	10
284	36
600	36
708	60
708	52
248	34
370	38
480	40
506	48
330	46
152	32
1432	80
204	28
454	42
400	44
538	38
334	42
2112	92
732	44
284	56
266	38
240	34
2750	108
356	24
976	60
152	32
228	52
730	62
1004	52
554	66
220	30
310	34
352	40
256	32
132	36
32	32
908	84
534	50
114	34
444	84
210	42
122	26
416	52
1748	92
302	26
260	28
556	60
232	48
228	40
334	46
212	24
924	58
36	24
1364	62
1034	70
3560	116
416	42
144	32
558	46
218	38
110	38
24	24
612	48
282	30
368	52
60	20
314	34
408	38
2076	96
488	52
110	30
134	38
190	34
482	46
394	42
566	34
370	38
184	44
182	34
132	40
810	52
1270	74
90	26
654	54
524	52
370	26
410	36
686	66
70	34
156	32
680	60
272	32
222	34
926	68
122	30
204	44
394	46
352	24
6476	168
188	40
32	24
492	64
144	32
218	34
2048	88
146	38
218	38
596	32
1488	62
590	30
490	38
64	16
162	32
208	36
104	32
1260	82
50	22
404	46
840	64
356	48
878	68
342	38
72	16
178	30
496	32
174	34
134	26
988	56
106	30
156	28
92	32
514	34
1192	50
1108	60
1400	60
236	32
234	30
262	34
200	30
810	70
58	26
46	22
280	36
1344	68
192	40
1466	78
50	26
246	30
68	28
130	30
558	50
564	40
280	36
1054	64
520	48
342	22
124	32
56	16
62	30
58	26
224	56
134	34
106	26
436	64
460	48
88	32
768	66
84	32
434	46
338	38
700	64
450	46
50	14
448	52
84	36
494	38
440	36
40	22
194	38
108	40
130	30
868	44
316	48
654	58
250	38
108	20
214	38
1676	72
1020	90
1020	64
376	44
612	48
204	36
82	30
196	32
524	56
466	46
380	44
302	58
530	42
932	56
24	24
764	64
438	30
72	20
698	46
368	40
538	42
372	50
940	58
952	58
30	26
320	48
678	48
2784	94
214	30
498	56
90	22
816	52
466	50
52	20
130	26
482	58
110	34
36	24
626	46
106	30
260	36
410	30
500	48
312	36
146	30
48	28
214	46
194	30
110	32
644	56
1262	82
246	34
418	42
218	34
46	22
616	56
58	18
64	16
68	16
336	48
454	46
344	44
1408	96
210	22
632	52
128	36
1014	66
350	42
434	54
410	42
638	50
624	60
1194	78
666	46
64	28
1154	64
430	34
194	26
98	26
1140	58
812	64
190	30
996	68
988	52
492	56
414	34
260	54
298	40
130	34
390	46
646	54
52	20
56	32
2076	78
2168	86
232	40
826	48
280	44
768	64
522	56
50	22
48	16
220	40
322	50
376	52
196	28
500	32
1346	82
1452	74
158	44
1072	60
446	38
19	7
220	48
430	42
72	32
1838	90
180	40
118	30
732	46
872	56
1740	76
1288	88
202	46
494	66
638	62
222	50
352	44
160	28
722	72
68	24
422	38
654	74
604	52
278	46
394	34
360	36
274	30
50	14
150	30
256	44
126	30
698	54
540	52
520	48
