Score	Length
33	9
29	13
69	25
603	47
15	15
97	23
113	19
73	17
447	51
211	27
55	19
225	29
105	29
15	15
57	29
97	21
111	27
81	21
151	35
153	29
25	17
43	15
121	21
381	29
43	15
259	35
153	25
81	29
33	17
29	17
283	35
61	21
155	27
49	17
79	23
61	21
29	9
125	17
181	21
29	17
57	33
99	21
47	19
57	25
123	31
51	15
55	23
125	25
61	21
63	23
71	23
101	37
119	31
41	17
99	31
65	13
249	33
21	21
477	49
71	19
69	21
51	19
33	13
35	35
113	21
101	33
87	19
139	29
91	19
27	19
87	19
37	17
133	29
695	59
431	43
357	41
117	25
325	33
1217	69
87	19
155	23
191	23
27	11
213	25
87	27
65	21
83	19
415	37
463	51
91	19
271	31
221	45
61	25
55	23
19	11
145	29
75	27
41	25
29	9
73	17
223	35
369	41
369	43
59	19
607	49
91	23
35	15
527	47
527	59
127	23
79	19
37	19
449	37
81	17
153	21
83	17
61	29
943	69
87	15
519	35
77	21
275	31
135	23
423	31
89	21
21	13
395	55
223	39
45	17
237	33
47	19
41	13
463	43
53	17
233	37
29	29
59	19
501	53
33	9
131	23
43	19
67	23
123	39
267	31
229	25
43	19
133	25
43	19
435	35
19	19
29	9
51	23
25	21
123	23
83	27
265	33
195	39
227	41
25	17
141	33
205	29
27	19
117	21
15	15
95	31
63	19
169	35
115	21
141	29
169	37
37	17
295	35
335	27
47	15
193	25
61	17
235	31
31	15
29	9
109	29
29	17
27	19
129	33
357	29
115	27
91	23
29	9
129	33
255	51
69	21
95	19
31	19
33	21
91	23
15	15
39	19
159	23
63	19
185	29
83	19
67	19
223	23
159	27
319	43
81	25
95	19
55	19
75	19
241	33
195	23
369	37
567	55
35	19
297	41
829	53
291	43
55	19
29	9
59	23
333	33
19	19
335	43
29	9
33	9
859	55
135	39
305	27
53	21
95	31
293	33
49	13
67	19
217	29
17	17
121	25
115	27
293	35
33	17
85	17
89	21
415	39
53	17
61	21
47	15
55	17
533	41
21	13
117	29
289	33
245	37
193	25
295	39
43	15
45	21
17	17
181	25
175	35
577	53
61	21
285	29
479	55
105	21
1043	67
23	15
351	31
51	15
198	22
69	17
27	19
203	39
39	11
69	21
33	17
71	19
79	23
47	15
25	25
199	23
31	11
37	17
339	45
47	23
25	17
23	15
143	27
209	31
61	17
35	19
109	21
121	29
149	29
161	21
75	19
183	27
125	25
589	57
41	17
93	25
67	19
431	31
65	21
147	23
141	25
53	17
91	31
175	27
153	25
121	35
171	23
47	15
157	29
171	29
41	17
299	27
29	9
677	41
33	17
161	21
155	23
29	9
273	45
39	23
45	21
341	33
63	15
35	19
711	67
497	49
285	25
33	13
403	51
165	25
259	31
47	15
83	23
435	51
151	27
47	19
99	19
319	37
203	31
197	29
95	19
73	25
131	31
27	19
169	41
213	25
35	15
23	15
137	25
87	19
47	15
213	21
141	25
269	37
89	25
133	25
537	45
59	19
147	27
61	21
267	47
113	27
71	19
319	35
195	35
149	41
51	19
39	19
293	33
185	25
47	19
69	25
169	27
33	13
611	47
51	19
59	23
43	19
395	43
23	11
171	31
31	15
489	45
131	27
403	43
39	11
249	35
63	31
205	29
77	21
463	39
237	33
99	31
49	25
81	25
19	11
89	33
165	29
57	19
135	27
65	13
147	31
253	33
125	27
357	25
247	23
87	19
29	17
15	15
265	21
41	17
345	45
149	21
101	37
101	17
69	21
289	41
41	13
151	35
547	49
503	45
25	17
211	47
57	17
141	29
29	9
173	29
67	23
73	25
57	15
17	17
87	19
25	17
191	31
305	29
63	27
15	15
109	25
45	17
537	55
517	45
303	31
19	7
219	25
89	25
35	19
59	19
471	43
43	19
29	17
261	21
39	11
145	21
19	19
57	17
43	27
71	19
27	19
43	19
121	17
61	19
97	41
37	17
83	31
261	21
57	17
137	41
61	15
327	39
121	29
65	13
573	53
35	15
125	29
623	39
79	15
427	33
135	31
261	45
63	23
15	15
29	9
103	19
123	23
169	33
913	69
327	35
63	19
43	23
141	21
279	35
91	19
27	15
73	17
49	21
769	69
147	43
35	15
41	17
51	19
139	19
67	23
57	25
41	17
447	31
59	19
79	23
29	9
23	15
65	21
21	13
111	19
45	17
167	27
45	17
179	35
67	15
15	15
97	17
27	19
43	19
83	15
77	21
37	17
17	17
35	15
37	17
405	45
299	43
235	33
23	15
33	17
185	33
15	15
27	19
265	37
153	27
45	17
37	13
53	21
37	21
263	35
165	29
37	21
35	19
39	27
51	15
35	19
33	17
81	29
223	33
441	53
125	29
59	21
699	55
415	43
195	43
87	27
43	15
107	19
117	21
251	33
175	27
29	9
149	31
169	33
99	35
1063	75
51	19
391	35
73	25
163	31
47	19
311	35
129	21
275	35
95	23
233	33
271	33
319	31
121	25
53	21
305	39
49	13
105	17
599	45
151	29
23	23
689	53
33	9
139	21
47	23
55	19
153	21
201	23
91	19
79	23
87	19
199	27
95	19
171	31
113	25
43	19
37	13
29	21
151	25
159	35
387	35
29	9
33	9
69	17
127	31
361	45
353	37
77	21
121	21
57	21
87	19
39	23
251	39
93	25
59	23
289	33
45	21
161	29
47	15
33	13
33	17
143	23
133	21
47	19
215	27
253	25
89	25
179	39
421	37
961	77
81	19
55	31
135	21
231	23
31	19
213	37
161	29
849	65
495	35
309	41
437	57
319	37
83	17
163	27
147	31
129	33
23	15
289	33
271	35
85	21
87	21
75	19
277	25
167	27
37	17
47	15
291	27
89	21
105	29
647	59
219	39
49	21
247	31
219	43
29	13
229	45
197	35
501	39
123	19
43	15
59	23
153	37
303	31
219	27
49	21
305	29
177	35
49	17
87	23
99	23
225	29
225	21
457	49
15	15
53	17
163	23
419	31
693	63
67	23
37	21
129	31
99	23
81	25
217	25
53	17
43	19
231	31
477	43
233	37
141	25
403	49
33	9
189	33
199	19
47	15
55	15
97	25
25	17
41	17
15	15
83	23
259	29
233	37
341	29
403	39
107	23
1239	69
427	39
35	19
163	27
267	27
577	41
1097	77
97	25
111	19
53	17
43	19
107	23
195	19
15	15
317	35
297	49
233	33
75	27
57	13
287	31
529	51
123	23
71	23
35	15
25	17
71	19
17	17
137	29
21	21
65	21
209	21
219	33
251	27
189	29
151	29
119	23
227	27
29	9
41	21
221	25
45	21
257	45
27	19
453	35
91	19
301	33
163	23
275	23
181	29
201	17
113	33
431	43
221	29
271	27
149	41
77	29
235	39
131	27
207	31
39	21
111	27
117	21
281	41
161	25
19	15
121	25
57	21
53	21
71	17
53	21
43	15
189	19
697	43
43	11
353	37
109	33
197	25
209	25
351	27
117	17
87	19
305	37
495	49
23	15
41	13
79	23
167	27
165	21
43	27
229	33
65	13
425	41
657	59
139	31
47	19
339	39
39	23
15	15
89	17
145	29
53	17
161	29
319	43
155	27
263	47
15	15
15	15
141	25
141	21
69	17
65	21
45	13
919	59
597	65
533	47
273	29
305	41
271	27
45	17
403	43
147	23
219	33
117	25
51	19
181	21
41	17
57	21
17	17
71	23
171	35
69	23
89	29
51	19
41	17
31	23
95	27
23	23
93	21
33	17
47	15
131	27
55	19
69	25
23	15
319	35
77	21
69	25
83	27
95	31
165	25
237	23
159	33
95	31
191	23
49	21
41	13
151	25
67	23
95	19
81	19
141	25
157	25
69	17
191	35
735	61
91	23
49	13
395	51
55	19
571	51
17	17
137	29
59	27
111	31
37	21
45	13
41	13
723	67
41	29
233	23
171	27
41	13
337	29
53	17
189	37
265	33
129	21
51	27
29	9
303	35
81	21
33	17
253	47
201	25
63	19
191	27
153	29
527	47
837	47
295	39
33	17
47	23
29	21
23	23
63	19
75	23
133	25
169	29
403	43
201	29
231	37
47	15
21	21
201	49
109	37
237	29
77	21
71	19
67	15
43	15
35	19
35	19
347	31
165	37
35	11
425	31
113	25
49	17
53	19
141	37
85	21
413	43
25	17
239	25
31	15
589	51
37	17
115	35
19	11
249	35
227	27
115	23
57	17
95	25
53	21
301	37
203	23
543	53
365	53
31	11
51	19
135	27
109	25
23	15
27	19
167	23
409	41
49	17
175	31
43	15
103	19
31	11
261	45
345	41
41	17
137	21
23	15
185	29
19	19
71	19
351	39
247	35
1421	77
29	9
235	39
