Score	Length
319247	1149
441961	1225
190075	941
370269	1181
313540	1081
791903	1611
756404	1553
298973	1039
192934	981
151253	835
160213	913
350061	1157
2181978	2352
973959	1671
359189	1153
1326205	1901
193457	955
186253	963
732884	1545
210879	961
935559	1788
2237209	2366
19	7
666854	1485
842684	1591
1183641	1920
3230031	2687
152565	857
89467	677
472981	1288
19	7
228667	1031
456987	1241
202121	869
1949531	2255
525239	1207
119055	765
73029	677
472965	1329
19	7
911429	1593
356330	1133
302614	1040
145241	925
373969	1167
829797	1615
982276	1659
606973	1469
1703562	2182
871431	1555
177948	881
139881	753
3450702	2942
125311	653
49475	545
353689	1147
340485	1107
392553	1229
530041	1329
817479	1655
4015344	3123
256133	1073
501479	1391
295605	1065
129469	725
976595	1689
127525	719
724041	1551
91875	671
779065	1589
169205	781
50985	515
370588	1199
238127	1027
1329889	2012
160650	861
373062	1189
411551	1245
808260	1530
1625521	2089
233173	955
84621	603
811905	1565
884274	1639
187285	859
79771	639
123416	780
106965	707
216229	1000
516981	1245
55955	549
11483	291
161139	781
1394709	1919
254479	1029
1046451	1826
829862	1588
1344506	1999
449984	1255
2261795	2435
42942	527
2486631	2567
83353	665
291311	1173
2952427	2634
116103	731
297448	1141
166749	891
244569	1025
755750	1559
1153151	1830
2535142	2499
129147	843
339757	1123
319893	1101
255669	989
283225	1063
320003	1151
20723	289
344681	1159
1501774	1971
236890	907
326797	1117
3755007	2969
363949	1129
133738	735
320729	1139
1609196	2027
2037584	2294
2005297	2227
311190	1105
48071	563
1001426	1737
1233513	1925
493915	1315
106808	808
822094	1667
297389	1045
382195	1143
1178892	1810
228293	955
359523	1111
2881520	2608
262375	1021
323703	1111
409725	1315
653786	1462
720863	1583
207121	924
532719	1303
1564689	2043
182103	841
72172	603
19	7
74011	607
102799	751
489830	1236
241815	1025
1056123	1787
1046025	1725
265103	985
188327	881
6378720	3732
65569	595
76517	615
278954	1023
229583	935
130861	771
252958	965
537988	1342
293793	1065
121009	723
708328	1527
737131	1525
195501	939
51199	453
4291445	3045
122605	791
1131551	1809
135823	749
206524	901
765534	1491
2185918	2275
458195	1293
227293	909
1774145	2241
122811	719
267421	1045
3159844	2707
213412	979
82683	671
419083	1169
425677	1189
951265	1649
317157	1051
105303	723
211945	1007
375483	1157
375611	1217
1765760	2149
274989	1059
115777	721
503851	1403
276342	1061
2116834	2243
25949	375
281763	1045
2321282	2309
141873	751
594586	1486
1120078	1786
384199	1195
2818068	2543
455309	1223
66301	569
541211	1265
3264443	2727
179956	819
46229	491
815478	1542
77893	635
98249	625
1806337	2223
514244	1259
3121375	2685
243121	1025
111199	719
143804	792
3265855	2851
436928	1269
7627732	3967
1316707	1947
586971	1409
699525	1521
63343	581
42031	493
1498260	2019
607795	1443
152789	835
972771	1703
3281348	2833
5983395	3632
9482786	4336
5503714	3417
2514591	2503
79116	621
462263	1197
223537	1011
50171	505
516812	1377
156833	801
5463307	3510
2628311	2545
537010	1273
176393	829
416473	1237
486295	1277
132174	726
827557	1570
718424	1505
21165	347
601119	1431
74291	601
2816032	2707
580385	1422
325289	1145
1327253	1865
277751	1027
4530837	3202
103427	735
403503	1231
130735	751
151277	817
702771	1495
334909	1163
179207	897
137929	775
1609883	2094
539478	1463
1104925	1825
193760	913
265153	1069
136631	811
787699	1577
270497	1007
143749	873
302581	1079
147303	831
361677	1163
350131	1171
365857	1183
183463	925
394105	1187
14213	287
2391091	2387
370065	1155
5269296	3449
32079	391
214963	901
4021601	3121
527359	1369
1106902	1720
1050935	1755
2347309	2490
757896	1587
453397	1249
1568166	1985
132903	761
115245	799
647428	1457
84301	677
847380	1638
533473	1447
192143	919
720631	1585
248257	933
1027765	1591
312432	1099
61981	505
1264787	1823
692607	1551
422876	1185
342468	1229
98265	671
182085	855
318163	1117
433079	1245
542502	1417
1312737	1841
3445146	2823
152481	865
5996629	3571
539850	1329
598637	1447
811224	1705
1516289	2005
5560054	3430
954475	1800
116208	691
1531873	2112
200995	973
1319693	2014
242459	895
2203856	2367
3664389	2905
642818	1505
336964	1139
1979828	2170
305431	1085
204582	977
42947	491
140924	879
155873	825
1085801	1855
2390895	2375
204014	899
144332	833
110523	727
4363462	3237
105353	719
803659	1591
203439	881
230169	1009
867950	1565
3910200	2940
337365	1213
2253163	2247
187341	969
133513	793
1730586	2154
742504	1523
602413	1463
3398869	2836
93387	651
1380525	1947
949776	1810
1197643	1775
1850594	2193
220763	965
297791	1015
879521	1613
41169	539
765585	1608
425889	1293
409593	1117
1009558	1731
191289	1011
233535	1027
3414516	2850
846104	1661
187097	869
442791	1271
138692	793
518565	1383
69841	579
73008	623
4069470	3116
383539	1217
3273266	2751
396378	1308
718387	1617
152523	843
7969591	4052
25787	327
211599	969
459934	1307
329097	1047
3861757	2989
490806	1319
1548214	2085
329680	1097
1045687	1761
704695	1497
110323	761
144087	827
3619778	2896
39259	505
1254945	1853
182750	901
425109	1217
872799	1657
217301	929
2984229	2662
825678	1599
760487	1533
175509	935
183627	945
2595669	2518
348075	1099
418950	1125
1409479	1921
195923	883
1050019	1675
1889170	2185
2602586	2521
939594	1631
156103	833
246365	1043
653803	1391
1158407	1844
1297092	1885
616781	1385
116629	757
161163	845
403641	1179
4025433	2981
1074216	1764
610865	1463
995890	1704
51593	451
2284920	2365
367558	1281
199859	899
1575430	2065
162607	849
695993	1463
89293	671
316461	1151
165109	769
2285797	2223
861109	1595
1516927	2046
392619	1229
560043	1367
301307	1033
204051	911
114203	783
170362	895
862759	1625
166207	781
473113	1267
995443	1747
1264750	1836
99300	613
605515	1463
150321	879
167923	903
3604491	2882
938286	1712
208106	977
128215	765
609507	1357
191415	941
963513	1756
83611	685
494503	1295
1097332	1840
345771	1097
321241	1069
289753	1049
151187	817
1438922	1933
404440	1191
1363652	1925
305832	1115
671622	1443
109415	649
310439	1073
2625956	2503
1792486	2093
5486451	3452
50683	513
145378	769
393072	1184
408611	1201
490723	1251
368447	1225
171405	851
731759	1499
510943	1371
1225561	1855
1063221	1705
891087	1567
3966787	3063
1109267	1819
3725659	3007
763722	1590
328202	1045
866422	1619
3782958	2917
1007946	1804
4133665	2947
255927	1081
625568	1449
2298222	2471
50235	537
630069	1371
421967	1241
764396	1541
416789	1233
886846	1637
156457	833
226163	965
526222	1293
1567841	2087
556773	1451
1386360	1914
1107389	1807
707677	1509
1652568	2084
284006	1049
15505	259
506599	1303
187364	887
1823228	2228
207317	893
665704	1433
558205	1363
1260988	1982
79511	559
539744	1363
28825	407
2449984	2498
192611	857
3501620	2820
439235	1311
159701	857
4592400	3210
254908	1093
385630	1157
743451	1520
531480	1357
2177350	2352
101501	675
5867495	3506
327175	1043
276095	1069
3076431	2757
152716	803
719488	1555
289867	1155
498317	1321
195600	929
382479	1261
185217	821
176853	881
1592164	2110
553106	1341
5480777	3420
3080705	2771
1962058	2303
798558	1517
1726396	2212
137662	797
1024339	1703
2586886	2539
215092	1033
1256909	1839
86871	627
213717	979
2148600	2384
282982	1171
19	7
167759	805
364577	1117
94946	695
343931	1103
772747	1511
374477	1203
422469	1285
441784	1231
624540	1365
631224	1441
356029	1125
1575462	2053
1248379	1851
241639	969
80877	633
223575	959
415138	1242
239695	975
53811	493
414315	1291
1462871	2051
383345	1221
1284048	1781
558330	1389
627568	1389
129211	701
760862	1513
177191	925
1075612	1745
3136270	2822
84466	661
2223395	2471
2336493	2323
376334	1211
648487	1421
186817	909
157577	751
60345	579
601574	1341
1235914	1865
335537	1119
348533	1139
747771	1657
1274157	1883
525002	1305
164965	787
136329	751
119339	745
450284	1258
331808	1101
771631	1563
242614	977
908722	1619
111931	703
3759322	2907
961373	1679
4879710	3323
744843	1517
1530522	2035
613325	1381
435255	1297
357749	1215
41052	485
61747	643
1816248	2254
160891	799
98593	607
355580	1117
473307	1353
1169783	1789
211130	931
196172	971
138925	857
270185	1005
1774307	2128
314572	1191
409009	1231
706720	1425
311401	1179
139409	817
24967	347
54949	535
258027	1053
251329	1037
456627	1313
894780	1591
3897730	3052
1210828	1835
598202	1404
376555	1225
1489122	1905
678739	1403
294690	1125
66893	531
2421511	2381
314416	1147
257367	1073
196275	927
813010	1712
2878480	2663
609826	1391
998838	1675
1702885	2147
157985	831
112975	739
287404	1105
143959	809
217587	971
1082238	1763
249136	1027
80797	625
221121	933
931999	1641
202125	935
947154	1639
870978	1623
2073580	2345
3217027	2801
277603	999
1740440	2182
238708	927
82994	600
143259	847
3216764	2744
46458	511
847928	1591
151550	877
303123	1075
4108041	3134
795446	1628
339330	1154
106654	755
109145	725
333541	1193
1332253	1849
419384	1175
572553	1379
88675	649
477489	1304
77787	593
350968	1121
596079	1371
146925	791
554760	1394
1114022	1833
980903	1739
3547070	2980
361714	1183
618785	1395
334656	1175
1132707	1747
259453	1009
370434	1201
642618	1458
517025	1361
1164307	1741
2053928	2324
1171288	1857
241273	975
106779	673
480825	1273
402397	1233
1248666	1880
74857	593
130409	727
1036542	1788
39617	473
64313	571
940183	1639
309184	1069
1555701	2005
2403861	2485
798354	1535
286709	1033
4881756	3336
1387684	1985
520624	1355
980578	1725
3450955	2878
2077273	2304
143739	857
3721980	2912
126973	783
388988	1178
681530	1469
1917090	2174
1921072	2168
194471	871
548433	1279
491031	1317
1038242	1809
89063	679
1416238	1989
690982	1479
865133	1611
408970	1155
1300873	2049
5304527	3508
781727	1567
122240	799
329017	1139
862744	1575
834992	1581
405780	1275
266054	967
55001	533
726582	1522
1226562	1955
168449	877
683787	1517
238694	997
143441	753
1815102	2151
1057766	1740
795260	1617
670377	1419
825819	1572
1246550	1871
322831	1089
260031	1015
688831	1447
31367	465
571118	1384
125987	781
1012909	1697
83559	659
353528	1133
178390	907
9911	239
205954	973
4423229	3112
88875	727
212991	967
138069	815
1107219	1815
488681	1279
390718	1261
1866882	2195
167617	733
477205	1217
703080	1427
1683049	2123
145135	871
193094	949
2899866	2624
315209	1099
411783	1141
3018600	2734
283546	1093
117741	653
279185	1027
562142	1401
35211	477
954294	1723
2123420	2262
130769	845
399645	1187
102125	637
634866	1387
661718	1444
35047	459
49011	559
6029100	3584
105177	769
3642151	2896
304239	1117
595653	1365
5270345	3447
542245	1380
440109	1215
617392	1461
777818	1589
139288	855
1600627	2057
822458	1613
1656932	2197
529873	1363
664349	1553
442532	1255
2559019	2469
1786254	2196
103079	721
712869	1483
807751	1557
23403	347
400549	1267
163057	831
1926171	2240
207675	925
1143205	1793
993869	1715
2515116	2515
158579	831
223231	959
392999	1143
285231	1037
1254730	1903
304497	1097
296391	1095
737560	1651
157269	821
74173	687
2373021	2417
177622	936
2325245	2393
546865	1395
184837	897
47087	523
2937590	2621
882649	1677
286245	1045
1287302	1954
569460	1381
635687	1393
1874898	2169
3765199	2995
610903	1435
74587	641
362476	1073
749513	1435
662937	1515
34951	329
226367	961
433813	1222
1405897	1907
133548	775
5267557	3401
2765066	2604
283076	1087
1650168	2140
131055	797
769147	1542
5883	179
705525	1455
439479	1293
806120	1627
3747439	2930
539491	1349
71635	581
1403905	2024
614353	1467
4001069	2967
449028	1251
471764	1297
1344650	1899
301311	1019
229951	987
415253	1263
381236	1163
227002	995
3137389	2661
699882	1527
1145548	1828
125762	681
1229330	1849
777784	1569
1082459	1857
112993	663
116287	739
208796	943
172241	905
652154	1521
72811	629
388981	1251
89399	597
3449653	2849
1664352	2058
847409	1559
727653	1547
312272	1189
292895	1015
117318	733
371970	1125
93661	689
328864	1103
520667	1387
168255	809
766652	1532
293945	1099
686954	1519
189905	947
187989	875
144893	759
72435	629
328789	1129
1420442	1907
116511	709
383988	1111
3053293	2762
137813	739
2352913	2445
1781055	2193
2385818	2459
177713	947
2148039	2327
900464	1668
408899	1263
3233020	2759
2532257	2464
1347485	1944
546145	1339
961038	1655
1145137	1820
322760	1109
5742999	3581
68161	611
873789	1722
