Score	Length
3297	155
3915	131
1019	63
1701	109
1195	85
851	71
873	77
10697	233
247	55
653	67
741	73
2075	119
2921	125
2643	121
247	43
3105	117
3125	133
1617	105
6894	179
823	83
14061	239
661	73
325	57
2585	125
871	65
451	57
97	21
9177	211
877	65
1391	83
1185	93
1187	71
2341	113
1419	83
807	75
9301	221
4765	179
8905	197
1557	79
3575	127
53	33
1531	99
12213	247
2301	115
1041	109
6693	215
2283	87
4461	161
1579	85
1277	81
3107	111
1707	95
2065	101
11049	235
109	67
1739	99
3943	141
341	65
1445	93
399	39
697	73
665	65
465	61
5693	171
5605	185
1105	85
2755	125
531	67
1697	103
1601	109
1435	87
5331	183
3099	125
599	67
2401	115
1307	83
719	75
979	71
815	83
1283	87
907	81
1189	85
1645	87
2339	143
5119	179
827	83
1204	95
753	75
5839	197
2547	119
777	71
1481	115
1005	73
1735	115
759	65
629	73
607	63
2067	113
2025	105
8335	199
759	55
247	31
711	69
715	67
4007	123
839	69
3409	137
663	67
9255	195
7739	193
5123	149
679	99
737	73
4855	155
2653	117
1243	59
2397	135
1541	83
2275	121
791	63
501	65
785	63
971	51
7133	179
371	67
7273	209
555	65
417	57
843	79
875	59
15321	249
1279	89
1461	65
4313	145
741	69
1309	69
203	47
3777	153
3051	135
759	55
5875	163
1173	83
1627	103
829	77
2381	131
1771	85
721	81
4349	145
1317	81
3327	145
913	85
9367	217
217	53
1155	103
5995	153
373	45
2057	125
4097	141
1097	75
885	69
5257	173
3447	137
8603	193
531	67
2409	111
1165	55
967	67
4497	157
2195	131
701	69
1217	89
1783	107
2149	107
947	71
763	77
1761	111
935	59
599	47
531	63
977	75
2783	121
1481	105
285	49
491	51
1411	91
1561	89
775	63
4633	169
567	49
5141	171
899	55
895	75
585	41
397	65
4045	165
913	61
10283	225
1079	83
1217	65
1849	93
267	47
13623	261
621	47
289	37
3533	109
3039	135
309	41
2713	121
2291	115
445	53
1045	109
1293	89
13843	263
2667	133
1339	103
8161	217
2151	105
8693	199
1541	81
629	61
7253	203
1043	79
4269	161
1067	75
431	55
1945	113
1787	101
2239	127
585	69
2119	129
4203	177
473	39
2861	141
6649	209
4311	153
4443	177
3165	117
24783	337
403	49
2237	89
3925	163
907	75
3681	155
553	41
2809	129
2439	133
1383	83
8699	201
645	69
497	69
3329	141
729	81
3193	123
7267	197
1385	109
1743	103
1789	105
2357	111
4225	157
4539	149
4707	161
731	67
1857	93
1097	67
1269	73
571	47
283	55
3479	143
1331	77
431	71
2669	137
2825	121
2545	101
1011	67
299	35
3147	151
1749	117
1679	107
2269	111
5085	197
863	55
1429	107
549	55
13004	229
1157	89
793	73
2595	127
3943	147
2715	127
643	77
681	57
1389	65
489	37
5901	199
2261	113
2075	93
737	75
11497	243
4005	137
5191	149
377	33
883	63
919	75
5123	165
6925	175
703	71
6591	223
1417	81
357	45
2851	155
503	47
2699	105
261	53
2739	129
879	51
2873	129
975	75
1339	91
1211	79
3985	137
4353	135
8145	195
653	61
1549	113
1287	95
1642	89
1201	79
957	69
471	57
2019	95
4359	135
801	69
3047	119
1487	95
1031	77
1973	103
1829	97
1525	71
101	17
1221	69
1017	87
405	45
2753	129
3305	143
379	59
2495	97
2543	119
3229	125
8501	191
709	57
351	39
509	47
1905	115
1429	89
33	25
679	63
2039	89
1383	75
4081	173
599	63
1535	115
983	81
1507	109
6137	173
1297	101
2313	103
123	27
651	71
671	53
517	45
403	63
6461	169
1097	81
335	59
4403	165
4645	155
1945	109
3367	143
2855	119
7377	195
1075	63
1209	103
619	71
1217	93
1351	83
2851	115
1401	67
4513	161
2037	81
1977	93
2171	111
1099	65
1403	91
1637	95
1745	93
1941	115
749	65
777	65
3595	131
2437	137
2823	127
1519	87
3155	133
3797	165
761	77
1081	81
825	81
427	59
3981	123
5945	177
185	45
5017	163
547	59
1897	105
1413	93
9467	207
8093	201
1489	99
1187	101
945	73
1627	89
319	47
1687	111
1647	107
4449	153
2239	105
479	47
1045	69
605	37
1821	109
349	53
1549	105
1599	91
4243	165
871	71
983	75
1575	91
2007	87
1085	55
1171	85
2339	119
2689	133
373	37
1837	117
2211	111
1159	83
2733	121
6021	177
99	31
6959	201
451	65
3476	133
5159	171
1755	85
4515	139
673	53
699	61
4191	173
505	61
517	49
787	63
2993	159
179	41
10373	223
3747	131
909	77
1547	125
2111	111
1077	73
938	69
3113	139
3271	137
5377	177
729	69
8451	203
2115	103
5747	143
8377	195
579	39
5955	179
4317	161
1125	93
2019	119
8721	203
1541	93
271	31
487	51
747	75
8665	217
4401	155
1853	101
1069	65
729	53
2891	103
3989	163
2351	113
2227	97
543	67
385	25
1645	99
3575	129
3555	143
1223	99
387	45
1585	87
2417	113
409	53
1801	101
19	7
4563	163
1967	113
2417	105
1763	99
347	39
637	69
2733	139
1167	83
8403	219
1013	69
353	25
1599	73
5021	179
723	41
3437	161
5719	185
991	83
1301	77
3761	127
983	87
1335	87
1445	127
1423	83
1343	87
1501	97
969	59
4971	157
1819	89
1713	103
577	63
3155	127
727	65
1215	67
2115	121
8299	217
333	57
1279	91
663	59
3563	143
909	73
771	71
1437	91
2067	113
275	55
263	43
701	49
2691	121
11439	237
1157	69
295	39
1235	67
1375	79
1877	111
885	77
2557	119
1233	85
1349	99
899	55
1041	81
1847	89
5329	181
2187	103
2029	125
2291	125
1171	85
2115	127
1009	85
2955	133
901	77
2935	135
552	49
895	73
2171	105
795	71
2703	151
281	53
2421	115
2025	109
1813	103
1063	67
2784	129
2877	141
1055	77
3903	133
1007	79
1595	75
4227	133
521	65
777	53
2309	133
11217	247
2507	123
1967	125
857	61
2191	111
4001	167
681	67
837	63
1857	95
2503	119
701	65
435	59
1997	123
1125	89
2739	139
1443	111
953	81
177	37
703	79
1647	103
1827	95
1297	77
2023	111
1871	105
241	33
15103	289
2967	147
339	59
1181	89
591	67
1285	77
735	67
371	47
441	51
2199	123
625	49
801	77
1018	73
1677	95
431	39
1593	101
837	63
841	51
3209	153
28535	343
3287	159
9819	201
2395	135
3869	129
411	71
809	57
2235	123
2337	115
4501	157
975	67
843	79
687	71
507	55
961	69
2031	113
4755	151
2871	129
769	69
8065	223
1249	85
7355	217
4141	151
967	83
7441	197
627	55
523	59
1379	79
1349	121
1999	99
1239	89
45	21
1259	87
329	41
1711	99
215	49
2721	125
491	67
3977	183
1173	93
2567	123
693	67
1041	97
3057	145
1589	101
1725	111
1333	91
1037	73
1147	79
4337	155
907	79
3911	129
1215	87
8199	199
1883	87
5971	179
14883	247
1749	93
1323	91
657	41
1091	83
2017	121
673	75
2155	103
4149	163
2127	111
497	71
18341	287
1329	79
1071	55
555	63
1545	83
725	63
1011	87
1037	73
1381	71
665	63
1697	97
1629	101
2421	121
1025	81
2055	95
981	71
1859	101
397	57
641	45
2401	121
963	79
487	83
1073	87
1163	87
813	69
4937	145
4583	155
3029	123
2383	119
3985	137
3893	137
5159	173
1939	111
1991	83
1839	103
2599	127
571	59
401	33
2133	97
1665	107
923	59
6959	203
2301	113
17913	303
837	89
19	7
1291	103
431	35
3293	121
1535	119
1341	83
123	25
403	55
779	51
2329	125
353	57
3027	115
7131	215
1311	95
2547	131
5973	195
3099	153
2563	121
1761	105
807	75
1435	111
677	61
2007	91
1093	85
499	55
943	63
367	51
1753	73
2529	137
161	25
1523	87
1994	115
829	55
961	65
895	81
1427	91
1953	105
841	73
3957	131
3657	155
8173	205
1443	99
3563	127
14139	283
6115	201
1303	93
1381	85
2699	133
6825	203
3131	117
453	69
235	39
631	35
565	53
555	45
1107	71
3549	147
1139	79
2217	95
1775	123
5641	175
19017	303
181	65
1936	95
4967	177
4171	157
3263	145
1241	89
6295	159
767	47
8073	209
391	51
1041	85
4937	171
805	57
381	53
577	77
1841	89
4403	143
155	27
2827	141
2403	119
1251	87
4697	155
939	69
65	25
1963	105
763	39
5031	167
1561	73
171	23
903	67
1059	79
6365	189
1519	107
2069	103
815	67
1949	113
4669	169
1261	105
1005	89
631	51
743	79
1563	111
1067	87
1537	101
26401	317
3337	139
351	51
11029	245
1087	59
7750	211
3455	133
861	61
5835	189
965	73
1679	111
413	61
4347	143
51	15
6667	197
483	47
1611	103
1465	99
1449	109
197	37
1321	81
1219	83
1061	65
1747	111
5207	157
4029	159
3347	103
3175	127
6445	153
677	53
1585	93
909	77
1573	81
829	73
3961	147
1343	85
4209	143
2039	99
819	75
477	49
15167	273
701	75
361	57
2675	129
1095	83
1689	103
1497	91
337	57
5909	177
1693	87
8267	203
1425	75
759	59
977	65
15425	249
417	57
521	69
737	77
647	69
601	57
2565	111
3215	113
797	55
824	73
19817	307
351	37
865	85
19	7
305	41
7581	225
2031	127
439	55
1665	81
433	41
2811	139
691	67
3401	117
607	59
461	41
2513	107
23761	305
1619	95
517	41
4265	157
395	55
1101	93
1323	79
1243	75
1467	87
5431	169
879	61
1115	87
1231	111
323	51
879	79
4873	169
1311	99
847	75
1865	109
19	7
5231	171
635	67
343	55
1555	115
1249	89
655	63
933	85
1263	107
869	81
1899	93
1047	79
4649	163
2165	103
5685	177
235	35
771	85
3131	149
1005	97
1991	111
3591	169
10615	231
1233	65
1067	67
2609	99
1209	87
2221	123
829	67
2469	105
7275	195
1423	83
5443	167
2163	133
2877	117
3173	109
883	67
2787	127
4375	137
775	65
2057	125
