Score	Length
2687	145
1017	85
961	65
1165	83
903	71
9587	199
3279	129
1313	97
581	81
3049	123
499	55
731	75
7147	183
1303	93
1093	91
1123	89
2529	113
1649	107
5521	181
1683	75
985	85
1519	87
2503	99
1467	101
2203	103
3333	117
999	75
1091	75
575	63
1463	107
689	69
1215	83
6551	199
527	59
3589	133
551	55
741	57
2047	75
7055	197
2527	109
2499	129
529	41
1469	101
1225	87
799	79
801	73
4483	159
1965	103
2345	113
7055	199
711	59
403	71
1175	79
3193	137
351	49
1227	81
1887	99
201	29
2492	101
479	57
2017	101
939	63
3021	123
5663	167
2031	87
695	67
2383	119
2023	107
2323	101
778	75
15400	267
97	21
195	51
1201	73
1427	99
789	61
1153	101
21453	307
635	69
641	67
2495	107
1915	99
995	87
1395	71
3811	185
2011	123
1419	99
689	65
1901	95
2583	99
1909	117
14699	255
1067	73
2807	137
3119	125
3435	131
4167	159
1187	71
813	81
491	59
1035	83
4179	163
485	61
259	39
903	75
10137	227
711	59
5401	169
1489	97
803	69
5691	171
871	75
323	41
4295	147
2511	113
2709	127
1305	83
3071	107
79	47
1351	83
2301	123
5153	161
1627	103
677	59
6423	189
3353	113
935	69
2357	127
1143	81
1209	73
999	61
1345	97
1711	107
2713	123
909	77
4715	159
307	43
1405	85
1131	99
289	41
5681	155
3465	143
1753	85
5505	161
6588	181
1675	93
771	77
805	57
19	7
781	61
1070	85
1431	93
2473	109
889	81
1615	97
1259	91
3073	155
739	67
251	39
1395	83
1455	91
1683	87
659	63
1865	135
2745	129
1249	85
1389	89
1453	121
867	75
5037	195
639	77
8277	209
2873	111
2483	115
429	41
463	43
1691	111
1851	99
4581	133
697	73
655	75
735	39
329	55
753	73
383	31
889	81
1271	81
287	43
3647	159
1141	69
925	77
803	75
2181	117
1627	73
3607	137
85	19
817	65
3303	123
551	55
1869	103
3883	121
499	59
961	81
463	71
97	17
917	77
2093	95
265	45
1381	105
2693	113
1113	69
2483	133
1873	113
1755	107
2279	119
2399	99
3497	141
827	53
1345	81
905	81
3161	125
1691	107
2069	111
1531	89
2397	101
837	89
1417	81
1167	87
2715	121
1815	111
1639	115
2007	103
829	69
1025	89
621	63
1113	79
1219	63
3329	145
5345	189
755	75
939	79
429	43
637	65
1257	81
9537	205
2651	127
3511	141
1963	99
1381	89
2303	109
1171	69
1833	121
947	83
1279	91
5873	181
1489	89
381	51
2725	127
817	69
791	63
5359	179
1465	93
701	69
177	41
581	59
4427	177
399	35
1213	81
1521	97
1707	107
1517	89
667	65
8941	219
1301	81
925	89
501	59
11437	271
1577	85
1070	71
691	63
1113	89
963	75
1657	113
1171	95
1809	101
715	83
2751	131
1155	93
1001	61
1589	107
931	59
945	71
609	69
1325	95
2651	109
1592	85
1173	89
5649	177
2109	133
3847	157
4955	127
4749	159
1331	103
1376	97
545	61
1197	81
487	55
1295	83
2057	103
2633	143
681	81
3327	131
3491	151
2929	143
2095	107
953	77
601	67
1719	89
423	51
269	49
3441	121
2135	123
2445	107
421	45
1793	97
817	55
4111	135
1095	87
1661	81
1323	75
13843	281
667	47
2047	93
16536	293
1175	71
3491	141
905	73
529	49
999	67
4097	143
4369	159
2593	129
2039	107
1689	87
435	53
487	39
1383	87
1107	83
4181	145
2353	95
1797	101
6587	189
7975	231
2979	135
559	67
1507	95
913	75
639	61
1229	81
89	29
1411	71
2351	115
3423	141
1429	91
2495	137
659	63
2569	123
1825	105
1311	59
1149	93
7325	201
945	69
1356	81
659	51
1563	91
4269	157
1827	123
1065	93
1915	107
331	59
1773	83
4419	145
2187	121
2761	131
611	55
449	65
1733	99
2317	101
2357	109
1869	113
1409	81
4201	149
875	61
125	45
1133	93
1141	93
2015	127
6531	167
8861	209
541	61
11409	245
1297	91
249	45
1727	83
2023	109
4969	145
2467	141
3263	167
2149	105
2235	95
777	81
3355	141
5103	177
1495	75
2253	105
1041	99
1049	69
1713	97
467	67
17451	285
2171	117
623	43
1639	105
643	55
1975	103
197	41
1009	93
4365	157
2479	103
765	67
485	45
1335	75
1271	63
1305	85
889	73
1251	95
1129	61
1159	67
1069	71
1291	91
4805	169
1099	67
3465	131
1971	97
335	63
9579	227
985	83
1219	61
4653	151
1953	113
3387	143
2475	111
341	49
1539	95
1709	101
387	43
2003	97
5031	161
523	49
2101	93
8617	253
3197	97
121	25
4097	137
2661	137
805	83
5405	173
875	75
373	49
14215	263
601	61
3937	145
4307	131
4483	151
2801	129
593	69
513	57
4351	127
4137	125
2635	129
791	75
899	87
119	27
249	27
2285	119
2143	109
3193	145
1971	123
1713	115
655	67
12407	253
2319	111
1781	117
887	79
8257	181
1281	85
2273	117
8003	211
5233	165
1331	91
745	73
1259	79
1027	67
1807	99
885	77
2403	103
3019	151
3191	145
1429	71
1167	91
3789	165
431	51
963	71
1969	101
2663	131
1039	85
3239	141
2461	131
1493	83
1695	101
5877	169
3443	149
4581	181
1073	91
739	71
841	61
1501	99
997	81
1109	77
2571	127
5233	165
717	53
1057	89
3867	115
567	75
12913	239
2713	101
671	55
2273	113
3041	129
1131	83
389	43
3059	115
827	87
3699	145
2079	105
1005	77
6907	147
507	63
7309	203
3109	117
897	77
775	69
1881	105
3725	155
1757	93
367	55
1707	81
947	75
2143	115
1597	99
2175	83
1485	91
731	69
1507	89
2183	135
469	49
2053	113
1807	91
3077	123
2513	121
735	71
1985	105
575	75
2903	131
3373	141
415	47
185	45
2441	131
905	85
287	55
689	57
3421	133
1747	123
3665	153
943	79
1749	81
5707	177
1275	111
3107	123
703	51
5105	155
253	29
1895	101
36795	349
2693	127
789	73
1361	91
11023	223
4259	161
1617	85
6709	197
3193	141
2679	143
1219	87
2095	119
3149	153
341	61
1467	99
467	51
267	59
1105	77
1647	111
2427	127
687	67
557	49
4451	159
2295	119
1757	83
7423	197
1165	93
645	73
665	67
1413	99
1367	91
445	63
399	55
1869	113
921	61
1609	95
3833	169
717	57
1145	95
1443	103
1245	77
763	79
3303	137
1233	81
2175	103
631	63
2199	123
6613	187
2265	113
6407	185
803	59
1765	95
3041	135
2929	127
1071	83
839	79
4383	139
2043	117
2511	121
1121	101
32097	363
431	67
777	69
1785	103
1049	69
383	43
1573	107
897	81
2501	129
519	51
1729	101
1007	89
535	79
4727	139
237	49
629	61
989	87
527	59
2075	121
1215	75
1031	71
3539	155
1419	91
2199	119
1497	81
2459	107
5337	169
1995	111
1649	91
3095	115
677	65
3213	137
19	7
595	55
3201	139
2949	143
2049	99
2761	123
733	65
1085	77
1519	97
2549	117
739	83
283	43
755	51
1847	99
2999	141
635	67
5413	201
3129	129
2259	119
563	55
907	63
761	73
1585	79
2477	121
697	81
683	63
2557	135
3566	135
3015	135
5329	175
629	41
4937	161
3311	137
517	61
789	85
19	7
725	49
2489	113
2155	87
1357	101
5843	157
3613	127
1355	91
965	71
3495	137
789	73
1601	105
2993	121
349	41
1165	81
3099	123
1847	109
2563	123
8569	177
2635	111
1689	93
1375	87
1235	93
2141	105
1021	65
1405	77
871	87
1363	103
2171	111
653	69
613	53
1407	99
1239	91
2229	105
1423	101
399	55
761	57
777	61
1097	107
2783	123
3341	139
1325	75
2101	99
951	83
1963	117
1907	93
509	61
19781	327
5171	167
751	61
1209	75
1195	83
569	37
599	63
1041	81
1611	93
2353	119
623	67
3259	149
3787	135
1635	81
1265	97
8773	197
707	67
1921	89
571	59
2037	117
2539	129
5768	175
4367	179
909	77
4191	139
1861	125
4555	163
1083	83
755	75
1043	75
1097	81
6099	173
853	69
1707	127
1911	107
891	65
563	43
1089	81
831	65
1563	75
1247	95
2237	125
4073	153
897	81
489	53
603	63
1827	107
3709	165
1415	79
1949	85
3049	123
1675	91
1253	93
1007	87
8253	193
1231	87
187	39
2461	119
437	49
635	53
1375	95
2215	109
3205	139
1655	101
945	79
3627	135
641	77
3433	149
2863	159
4979	163
1129	67
895	75
4241	133
2097	113
1197	83
1411	103
807	71
369	45
979	75
1055	75
769	69
623	55
2263	103
451	37
1681	103
2783	107
1809	125
1143	65
1361	109
2219	123
6423	199
879	67
927	77
12573	255
1013	89
1463	99
2965	131
1083	79
1695	109
959	71
4007	157
1279	95
2809	117
12045	249
2397	113
1153	89
4847	155
1109	73
1981	109
179	35
551	51
18507	283
1145	67
1333	93
939	65
1887	111
7759	189
789	69
2351	111
5977	185
89	25
2055	103
3413	113
221	49
3459	135
1281	93
2739	105
10099	229
4909	175
1079	67
1199	87
2419	123
1665	79
1231	81
1139	81
3313	125
1923	111
3045	125
615	81
251	71
831	55
2735	119
647	55
983	91
4197	143
2483	113
2475	115
977	81
2175	105
1055	91
8307	217
821	65
871	83
931	75
1121	85
1267	79
2861	141
2375	119
5129	181
3847	159
2555	119
1203	87
573	57
6577	177
3007	135
269	41
4027	155
791	87
2259	117
875	57
147	35
1509	93
1743	89
3067	137
863	71
551	59
2631	131
2717	133
697	41
1321	95
1389	99
635	45
1385	101
1575	79
1317	95
745	73
2017	101
149	33
3225	131
1681	121
4947	185
2243	127
19	7
2041	111
973	89
3897	135
543	61
2285	91
587	63
1053	67
603	67
417	55
1121	71
1083	69
933	85
2753	127
4849	161
621	61
1789	81
527	47
4191	141
1817	105
527	37
989	73
3721	157
1657	99
2941	145
261	37
1493	101
793	77
877	81
3601	123
505	53
53	37
707	83
4853	153
2719	129
5809	191
4133	147
1771	87
955	79
2207	113
